<?xml version="1.0" encoding="utf-8"?>
<COLLADA xmlns="http://www.collada.org/2005/11/COLLADASchema" version="1.4.1">
  <asset>
    <contributor>
      <author></author>
      <authoring_tool>FBX COLLADA exporter</authoring_tool>
      <comments></comments>
    </contributor>
    <created>2012-06-28T13:51:42Z</created>
    <keywords></keywords>
    <modified>2012-06-28T13:51:42Z</modified>
    <revision></revision>
    <subject></subject>
    <title></title>
    <unit meter="1.000000" name="centimeter"></unit>
    <up_axis>Y_UP</up_axis>
  </asset>
  <library_images>
    <image id="Map #9-image" name="Map #9">
      <init_from>file://C:\Users\WesleyTack\Desktop\amnesia_raw\entities\furniture\piano\grand_piano_black.jpg</init_from>
    </image>
  </library_images>
  <library_materials>
    <material id="Material #1" name="Material #1">
      <instance_effect url="#Material #1-fx"/>
    </material>
  </library_materials>
  <library_effects>
    <effect id="Material #1-fx" name="Material #1">
      <profile_COMMON>
        <technique sid="standard">
          <phong>
            <emission>
              <color sid="emission">0.000000  0.000000 0.000000 1.000000</color>
            </emission>
            <ambient>
              <color sid="ambient">0.588000  0.588000 0.588000 1.000000</color>
            </ambient>
            <diffuse>
              <texture texture="Map #9-image" texcoord="CHANNEL0">
                <extra>
                  <technique profile="MAYA">
                    <wrapU sid="wrapU0">TRUE</wrapU>
                    <wrapV sid="wrapV0">TRUE</wrapV>
                    <blend_mode>ADD</blend_mode>
                  </technique>
                </extra>
              </texture>
            </diffuse>
            <specular>
              <color sid="specular">0.000000  0.000000 0.000000 1.000000</color>
            </specular>
            <shininess>
              <float sid="shininess">2.000000</float>
            </shininess>
            <reflective>
              <color sid="reflective">0.000000  0.000000 0.000000 1.000000</color>
            </reflective>
            <reflectivity>
              <float sid="reflectivity">1.000000</float>
            </reflectivity>
            <transparent opaque="RGB_ZERO">
              <color sid="transparent">1.000000  1.000000 1.000000 1.000000</color>
            </transparent>
            <transparency>
              <float sid="transparency">0.000000</float>
            </transparency>
          </phong>
        </technique>
      </profile_COMMON>
    </effect>
  </library_effects>
  <library_geometries>
    <geometry id="stool001-lib" name="stool001Mesh">
      <mesh>
        <source id="stool001-POSITION">
          <float_array id="stool001-POSITION-array" count="144">
-0.395308 -0.199235 0.526526
-0.303104 -0.199235 0.526526
0.236945 -0.199235 0.526526
0.329148 -0.199235 0.526526
-0.395308 -0.107032 0.526526
-0.303104 -0.107032 0.526526
0.236945 -0.107032 0.526526
0.329148 -0.107032 0.526526
-0.395308 0.103719 0.526526
-0.303104 0.103719 0.526526
0.236945 0.103719 0.526526
0.329148 0.103719 0.526526
-0.395308 0.195923 0.526526
-0.303104 0.195923 0.526526
0.236945 0.195923 0.526526
0.329148 0.195923 0.526526
-0.395308 -0.199235 0.658246
-0.303104 -0.199235 0.658246
0.236945 -0.199235 0.658246
0.329148 -0.199235 0.658246
-0.395308 -0.107032 0.658246
-0.382136 -0.186063 0.671417
0.315976 -0.186063 0.671417
0.329148 -0.107032 0.658246
-0.395308 0.103719 0.658246
-0.382136 0.182751 0.671417
0.315976 0.182751 0.671417
0.329148 0.103719 0.658246
-0.395308 0.195923 0.658246
-0.303104 0.195923 0.658246
0.236945 0.195923 0.658246
0.329148 0.195923 0.658246
-0.375550 -0.179477 -0.000351
-0.375550 -0.126790 -0.000351
-0.322862 -0.126790 -0.000351
-0.322862 -0.179477 -0.000351
0.256703 -0.179477 -0.000351
0.256703 -0.126790 -0.000351
0.309390 -0.126790 -0.000351
0.309390 -0.179477 -0.000351
-0.322862 0.123477 -0.000351
-0.375550 0.123477 -0.000351
-0.375550 0.176165 -0.000351
-0.322862 0.176165 -0.000351
0.309390 0.123477 -0.000351
0.256703 0.123477 -0.000351
0.256703 0.176165 -0.000351
0.309390 0.176165 -0.000351
</float_array>
          <technique_common>
            <accessor source="#stool001-POSITION-array" count="48" stride="3">
              <param name="X" type="float"/>
              <param name="Y" type="float"/>
              <param name="Z" type="float"/>
            </accessor>
          </technique_common>
        </source>
        <source id="stool001-Normal0">
          <float_array id="stool001-Normal0-array" count="828">
0.000000 0.000000 -1.000000
0.000000 0.000000 -1.000000
0.000000 0.000000 -1.000000
0.000000 0.000000 -1.000000
0.000000 0.000000 -1.000000
0.000000 0.000000 -1.000000
0.000000 0.000000 -1.000000
0.000000 0.000000 -1.000000
0.000000 0.000000 -1.000000
0.000000 0.000000 -1.000000
0.000000 0.000000 -1.000000
0.000000 0.000000 -1.000000
0.000000 0.000000 -1.000000
0.000000 0.000000 -1.000000
0.000000 0.000000 -1.000000
0.000000 0.000000 -1.000000
0.000000 0.000000 -1.000000
0.000000 0.000000 -1.000000
0.000000 0.000000 -1.000000
0.000000 0.000000 -1.000000
0.000000 0.000000 -1.000000
0.000000 0.000000 -1.000000
0.000000 0.000000 -1.000000
0.000000 0.000000 -1.000000
0.000000 0.000000 -1.000000
0.000000 0.000000 -1.000000
0.000000 0.000000 -1.000000
0.000000 0.000000 -1.000000
0.000000 0.000000 -1.000000
0.000000 0.000000 -1.000000
0.000000 0.000000 -1.000000
0.000000 0.000000 -1.000000
0.000000 0.000000 -1.000000
0.000000 0.000000 -1.000000
0.000000 0.000000 -1.000000
0.000000 0.000000 -1.000000
0.000000 0.000000 -1.000000
0.000000 0.000000 -1.000000
0.000000 0.000000 -1.000000
0.000000 0.000000 -1.000000
0.000000 0.000000 -1.000000
0.000000 0.000000 -1.000000
0.000000 0.000000 -1.000000
0.000000 0.000000 -1.000000
0.000000 0.000000 -1.000000
0.000000 0.000000 -1.000000
0.000000 0.000000 -1.000000
0.000000 0.000000 -1.000000
0.000000 0.000000 -1.000000
0.000000 0.000000 -1.000000
0.000000 0.000000 -1.000000
0.000000 0.000000 -1.000000
0.000000 0.000000 -1.000000
0.000000 0.000000 -1.000000
-0.408247 -0.408248 0.816497
0.000000 -0.707104 0.707110
-0.300195 -0.300192 0.905410
-0.300195 -0.300192 0.905410
-0.707108 0.000000 0.707105
-0.408247 -0.408248 0.816497
0.000000 -0.707104 0.707110
0.000000 -0.707104 0.707110
0.300194 -0.300192 0.905411
0.300194 -0.300192 0.905411
-0.300195 -0.300192 0.905410
0.000000 -0.707104 0.707110
0.300194 -0.300192 0.905411
0.000000 -0.707104 0.707110
0.408246 -0.408247 0.816498
0.408246 -0.408247 0.816498
0.707106 0.000000 0.707108
0.300194 -0.300192 0.905411
-0.707108 0.000000 0.707105
-0.300195 -0.300192 0.905410
-0.300195 0.300192 0.905410
-0.300195 0.300192 0.905410
-0.707108 0.000000 0.707105
-0.707108 0.000000 0.707105
-0.300195 -0.300192 0.905410
0.300194 -0.300192 0.905411
0.300194 0.300192 0.905411
0.300194 0.300192 0.905411
-0.300195 0.300192 0.905410
-0.300195 -0.300192 0.905410
0.300194 -0.300192 0.905411
0.707106 0.000000 0.707108
0.707106 0.000000 0.707107
0.707106 0.000000 0.707107
0.300194 0.300192 0.905411
0.300194 -0.300192 0.905411
-0.408247 0.408248 0.816497
-0.707108 0.000000 0.707105
-0.300195 0.300192 0.905410
-0.300195 0.300192 0.905410
0.000000 0.707104 0.707110
-0.408247 0.408248 0.816497
-0.300195 0.300192 0.905410
0.300194 0.300192 0.905411
0.000000 0.707104 0.707110
0.000000 0.707104 0.707110
0.000000 0.707104 0.707110
-0.300195 0.300192 0.905410
0.300194 0.300192 0.905411
0.707106 0.000000 0.707107
0.408246 0.408247 0.816498
0.408246 0.408247 0.816498
0.000000 0.707104 0.707110
0.300194 0.300192 0.905411
0.000000 -0.999829 -0.018514
0.000000 -0.999924 -0.012293
0.000000 -1.000000 0.000000
0.000000 -1.000000 0.000000
0.000000 -1.000000 0.000000
0.000000 -0.999829 -0.018514
0.000000 -0.999924 -0.012293
0.000000 -0.999924 -0.012293
0.000000 -1.000000 0.000000
0.000000 -1.000000 0.000000
0.000000 -1.000000 0.000000
0.000000 -0.999924 -0.012293
0.000000 -0.999924 -0.012293
0.000000 -0.999829 -0.018514
0.000000 -1.000000 0.000000
0.000000 -1.000000 0.000000
0.000000 -1.000000 0.000000
0.000000 -0.999924 -0.012293
0.999829 0.000000 -0.018514
0.999924 0.000000 -0.012293
1.000000 0.000000 0.000000
1.000000 0.000000 0.000000
1.000000 0.000000 0.000000
0.999829 0.000000 -0.018514
0.999924 0.000000 -0.012293
0.999924 0.000000 -0.012293
1.000000 0.000000 0.000000
1.000000 0.000000 0.000000
1.000000 0.000000 0.000000
0.999924 0.000000 -0.012293
0.999924 0.000000 -0.012293
0.999829 0.000000 -0.018514
1.000000 0.000000 0.000000
1.000000 0.000000 0.000000
1.000000 0.000000 0.000000
0.999924 0.000000 -0.012293
0.000000 0.999829 -0.018514
0.000000 0.999924 -0.012293
0.000000 1.000000 0.000000
0.000000 1.000000 0.000000
0.000000 1.000000 0.000000
0.000000 0.999829 -0.018514
0.000000 0.999924 -0.012293
0.000000 0.999924 -0.012293
0.000000 1.000000 0.000000
0.000000 1.000000 0.000000
0.000000 1.000000 0.000000
0.000000 0.999924 -0.012293
0.000000 0.999924 -0.012293
0.000000 0.999829 -0.018514
0.000000 1.000000 0.000000
0.000000 1.000000 0.000000
0.000000 1.000000 0.000000
0.000000 0.999924 -0.012293
-0.999829 0.000000 -0.018514
-0.999924 0.000000 -0.012293
-1.000000 0.000000 0.000000
-1.000000 0.000000 0.000000
-1.000000 0.000000 0.000000
-0.999829 0.000000 -0.018514
-0.999924 0.000000 -0.012293
-0.999924 0.000000 -0.012293
-1.000000 0.000000 0.000000
-1.000000 0.000000 0.000000
-1.000000 0.000000 0.000000
-0.999924 0.000000 -0.012293
-0.999924 0.000000 -0.012293
-0.999829 0.000000 -0.018514
-1.000000 0.000000 0.000000
-1.000000 0.000000 0.000000
-1.000000 0.000000 0.000000
-0.999924 0.000000 -0.012293
-0.999829 0.000000 -0.018514
-0.999924 0.000000 -0.012293
-0.999298 0.000000 -0.037474
-0.999298 0.000000 -0.037474
-0.999298 0.000000 -0.037474
-0.999829 0.000000 -0.018514
0.000000 0.999298 -0.037474
0.000000 0.999298 -0.037474
0.000000 0.999298 -0.037474
0.000000 0.999298 -0.037474
0.000000 0.999298 -0.037474
0.000000 0.999298 -0.037474
0.999298 0.000000 -0.037474
0.999298 0.000000 -0.037474
0.999298 0.000000 -0.037474
0.999298 0.000000 -0.037474
0.999298 0.000000 -0.037474
0.999298 0.000000 -0.037474
0.000000 -0.999924 -0.012293
0.000000 -0.999829 -0.018514
0.000000 -0.999298 -0.037474
0.000000 -0.999298 -0.037474
0.000000 -0.999298 -0.037474
0.000000 -0.999924 -0.012293
-0.999298 0.000000 -0.037474
-0.999298 0.000000 -0.037474
-0.999298 0.000000 -0.037474
-0.999298 0.000000 -0.037474
-0.999298 0.000000 -0.037474
-0.999298 0.000000 -0.037474
0.000000 0.999298 -0.037474
0.000000 0.999298 -0.037474
0.000000 0.999298 -0.037474
0.000000 0.999298 -0.037474
0.000000 0.999298 -0.037474
0.000000 0.999298 -0.037474
0.999924 0.000000 -0.012293
0.999829 0.000000 -0.018514
0.999298 0.000000 -0.037474
0.999298 0.000000 -0.037474
0.999298 0.000000 -0.037474
0.999924 0.000000 -0.012293
0.000000 -0.999829 -0.018514
0.000000 -0.999924 -0.012293
0.000000 -0.999298 -0.037474
0.000000 -0.999298 -0.037474
0.000000 -0.999298 -0.037474
0.000000 -0.999829 -0.018514
0.000000 -0.999298 -0.037474
0.000000 -0.999298 -0.037474
0.000000 -0.999298 -0.037474
0.000000 -0.999298 -0.037474
0.000000 -0.999298 -0.037474
0.000000 -0.999298 -0.037474
-0.999924 0.000000 -0.012293
-0.999829 0.000000 -0.018514
-0.999298 0.000000 -0.037474
-0.999298 0.000000 -0.037474
-0.999298 0.000000 -0.037474
-0.999924 0.000000 -0.012293
0.000000 0.999829 -0.018514
0.000000 0.999924 -0.012293
0.000000 0.999298 -0.037474
0.000000 0.999298 -0.037474
0.000000 0.999298 -0.037474
0.000000 0.999829 -0.018514
0.999298 0.000000 -0.037474
0.999298 0.000000 -0.037474
0.999298 0.000000 -0.037474
0.999298 0.000000 -0.037474
0.999298 0.000000 -0.037474
0.999298 0.000000 -0.037474
0.000000 -0.999298 -0.037474
0.000000 -0.999298 -0.037474
0.000000 -0.999298 -0.037474
0.000000 -0.999298 -0.037474
0.000000 -0.999298 -0.037474
0.000000 -0.999298 -0.037474
-0.999298 0.000000 -0.037474
-0.999298 0.000000 -0.037474
-0.999298 0.000000 -0.037474
-0.999298 0.000000 -0.037474
-0.999298 0.000000 -0.037474
-0.999298 0.000000 -0.037474
0.000000 0.999924 -0.012293
0.000000 0.999829 -0.018514
0.000000 0.999298 -0.037474
0.000000 0.999298 -0.037474
0.000000 0.999298 -0.037474
0.000000 0.999924 -0.012293
0.999829 0.000000 -0.018514
0.999924 0.000000 -0.012293
0.999298 0.000000 -0.037474
0.999298 0.000000 -0.037474
0.999298 0.000000 -0.037474
0.999829 0.000000 -0.018514
</float_array>
          <technique_common>
            <accessor source="#stool001-Normal0-array" count="276" stride="3">
              <param name="X" type="float"/>
              <param name="Y" type="float"/>
              <param name="Z" type="float"/>
            </accessor>
          </technique_common>
        </source>
        <source id="stool001-UV0">
          <float_array id="stool001-UV0-array" count="248">
0.996129 0.225044
0.854196 0.188182
0.874288 0.188182
0.967023 0.225044
0.874288 0.203844
0.854196 0.203844
0.846661 0.209717
0.881823 0.209717
0.881823 0.370258
0.846661 0.370258
0.854196 0.376131
0.874288 0.376131
0.967023 0.182048
0.874288 0.391794
0.854196 0.391794
0.996129 0.182048
0.502907 0.739459
0.502907 0.763536
0.498686 0.742899
0.473357 0.739459
0.502907 0.904554
0.498686 0.925191
0.502907 0.928630
0.473357 0.928630
0.380484 0.925191
0.380484 0.742899
0.405813 0.928630
0.405813 0.739459
0.376262 0.763536
0.376262 0.739459
0.376262 0.904554
0.376262 0.928630
0.995732 0.225044
0.966627 0.225044
0.966627 0.182048
0.995732 0.182048
0.874577 0.225044
0.874577 0.182048
0.845471 0.225044
0.845471 0.182048
0.874415 0.225044
0.874415 0.182048
0.845309 0.225044
0.845309 0.182048
0.967023 0.225044
0.996129 0.225044
0.996129 0.397028
0.967023 0.397028
0.995732 0.225044
0.966627 0.225044
0.966627 0.182048
0.995732 0.182048
0.874577 0.225044
0.874577 0.182048
0.845471 0.225044
0.845471 0.182048
0.874415 0.182048
0.967023 0.182048
0.996129 0.225044
0.967023 0.225044
0.996129 0.182048
0.874415 0.225044
0.881823 0.182308
0.962194 0.182308
0.962194 0.209717
0.962194 0.370258
0.962194 0.397667
0.881823 0.397667
0.969729 0.188182
0.989822 0.188182
0.989822 0.203844
0.969729 0.203844
0.997356 0.209717
0.997356 0.370258
0.969729 0.376131
0.989822 0.376131
0.989822 0.391794
0.969729 0.391794
0.996129 0.397028
0.967023 0.397028
0.845309 0.225044
0.874415 0.225044
0.874415 0.397028
0.845309 0.397028
0.874415 0.397028
0.845309 0.397028
0.845309 0.225044
0.845309 0.182048
0.874415 0.397028
0.845309 0.397028
0.845309 0.225044
0.874415 0.225044
0.874415 0.397028
0.845309 0.397028
0.996129 0.397028
0.967023 0.397028
0.967023 0.225044
0.996129 0.225044
0.996129 0.397028
0.967023 0.397028
0.845471 0.225044
0.874577 0.225044
0.874577 0.397028
0.845471 0.397028
0.966627 0.225044
0.995732 0.225044
0.995732 0.397028
0.966627 0.397028
0.874577 0.397028
0.845471 0.397028
0.995732 0.397028
0.966627 0.397028
0.995732 0.397028
0.966627 0.397028
0.874577 0.397028
0.845471 0.397028
0.966627 0.225044
0.995732 0.225044
0.995732 0.397028
0.966627 0.397028
0.845471 0.225044
0.874577 0.225044
0.874577 0.397028
0.845471 0.397028
</float_array>
          <technique_common>
            <accessor source="#stool001-UV0-array" count="124" stride="2">
              <param name="S" type="float"/>
              <param name="T" type="float"/>
            </accessor>
          </technique_common>
        </source>
        <vertices id="stool001-VERTEX">
          <input semantic="POSITION" source="#stool001-POSITION"/>
        </vertices>
        <triangles count="92" material="Material #1">
          <input semantic="VERTEX" offset="0" source="#stool001-VERTEX"/>
          <input semantic="NORMAL" offset="1" source="#stool001-Normal0"/>
          <input semantic="TEXCOORD" offset="2" set="0" source="#stool001-UV0"/>
          <p> 32 0 1 33 1 2 34 2 4 34 3 4 35 4 5 32 5 1 1 6 6 5 7 7 6 8 8 6 9 8 2 10 9 1 11 6 36 12 10 37 13 11 38 14 13 38 15 13 39 16 14 36 17 10 4 18 62 8 19 63 9 20 64 9 21 64 5 22 7 4 23 62 5 24 7 9 25 64 10 26 65 10 27 65 6 28 8 5 29 7 6 30 8 10 31 65 11 32 66 11 33 66 7 34 67 6 35 8 41 36 68 42 37 69 43 38 70 43 39 70 40 40 71 41 41 68 9 42 64 13 43 72 14 44 73 14 45 73 10 46 65 9 47 64 45 48 74 46 49 75 47 50 76 47 51 76 44 52 77 45 53 74 16 54 16 17 55 17 21 56 18 21 57 18 20 58 19 16 59 16 17 60 17 18 61 20 22 62 21 22 63 21 21 64 18 17 65 17 22 66 21 18 67 20 19 68 22 19 69 22 23 70 23 22 71 21 20 72 19 21 73 18 25 74 25 25 75 25 24 76 27 20 77 19 21 78 18 22 79 21 26 80 24 26 81 24 25 82 25 21 83 18 22 84 21 23 85 23 27 86 26 27 87 26 26 88 24 22 89 21 28 90 29 24 91 27 25 92 25 25 93 25 29 94 28 28 95 29 25 96 25 26 97 24 30 98 30 30 99 30 29 100 28 25 101 25 26 102 24 27 103 26 31 104 31 31 105 31 30 106 30 26 107 24 0 108 32 1 109 33 17 110 34 17 111 34 16 112 35 0 113 32 1 114 33 2 115 36 18 116 37 18 117 37 17 118 34 1 119 33 2 120 36 3 121 38 19 122 39 19 123 39 18 124 37 2 125 36 3 126 0 7 127 3 23 128 12 23 129 12 19 130 15 3 131 0 7 132 3 11 133 40 27 134 41 27 135 41 23 136 12 7 137 3 11 138 40 15 139 42 31 140 43 31 141 43 27 142 41 11 143 40 15 144 48 14 145 49 30 146 50 30 147 50 31 148 51 15 149 48 14 150 49 13 151 52 29 152 53 29 153 53 30 154 50 14 155 49 13 156 52 12 157 54 28 158 55 28 159 55 29 160 53 13 161 52 12 162 58 8 163 59 24 164 57 24 165 57 28 166 60 12 167 58 8 168 59 4 169 61 20 170 56 20 171 56 24 172 57 8 173 59 4 174 61 0 175 86 16 176 87 16 177 87 20 178 56 4 179 61 0 180 86 4 181 61 33 182 88 33 183 88 32 184 89 0 185 86 4 186 100 5 187 101 34 188 102 34 189 102 33 190 103 4 191 100 5 192 44 1 193 45 35 194 46 35 195 46 34 196 47 5 197 44 1 198 33 0 199 32 32 200 112 32 201 112 35 202 113 1 203 33 2 204 90 6 205 91 37 206 92 37 207 92 36 208 93 2 209 90 6 210 104 7 211 105 38 212 106 38 213 106 37 214 107 6 215 104 7 216 3 3 217 0 39 218 78 39 219 78 38 220 79 7 221 3 3 222 38 2 223 36 36 224 114 36 225 114 39 226 115 3 227 38 9 228 116 8 229 117 41 230 118 41 231 118 40 232 119 9 233 116 8 234 59 12 235 58 42 236 94 42 237 94 41 238 95 8 239 59 12 240 54 13 241 52 43 242 108 43 243 108 42 244 109 12 245 54 13 246 80 9 247 81 40 248 82 40 249 82 43 250 83 13 251 80 11 252 120 10 253 121 45 254 122 45 255 122 44 256 123 11 257 120 10 258 96 14 259 97 46 260 98 46 261 98 45 262 99 10 263 96 14 264 49 15 265 48 47 266 110 47 267 110 46 268 111 14 269 49 15 270 42 11 271 40 44 272 84 44 273 84 47 274 85 15 275 42</p>
        </triangles>
      </mesh>
    </geometry>
  </library_geometries>
  <library_visual_scenes>
    <visual_scene id="" name="">
      <node name="stool001" id="stool001" layer="grand_piano_stool_black" sid="stool001">
        <matrix sid="matrix">1.000000 0.000000 0.000000 0.000000 0.000000 0.000000 1.000000 0.000000 0.000000 -1.000000 0.000000 0.000000 0.000000 0.000000 0.000000 1.000000</matrix>
        <instance_geometry url="#stool001-lib">
          <bind_material>
            <technique_common>
              <instance_material symbol="Material #1" target="#Material #1"/>
            </technique_common>
          </bind_material>
        </instance_geometry>
        <extra>
          <technique profile="FCOLLADA">
            <visibility>1.000000</visibility>
          </technique>
        </extra>
      </node>
      <extra>
        <technique profile="MAX3D">
          <frame_rate>30.000000</frame_rate>
        </technique>
        <technique profile="FCOLLADA">
          <start_time>0.000000</start_time>
          <end_time>3.333333</end_time>
        </technique>
      </extra>
    </visual_scene>
  </library_visual_scenes>
  <scene>
    <instance_visual_scene url="#"></instance_visual_scene>
  </scene>
</COLLADA>

