<?xml version="1.0" encoding="utf-8"?>
<COLLADA xmlns="http://www.collada.org/2005/11/COLLADASchema" version="1.4.1">
  <asset>
    <contributor>
      <author>Blender User</author>
      <authoring_tool>Blender 2.59.0 r39307</authoring_tool>
    </contributor>
    <created>2011-09-24T18:48:03</created>
    <modified>2011-09-24T18:48:03</modified>
    <unit name="meter" meter="1"/>
    <up_axis>Z_UP</up_axis>
  </asset>
  <library_images>
    <image id="chainlinked_fence_png" name="chainlinked_fence_png">
      <init_from>chainlinked_fence.dds</init_from>
    </image>
    <image id="grey" name="grey">
      <init_from>pole.png</init_from>
    </image>
  </library_images>
  <library_effects>
    <effect id="Plane-effect">
      <profile_COMMON>
        <newparam sid="chainlinked_fence_png-surface">
          <surface type="2D">
            <init_from>chainlinked_fence_png</init_from>
          </surface>
        </newparam>
        <newparam sid="chainlinked_fence_png-sampler">
          <sampler2D>
            <source>chainlinked_fence_png-surface</source>
          </sampler2D>
        </newparam>
        <technique sid="common">
          <phong>
            <emission>
              <color>0 0 0 1</color>
            </emission>
            <ambient>
              <color>0 0 0 1</color>
            </ambient>
            <diffuse>
              <texture texture="chainlinked_fence_png-sampler" texcoord="UVTex"/>
            </diffuse>
            <specular>
              <color>0.5 0.5 0.5 1</color>
            </specular>
            <shininess>
              <float>50</float>
            </shininess>
            <index_of_refraction>
              <float>1</float>
            </index_of_refraction>
          </phong>
        </technique>
        <extra>
          <technique profile="GOOGLEEARTH">
            <double_sided>1</double_sided>
          </technique>
        </extra>
      </profile_COMMON>
      <extra><technique profile="MAX3D"><double_sided>1</double_sided></technique></extra>
    </effect>
    <effect id="Material-effect">
      <profile_COMMON>
        <newparam sid="grey-surface">
          <surface type="2D">
            <init_from>grey</init_from>
          </surface>
        </newparam>
        <newparam sid="grey-sampler">
          <sampler2D>
            <source>grey-surface</source>
          </sampler2D>
        </newparam>
        <technique sid="common">
          <phong>
            <emission>
              <color>0 0 0 1</color>
            </emission>
            <ambient>
              <color>0 0 0 1</color>
            </ambient>
            <diffuse>
              <texture texture="grey-sampler" texcoord="UVTex"/>
            </diffuse>
            <specular>
              <color>0.5 0.5 0.5 1</color>
            </specular>
            <shininess>
              <float>50</float>
            </shininess>
            <index_of_refraction>
              <float>1</float>
            </index_of_refraction>
          </phong>
        </technique>
        <extra>
          <technique profile="GOOGLEEARTH">
            <double_sided>1</double_sided>
          </technique>
        </extra>
      </profile_COMMON>
      <extra><technique profile="MAX3D"><double_sided>1</double_sided></technique></extra>
    </effect>
  </library_effects>
  <library_materials>
    <material id="Plane-material" name="Plane">
      <instance_effect url="#Plane-effect"/>
    </material>
    <material id="Material-material" name="Material">
      <instance_effect url="#Material-effect"/>
    </material>
  </library_materials>
  <library_geometries>
    <geometry id="Plane_001-mesh">
      <mesh>
        <source id="Plane_001-mesh-positions">
          <float_array id="Plane_001-mesh-positions-array" count="12">1 0 2.16 1 0 -0.04999995 0 0 -0.04999995 0 0 2.16</float_array>
          <technique_common>
            <accessor source="#Plane_001-mesh-positions-array" count="4" stride="3">
              <param name="X" type="float"/>
              <param name="Y" type="float"/>
              <param name="Z" type="float"/>
            </accessor>
          </technique_common>
        </source>
        <source id="Plane_001-mesh-normals">
          <float_array id="Plane_001-mesh-normals-array" count="6">0 1 0 0 1 0</float_array>
          <technique_common>
            <accessor source="#Plane_001-mesh-normals-array" count="2" stride="3">
              <param name="X" type="float"/>
              <param name="Y" type="float"/>
              <param name="Z" type="float"/>
            </accessor>
          </technique_common>
        </source>
        <source id="Plane_001-mesh-map-0">
          <float_array id="Plane_001-mesh-map-0-array" count="12">0.5351563 2.38419e-7 0.5351561 1 1.00048 0 1.00048 0 0.5351561 1 1.00048 0.9999999</float_array>
          <technique_common>
            <accessor source="#Plane_001-mesh-map-0-array" count="6" stride="2">
              <param name="S" type="float"/>
              <param name="T" type="float"/>
            </accessor>
          </technique_common>
        </source>
        <vertices id="Plane_001-mesh-vertices">
          <input semantic="POSITION" source="#Plane_001-mesh-positions"/>
        </vertices>
        <polylist material="Plane1" count="2">
          <input semantic="VERTEX" source="#Plane_001-mesh-vertices" offset="0"/>
          <input semantic="NORMAL" source="#Plane_001-mesh-normals" offset="1"/>
          <input semantic="TEXCOORD" source="#Plane_001-mesh-map-0" offset="2" set="0"/>
          <vcount>3 3 </vcount>
          <p>0 0 0 1 0 1 3 0 2 3 1 3 1 1 4 2 1 5</p>
        </polylist>
      </mesh>
      <extra><technique profile="MAYA"><double_sided>1</double_sided></technique></extra>
    </geometry>
    <geometry id="Cylinder_001-mesh">
      <mesh>
        <source id="Cylinder_001-mesh-positions">
          <float_array id="Cylinder_001-mesh-positions-array" count="360">0.004817485 -0.001742005 0.1495836 0.004817485 -0.001742005 1.068084 0.004817485 -0.001742005 1.986584 0.004817485 0.001742005 0.1495836 0.004817485 0.001742005 1.068084 0.004817485 0.001742005 1.986584 -0.002149164 -0.02599996 0.1495836 -0.002149164 -0.02599996 1.068084 -0.002149164 -0.02599996 1.986584 -0.002149164 0.02599996 0.1495836 -0.002149164 0.02599996 1.068084 -0.002149164 0.02599996 1.986584 -0.02118247 -0.04503327 0.1495836 -0.02118247 -0.04503327 1.068084 -0.02118247 -0.04503327 1.986584 -0.02118247 0.04503327 0.1495836 -0.02118247 0.04503327 1.068084 -0.02118247 0.04503327 1.986584 -0.04718244 -0.05199998 0.1495836 -0.04718244 -0.05199998 1.068084 -0.04718244 -0.05199998 1.986584 -0.04718244 0.05199998 0.1495836 -0.04718244 0.05199998 1.068084 -0.04718244 0.05199998 1.986584 -0.07318246 -0.04503333 0.1495836 -0.07318246 -0.04503333 1.068084 -0.07318246 -0.04503333 1.986584 -0.07318246 0.04503333 0.1495836 -0.07318246 0.04503333 1.068084 -0.07318246 0.04503333 1.986584 -0.09221577 -0.02599996 0.1495836 -0.09221577 -0.02599996 1.068084 -0.09221577 -0.02599996 1.986584 -0.09221577 0.02599996 0.1495836 -0.09221577 0.02599996 1.068084 -0.09221577 0.02599996 1.986584 -0.09918248 0 0.1495836 -0.09918248 0 1.068084 -0.09918248 0 1.986584 0.004817485 -0.001741945 0.1715836 0.004817485 -0.001741945 1.090084 0.004817485 -0.001741945 2.008584 0.004817485 0.001741945 0.1715836 0.004817485 0.001741945 1.090084 0.004817485 0.001741945 2.008584 -0.002149105 -0.02599996 0.1715836 -0.002149105 -0.02599996 1.090084 -0.002149105 -0.02599996 2.008584 -0.002149105 0.02599996 0.1715836 -0.002149105 0.02599996 1.090084 -0.002149105 0.02599996 2.008584 -0.02118241 -0.04503327 0.1715836 -0.02118241 -0.04503327 1.090084 -0.02118241 -0.04503327 2.008584 -0.02118241 0.04503327 0.1715836 -0.02118241 0.04503327 1.090084 -0.02118241 0.04503327 2.008584 -0.04718244 -0.05199998 0.1715836 -0.04718244 -0.05199998 1.090084 -0.04718244 -0.05199998 2.008584 -0.04718244 0.05199998 0.1715836 -0.04718244 0.05199998 1.090084 -0.04718244 0.05199998 2.008584 -0.0731824 -0.04503333 0.1715836 -0.0731824 -0.04503333 1.090084 -0.0731824 -0.04503333 2.008584 -0.0731824 0.04503333 0.1715836 -0.0731824 0.04503333 1.090084 -0.0731824 0.04503333 2.008584 -0.09221577 -0.02600002 0.1715836 -0.09221577 -0.02600002 1.090084 -0.09221577 -0.02600002 2.008584 -0.09221577 0.02600002 0.1715836 -0.09221577 0.02600002 1.090084 -0.09221577 0.02600002 2.008584 -0.09918248 0 0.1715836 -0.09918248 0 1.090084 -0.09918248 0 2.008584 -0.04718244 0 0.1495836 -0.04718244 0 1.068084 -0.04718244 0 1.986584 -0.04718244 0 0.1715836 -0.04718244 0 1.090084 -0.04718244 0 2.008584 0.004817485 -0.003188729 0.1495836 0.004817485 -0.003188729 1.068084 0.004817485 -0.003188729 1.986584 0.004817485 0.003188729 0.1495836 0.004817485 0.003188729 1.068084 0.004817485 0.003188729 1.986584 0.004817485 -0.003188669 0.1715836 0.004817485 -0.003188669 1.090084 0.004817485 -0.003188669 2.008584 0.004817485 0.003188669 0.1715836 0.004817485 0.003188669 1.090084 0.004817485 0.003188669 2.008584 0.07972776 -0.003188669 0.1715836 0.07972776 -0.003188669 1.090084 0.07972776 -0.003188669 2.008584 0.07972776 0.003188669 0.1715836 0.07972776 0.003188669 1.090084 0.07972776 0.003188669 2.008584 0.07972776 -0.003188729 0.1495836 0.07972776 -0.003188729 1.068084 0.07972776 -0.003188729 1.986584 0.07972776 0.003188729 0.1495836 0.07972776 0.003188729 1.068084 0.07972776 0.003188729 1.986584 0.07972776 -0.001742005 0.1715836 0.07972776 -0.001742005 1.090084 0.07972776 -0.001742005 2.008584 0.07972776 0.001742005 0.1715836 0.07972776 0.001742005 1.090084 0.07972776 0.001742005 2.008584 0.07972776 -0.001742005 0.1495836 0.07972776 -0.001742005 1.068084 0.07972776 -0.001742005 1.986584 0.07972776 0.001742005 0.1495836 0.07972776 0.001742005 1.068084 0.07972776 0.001742005 1.986584</float_array>
          <technique_common>
            <accessor source="#Cylinder_001-mesh-positions-array" count="120" stride="3">
              <param name="X" type="float"/>
              <param name="Y" type="float"/>
              <param name="Z" type="float"/>
            </accessor>
          </technique_common>
        </source>
        <source id="Cylinder_001-mesh-normals">
          <float_array id="Cylinder_001-mesh-normals-array" count="684">0 0 -1 0 0 -1 0 0 -1 0 0 -1 0 0 -1 0 0 -1 0 0 1 0 0 1 0 0 1 0 0 1 0 0 1 0 0 1 0 0 -1 0 0 -1 0 0 -1 0 0 -1 0 0 -1 0 0 -1 0 0 1 0 0 1 0 0 1 0 0 1 0 0 1 0 0 1 0 0 -1 0 0 -1 0 0 -1 0 0 -1 0 0 -1 0 0 -1 0 0 1 0 0 1 0 0 1 0 0 1 0 0 1 0 0 1 0 0 -1 0 0 -1 0 0 -1 0 0 -1 0 0 -1 0 0 -1 0 0 1 0 0 1 0 0 1 0 0 1 0 0 1 0 0 1 0 0 -1 0 0 -1 0 0 -1 0 0 -1 0 0 -1 0 0 -1 0 0 1 0 0 1 0 0 1 0 0 1 0 0 1 0 0 1 0 0 -1 0 0 -1 0 0 -1 0 0 -1 0 0 -1 0 0 -1 0 0 -1 0 0 -1 0 0 -1 0 0 -1 0 0 -1 0 0 -1 0 0 1 0 0 1 0 0 1 0 0 1 0 0 1 0 0 1 0 0 1 0 0 1 0 0 1 0 0 1 0 0 1 0 0 1 0 0 1 0 0 1 0 0 1 0 0 -1 0 0 -1 0 0 -1 1 0 0 1 0 0 1 0 0 1 0 0 1 0 0 1 0 0 7.58383e-7 1 -2.68814e-6 0 1 0 7.58383e-7 1 -2.68814e-6 0 1 0 7.58383e-7 1 -2.68814e-6 0 1 0 0 -1 0 7.58383e-7 -1 -2.68814e-6 0 -1 0 7.58383e-7 -1 -2.68814e-6 0 -1 0 7.58383e-7 -1 -2.68814e-6 1 0 0 1 0 0 1 0 0 1 0 0 1 0 0 1 0 0 1 0 0 1 0 0 1 0 0 1 0 0 1 0 0 1 0 0 0 0 -1 0 0 -1 0 0 -1 0 0 -1 0 0 -1 0 0 -1 0 0 -1 0 0 -1 0 0 -1 0 0 -1 0 0 -1 0 0 -1 0 0 1 0 0 1 0 0 1 0 0 1 0 0 1 0 0 1 0 0 1 0 0 1 0 0 1 0 0 1 0 0 1 0 0 1 0 1 2.60347e-6 0 1 2.60347e-6 0 1 2.60347e-6 0 1 2.60347e-6 0 1 2.60347e-6 0 1 2.60347e-6 0 -1 2.60347e-6 0 -1 2.60347e-6 0 -1 2.60347e-6 0 -1 2.60347e-6 0 -1 2.60347e-6 0 -1 2.60347e-6 0.9563916 0.2920873 -8.25713e-7 0.9563921 0.2920859 7.60438e-7 0.9563916 0.2920873 -8.25713e-7 0.9563921 0.2920859 7.60438e-7 0.9563917 0.2920873 -8.25712e-7 0.9563921 0.2920859 7.60437e-7 0.9563921 -0.2920859 7.76502e-7 0.9563916 -0.2920873 -8.25713e-7 0.9563921 -0.2920859 7.76502e-7 0.9563916 -0.2920873 -8.25713e-7 0.9563921 -0.2920859 7.76501e-7 0.9563917 -0.2920873 -8.25712e-7 -0.9659258 0.2588191 2.15985e-7 -0.9659259 0.2588189 0 -0.9659258 0.2588191 2.15985e-7 -0.9659259 0.2588189 0 -0.9659258 0.2588191 2.15984e-7 -0.9659259 0.2588189 0 -0.9659258 -0.2588191 2.15985e-7 -0.9659259 -0.2588189 0 -0.9659258 -0.2588191 2.15985e-7 -0.9659259 -0.2588189 0 -0.9659258 -0.2588191 2.15984e-7 -0.9659259 -0.2588189 0 -0.707106 0.7071076 3.59205e-7 -0.7071066 0.707107 -7.37208e-7 -0.707106 0.7071076 3.59205e-7 -0.7071066 0.707107 -7.37208e-7 -0.7071059 0.7071076 3.59205e-7 -0.7071065 0.707107 -7.37207e-7 -0.707106 -0.7071076 3.59205e-7 -0.7071066 -0.707107 -7.18414e-7 -0.707106 -0.7071076 3.59205e-7 -0.7071066 -0.707107 -7.18414e-7 -0.7071059 -0.7071076 3.59205e-7 -0.7071065 -0.707107 -7.18413e-7 -0.258818 0.9659262 4.38261e-7 -0.2588187 0.9659258 -4.66898e-7 -0.258818 0.9659262 4.38261e-7 -0.2588187 0.9659258 -4.66898e-7 -0.258818 0.9659261 4.3826e-7 -0.2588188 0.9659259 -4.66898e-7 -0.258818 -0.9659262 4.38261e-7 -0.2588188 -0.9659259 -4.672e-7 -0.258818 -0.9659262 4.38261e-7 -0.2588188 -0.9659259 -4.672e-7 -0.258818 -0.9659261 4.3826e-7 -0.2588188 -0.9659259 -4.67199e-7 0.2588199 0.9659255 5.86933e-7 0.2588191 0.9659259 -4.42325e-7 0.2588199 0.9659255 5.86933e-7 0.2588191 0.9659259 -4.42325e-7 0.2588199 0.9659256 5.86932e-7 0.2588191 0.9659258 -4.42324e-7 0.2588199 -0.9659255 5.86933e-7 0.2588191 -0.9659259 -4.38263e-7 0.2588199 -0.9659255 5.86933e-7 0.2588191 -0.9659259 -4.38263e-7 0.2588199 -0.9659256 5.86932e-7 0.2588191 -0.9659258 -4.38262e-7 0.7071072 0.7071064 1.79602e-7 0.7071069 0.7071067 -3.93178e-7 0.7071072 0.7071064 1.79602e-7 0.7071069 0.7071067 -3.93178e-7 0.7071073 0.7071064 1.79602e-7 0.7071069 0.7071067 -3.93177e-7 0.7071072 -0.7071064 1.79602e-7 0.707107 -0.7071067 -3.59207e-7 0.7071072 -0.7071064 1.79602e-7 0.707107 -0.7071067 -3.59207e-7 0.7071073 -0.7071064 1.79602e-7 0.7071069 -0.7071067 -3.59207e-7</float_array>
          <technique_common>
            <accessor source="#Cylinder_001-mesh-normals-array" count="228" stride="3">
              <param name="X" type="float"/>
              <param name="Y" type="float"/>
              <param name="Z" type="float"/>
            </accessor>
          </technique_common>
        </source>
        <source id="Cylinder_001-mesh-map-0">
          <float_array id="Cylinder_001-mesh-map-0-array" count="1368">0 0 1 0 1 1 0 0 1 0 1 1 0 0 1 0 1 1 0 0 1 0 1 1 0 0 1 0 1 1 0 0 1 0 1 1 0 0 1 0 1 1 0 0 1 0 1 1 0 0 1 0 1 1 0 0 1 0 1 1 0 0 1 0 1 1 0 0 1 0 1 1 0 0 1 0 1 1 0 0 1 0 1 1 0 0 1 0 1 1 0 0 1 0 1 1 0 0 1 0 1 1 0 0 1 0 1 1 0 0 1 0 1 1 0 0 1 0 1 1 0 0 1 0 1 1 0 0 1 0 1 1 0 0 1 0 1 1 0 0 1 0 1 1 0 0 1 0 1 1 0 0 1 0 1 1 0 0 1 0 1 1 0 0 1 0 1 1 0 0 1 0 1 1 0 0 1 0 1 1 0 0 1 0 1 1 0 0 1 0 1 1 0 0 1 0 1 1 0 0 1 0 1 1 0 0 1 0 1 1 0 0 1 0 1 1 0 0 1 0 1 1 0 0 1 0 1 1 0 0 1 0 1 1 0 0 1 0 1 1 0 0 1 0 1 1 0 0 1 0 1 1 0 0 1 0 1 1 0 0 1 0 1 1 0 0 1 0 1 1 0 0 1 0 1 1 0 0 1 0 1 1 0 0 1 0 1 1 0 0 1 0 1 1 0 0 1 0 1 1 0 0 1 0 1 1 0 0 1 0 1 1 0 0 1 0 1 1 0 0 1 0 1 1 0 0 1 0 1 1 0 0 1 0 1 1 0 0 1 0 1 1 0 0 1 0 1 1 0 0 1 0 1 1 0 0 1 0 1 1 0 0 1 0 1 1 0 0 1 0 1 1 0 0 1 0 1 1 0 0 1 0 1 1 0 0 1 0 1 1 0 0 1 0 1 1 0 0 1 0 1 1 0 0 1 0 1 1 0 0 1 0 1 1 0 0 1 0 1 1 0 0 1 0 1 1 0 0 1 0 1 1 0 0 1 0 1 1 0 0 1 0 1 1 0 0 1 0 1 1 0 0 1 0 1 1 0 0 1 0 1 1 0 0 1 0 1 1 0 0 1 0 1 1 0 0 1 0 1 1 0 0 1 0 1 1 0 0 1 0 1 1 0 0 1 0 1 1 0 0 1 0 1 1 0 0 1 0 1 1 0 0 1 0 1 1 0 0 1 0 1 1 0 0 1 0 1 1 0 0 1 0 1 1 0 0 1 0 1 1 0 0 1 0 1 1 0 0 1 0 1 1 0 0 1 0 1 1 0 0 1 0 1 1 0 0 1 0 1 1 0 0 1 0 1 1 0 0 1 0 1 1 0 0 1 0 1 1 0 0 1 0 1 1 0 0 1 0 1 1 0 0 1 0 1 1 0 0 1 0 1 1 0 0 1 0 1 1 0 0 1 0 1 1 0 0 1 0 1 1 0 0 1 0 1 1 0 0 1 0 1 1 0 0 1 0 1 1 0 0 1 0 1 1 0 0 1 0 1 1 0 0 1 0 1 1 0 0 1 0 1 1 0 0 1 0 1 1 0 0 1 0 1 1 0 0 1 0 1 1 0 0 1 0 1 1 0 0 1 0 1 1 0 0 1 0 1 1 0 0 1 0 1 1 0 0 1 0 1 1 0 0 1 0 1 1 0 0 1 0 1 1 0 0 1 0 1 1 0 0 1 0 1 1 0 0 1 0 1 1 0 0 1 0 1 1 0 0 1 0 1 1 0 0 1 0 1 1 0 0 1 0 1 1 0 0 1 0 1 1 0 0 1 0 1 1 0 0 1 0 1 1 0 0 1 0 1 1 0 0 1 0 1 1 0 0 1 0 1 1 0 0 1 0 1 1 0 0 1 0 1 1 0 0 1 0 1 1 0 0 1 0 1 1 0 0 1 0 1 1 0 0 1 0 1 1 0 0 1 0 1 1 0 0 1 0 1 1 0 0 1 0 1 1 0 0 1 0 1 1 0 0 1 0 1 1 0 0 1 0 1 1 0 0 1 0 1 1 0 0 1 0 1 1 0 0 1 0 1 1 0 0 1 0 1 1 0 0 1 0 1 1 0 0 1 0 1 1 0 0 1 0 1 1 0 0 1 0 1 1 0 0 1 0 1 1 0 0 1 0 1 1 0 0 1 0 1 1 0 0 1 0 1 1 0 0 1 0 1 1 0 0 1 0 1 1 0 0 1 0 1 1 0 0 1 0 1 1 0 0 1 0 1 1 0 0 1 0 1 1 0 0 1 0 1 1 0 0 1 0 1 1 0 0 1 0 1 1 0 0 1 0 1 1 0 0 1 0 1 1 0 0 1 0 1 1 0 0 1 0 1 1 0 0 1 0 1 1 0 0 1 0 1 1 0 0 1 0 1 1 0 0 1 0 1 1 0 0 1 0 1 1 0 0 1 0 1 1 0 0 1 0 1 1 0 0 1 0 1 1 0 0 1 0 1 1 0 0 1 0 1 1 0 0 1 0 1 1 0 0 1 0 1 1 0 0 1 0 1 1 0 0 1 0 1 1 0 0 1 0 1 1 0 0 1 0 1 1 0 0 1 0 1 1 0 0 1 0 1 1 0 0 1 0 1 1 0 0 1 0 1 1 0 0 1 0 1 1 0 0 1 0 1 1 0 0 1 0 1 1 0 0 1 0 1 1 0 0 1 0 1 1 0 0 1 0 1 1 0 0 1 0 1 1 0 0 1 0 1 1 0 0 1 0 1 1 0 0 1 0 1 1 0 0 1 0 1 1 0 0 1 0 1 1 0 0 1 0 1 1 0 0 1 0 1 1 0 0 1 0 1 1 0 0 1 0 1 1 0 0 1 0 1 1 0 0 1 0 1 1 0 0 1 0 1 1 0 0 1 0 1 1 0 0 1 0 1 1 0 0 1 0 1 1 0 0 1 0 1 1 0 0 1 0 1 1 0 0 1 0 1 1 0 0 1 0 1 1 0 0 1 0 1 1 0 0 1 0 1 1 0 0 1 0 1 1 0 0 1 0 1 1 0 0 1 0 1 1 0 0 1 0 1 1 0 0 1 0 1 1 0 0 1 0 1 1 0 0 1 0 1 1 0 0 1 0 1 1</float_array>
          <technique_common>
            <accessor source="#Cylinder_001-mesh-map-0-array" count="684" stride="2">
              <param name="S" type="float"/>
              <param name="T" type="float"/>
            </accessor>
          </technique_common>
        </source>
        <vertices id="Cylinder_001-mesh-vertices">
          <input semantic="POSITION" source="#Cylinder_001-mesh-positions"/>
        </vertices>
        <polylist material="Material1" count="228">
          <input semantic="VERTEX" source="#Cylinder_001-mesh-vertices" offset="0"/>
          <input semantic="NORMAL" source="#Cylinder_001-mesh-normals" offset="1"/>
          <input semantic="TEXCOORD" source="#Cylinder_001-mesh-map-0" offset="2" set="0"/>
          <vcount>3 3 3 3 3 3 3 3 3 3 3 3 3 3 3 3 3 3 3 3 3 3 3 3 3 3 3 3 3 3 3 3 3 3 3 3 3 3 3 3 3 3 3 3 3 3 3 3 3 3 3 3 3 3 3 3 3 3 3 3 3 3 3 3 3 3 3 3 3 3 3 3 3 3 3 3 3 3 3 3 3 3 3 3 3 3 3 3 3 3 3 3 3 3 3 3 3 3 3 3 3 3 3 3 3 3 3 3 3 3 3 3 3 3 3 3 3 3 3 3 3 3 3 3 3 3 3 3 3 3 3 3 3 3 3 3 3 3 3 3 3 3 3 3 3 3 3 3 3 3 3 3 3 3 3 3 3 3 3 3 3 3 3 3 3 3 3 3 3 3 3 3 3 3 3 3 3 3 3 3 3 3 3 3 3 3 3 3 3 3 3 3 3 3 3 3 3 3 3 3 3 3 3 3 3 3 3 3 3 3 3 3 3 3 3 3 3 3 3 3 3 3 3 3 3 3 3 3 </vcount>
          <p>78 0 0 6 0 1 12 0 2 79 1 3 7 1 4 13 1 5 80 2 6 8 2 7 14 2 8 15 3 9 9 3 10 78 3 11 16 4 12 10 4 13 79 4 14 17 5 15 11 5 16 80 5 17 81 6 18 51 6 19 45 6 20 82 7 21 52 7 22 46 7 23 83 8 24 53 8 25 47 8 26 48 9 27 54 9 28 81 9 29 49 10 30 55 10 31 82 10 32 50 11 33 56 11 34 83 11 35 78 12 36 12 12 37 18 12 38 79 13 39 13 13 40 19 13 41 80 14 42 14 14 43 20 14 44 21 15 45 15 15 46 78 15 47 22 16 48 16 16 49 79 16 50 23 17 51 17 17 52 80 17 53 81 18 54 57 18 55 51 18 56 82 19 57 58 19 58 52 19 59 83 20 60 59 20 61 53 20 62 54 21 63 60 21 64 81 21 65 55 22 66 61 22 67 82 22 68 56 23 69 62 23 70 83 23 71 78 24 72 18 24 73 24 24 74 79 25 75 19 25 76 25 25 77 80 26 78 20 26 79 26 26 80 27 27 81 21 27 82 78 27 83 28 28 84 22 28 85 79 28 86 29 29 87 23 29 88 80 29 89 81 30 90 63 30 91 57 30 92 82 31 93 64 31 94 58 31 95 83 32 96 65 32 97 59 32 98 60 33 99 66 33 100 81 33 101 61 34 102 67 34 103 82 34 104 62 35 105 68 35 106 83 35 107 78 36 108 24 36 109 30 36 110 79 37 111 25 37 112 31 37 113 80 38 114 26 38 115 32 38 116 33 39 117 27 39 118 78 39 119 34 40 120 28 40 121 79 40 122 35 41 123 29 41 124 80 41 125 81 42 126 69 42 127 63 42 128 82 43 129 70 43 130 64 43 131 83 44 132 71 44 133 65 44 134 66 45 135 72 45 136 81 45 137 67 46 138 73 46 139 82 46 140 68 47 141 74 47 142 83 47 143 78 48 144 30 48 145 36 48 146 79 49 147 31 49 148 37 49 149 80 50 150 32 50 151 38 50 152 36 51 153 33 51 154 78 51 155 37 52 156 34 52 157 79 52 158 38 53 159 35 53 160 80 53 161 81 54 162 75 54 163 69 54 164 82 55 165 76 55 166 70 55 167 83 56 168 77 56 169 71 56 170 72 57 171 75 57 172 81 57 173 73 58 174 76 58 175 82 58 176 74 59 177 77 59 178 83 59 179 0 60 180 84 60 181 78 60 182 1 61 183 85 61 184 79 61 185 2 62 186 86 62 187 80 62 188 78 63 189 87 63 190 3 63 191 79 64 192 88 64 193 4 64 194 80 65 195 89 65 196 5 65 197 84 66 198 6 66 199 78 66 200 85 67 201 7 67 202 79 67 203 86 68 204 8 68 205 80 68 206 78 69 207 9 69 208 87 69 209 79 70 210 10 70 211 88 70 212 80 71 213 11 71 214 89 71 215 45 72 216 90 72 217 81 72 218 46 73 219 91 73 220 82 73 221 47 74 222 92 74 223 83 74 224 81 75 225 93 75 226 48 75 227 82 76 228 94 76 229 49 76 230 83 77 231 95 77 232 50 77 233 90 78 234 39 78 235 81 78 236 91 79 237 40 79 238 82 79 239 92 80 240 41 80 241 83 80 242 81 81 243 42 81 244 93 81 245 82 82 246 43 82 247 94 82 248 83 83 249 44 83 250 95 83 251 39 84 252 42 84 253 81 84 254 40 85 255 43 85 256 82 85 257 41 86 258 44 86 259 83 86 260 0 87 261 78 87 262 3 87 263 1 88 264 79 88 265 4 88 266 2 89 267 80 89 268 5 89 269 2 90 270 5 90 271 44 90 272 2 91 273 44 91 274 41 91 275 1 92 276 4 92 277 43 92 278 1 93 279 43 93 280 40 93 281 0 94 282 3 94 283 42 94 284 0 95 285 42 95 286 39 95 287 2 96 288 41 96 289 110 96 290 2 97 291 110 97 292 116 97 293 1 98 294 40 98 295 109 98 296 1 99 297 109 99 298 115 99 299 0 100 300 39 100 301 108 100 302 0 101 303 108 101 304 114 101 305 5 102 306 119 102 307 113 102 308 5 103 309 113 103 310 44 103 311 4 104 312 118 104 313 112 104 314 4 105 315 112 105 316 43 105 317 3 106 318 117 106 319 111 106 320 3 107 321 111 107 322 42 107 323 107 108 324 101 108 325 113 108 326 107 109 327 113 109 328 119 109 329 106 110 330 100 110 331 112 110 332 106 111 333 112 111 334 118 111 335 105 112 336 99 112 337 111 112 338 105 113 339 111 113 340 117 113 341 110 114 342 98 114 343 104 114 344 110 115 345 104 115 346 116 115 347 109 116 348 97 116 349 103 116 350 109 117 351 103 117 352 115 117 353 108 118 354 96 118 355 102 118 356 108 119 357 102 119 358 114 119 359 119 120 360 5 120 361 89 120 362 119 121 363 89 121 364 107 121 365 118 122 366 4 122 367 88 122 368 118 123 369 88 123 370 106 123 371 117 124 372 3 124 373 87 124 374 117 125 375 87 125 376 105 125 377 86 126 378 2 126 379 116 126 380 86 127 381 116 127 382 104 127 383 85 128 384 1 128 385 115 128 386 85 129 387 115 129 388 103 129 389 84 130 390 0 130 391 114 130 392 84 131 393 114 131 394 102 131 395 101 132 396 95 132 397 44 132 398 101 133 399 44 133 400 113 133 401 100 134 402 94 134 403 43 134 404 100 135 405 43 135 406 112 135 407 99 136 408 93 136 409 42 136 410 99 137 411 42 137 412 111 137 413 41 138 414 92 138 415 98 138 416 41 139 417 98 139 418 110 139 419 40 140 420 91 140 421 97 140 422 40 141 423 97 141 424 109 141 425 39 142 426 90 142 427 96 142 428 39 143 429 96 143 430 108 143 431 107 144 432 89 144 433 95 144 434 107 145 435 95 145 436 101 145 437 106 146 438 88 146 439 94 146 440 106 147 441 94 147 442 100 147 443 105 148 444 87 148 445 93 148 446 105 149 447 93 149 448 99 149 449 92 150 450 86 150 451 104 150 452 92 151 453 104 151 454 98 151 455 91 152 456 85 152 457 103 152 458 91 153 459 103 153 460 97 153 461 90 154 462 84 154 463 102 154 464 90 155 465 102 155 466 96 155 467 11 156 468 50 156 469 89 156 470 50 157 471 95 157 472 89 157 473 10 158 474 49 158 475 88 158 476 49 159 477 94 159 478 88 159 479 9 160 480 48 160 481 87 160 482 48 161 483 93 161 484 87 161 485 92 162 486 47 162 487 86 162 488 47 163 489 8 163 490 86 163 491 91 164 492 46 164 493 85 164 494 46 165 495 7 165 496 85 165 497 90 166 498 45 166 499 84 166 500 45 167 501 6 167 502 84 167 503 77 168 504 74 168 505 35 168 506 77 169 507 35 169 508 38 169 509 76 170 510 73 170 511 34 170 512 76 171 513 34 171 514 37 171 515 75 172 516 72 172 517 33 172 518 75 173 519 33 173 520 36 173 521 32 174 522 71 174 523 77 174 524 32 175 525 77 175 526 38 175 527 31 176 528 70 176 529 76 176 530 31 177 531 76 177 532 37 177 533 30 178 534 69 178 535 75 178 536 30 179 537 75 179 538 36 179 539 74 180 540 68 180 541 29 180 542 74 181 543 29 181 544 35 181 545 73 182 546 67 182 547 28 182 548 73 183 549 28 183 550 34 183 551 72 184 552 66 184 553 27 184 554 72 185 555 27 185 556 33 185 557 26 186 558 65 186 559 71 186 560 26 187 561 71 187 562 32 187 563 25 188 564 64 188 565 70 188 566 25 189 567 70 189 568 31 189 569 24 190 570 63 190 571 69 190 572 24 191 573 69 191 574 30 191 575 68 192 576 62 192 577 23 192 578 68 193 579 23 193 580 29 193 581 67 194 582 61 194 583 22 194 584 67 195 585 22 195 586 28 195 587 66 196 588 60 196 589 21 196 590 66 197 591 21 197 592 27 197 593 20 198 594 59 198 595 65 198 596 20 199 597 65 199 598 26 199 599 19 200 600 58 200 601 64 200 602 19 201 603 64 201 604 25 201 605 18 202 606 57 202 607 63 202 608 18 203 609 63 203 610 24 203 611 62 204 612 56 204 613 17 204 614 62 205 615 17 205 616 23 205 617 61 206 618 55 206 619 16 206 620 61 207 621 16 207 622 22 207 623 60 208 624 54 208 625 15 208 626 60 209 627 15 209 628 21 209 629 14 210 630 53 210 631 59 210 632 14 211 633 59 211 634 20 211 635 13 212 636 52 212 637 58 212 638 13 213 639 58 213 640 19 213 641 12 214 642 51 214 643 57 214 644 12 215 645 57 215 646 18 215 647 56 216 648 50 216 649 11 216 650 56 217 651 11 217 652 17 217 653 55 218 654 49 218 655 10 218 656 55 219 657 10 219 658 16 219 659 54 220 660 48 220 661 9 220 662 54 221 663 9 221 664 15 221 665 8 222 666 47 222 667 53 222 668 8 223 669 53 223 670 14 223 671 7 224 672 46 224 673 52 224 674 7 225 675 52 225 676 13 225 677 6 226 678 45 226 679 51 226 680 6 227 681 51 227 682 12 227 683</p>
        </polylist>
      </mesh>
      <extra><technique profile="MAYA"><double_sided>1</double_sided></technique></extra>
    </geometry>
    <geometry id="Plane-mesh">
      <mesh>
        <source id="Plane-mesh-positions">
          <float_array id="Plane-mesh-positions-array" count="12">1 0 2.16 1 0 -0.04999995 0 0 -0.04999995 0 0 2.16</float_array>
          <technique_common>
            <accessor source="#Plane-mesh-positions-array" count="4" stride="3">
              <param name="X" type="float"/>
              <param name="Y" type="float"/>
              <param name="Z" type="float"/>
            </accessor>
          </technique_common>
        </source>
        <source id="Plane-mesh-normals">
          <float_array id="Plane-mesh-normals-array" count="6">0 -1 0 0 -1 0</float_array>
          <technique_common>
            <accessor source="#Plane-mesh-normals-array" count="2" stride="3">
              <param name="X" type="float"/>
              <param name="Y" type="float"/>
              <param name="Z" type="float"/>
            </accessor>
          </technique_common>
        </source>
        <source id="Plane-mesh-map-0">
          <float_array id="Plane-mesh-map-0-array" count="12">0.5351563 2.38419e-7 1.00048 0 0.5351561 1 1.00048 0 1.00048 0.9999999 0.5351561 1</float_array>
          <technique_common>
            <accessor source="#Plane-mesh-map-0-array" count="6" stride="2">
              <param name="S" type="float"/>
              <param name="T" type="float"/>
            </accessor>
          </technique_common>
        </source>
        <vertices id="Plane-mesh-vertices">
          <input semantic="POSITION" source="#Plane-mesh-positions"/>
        </vertices>
        <polylist material="Plane1" count="2">
          <input semantic="VERTEX" source="#Plane-mesh-vertices" offset="0"/>
          <input semantic="NORMAL" source="#Plane-mesh-normals" offset="1"/>
          <input semantic="TEXCOORD" source="#Plane-mesh-map-0" offset="2" set="0"/>
          <vcount>3 3 </vcount>
          <p>0 0 0 3 0 1 1 0 2 3 1 3 2 1 4 1 1 5</p>
        </polylist>
      </mesh>
      <extra><technique profile="MAYA"><double_sided>1</double_sided></technique></extra>
    </geometry>
    <geometry id="Cube_005-mesh">
      <mesh>
        <source id="Cube_005-mesh-positions">
          <float_array id="Cube_005-mesh-positions-array" count="24">0.06312531 0.001640081 0.1057581 0.06312531 -0.001640081 0.1057581 0.03446936 -0.001640081 0.1057581 0.03446936 0.001640081 0.1057581 0.06312531 0.001640021 2.092456 0.06312531 -0.001640081 2.092456 0.03446936 -0.001640021 2.092456 0.03446936 0.001640081 2.092456</float_array>
          <technique_common>
            <accessor source="#Cube_005-mesh-positions-array" count="8" stride="3">
              <param name="X" type="float"/>
              <param name="Y" type="float"/>
              <param name="Z" type="float"/>
            </accessor>
          </technique_common>
        </source>
        <source id="Cube_005-mesh-normals">
          <float_array id="Cube_005-mesh-normals-array" count="36">0 1 0 0 1 0 -1 0 0 -1 2.27141e-6 0 0 -1 0 0 -1 0 1 -4.54281e-6 0 1 0 0 0 0 1 0 0 1 0 0 -1 0 0 -1</float_array>
          <technique_common>
            <accessor source="#Cube_005-mesh-normals-array" count="12" stride="3">
              <param name="X" type="float"/>
              <param name="Y" type="float"/>
              <param name="Z" type="float"/>
            </accessor>
          </technique_common>
        </source>
        <source id="Cube_005-mesh-map-0">
          <float_array id="Cube_005-mesh-map-0-array" count="72">0 0 1 0 1 1 0 0 1 0 1 1 0 0 1 0 1 1 0 0 1 0 1 1 0 0 1 0 1 1 0 0 1 0 1 1 0 0 1 0 1 1 0 0 1 0 1 1 0 0 1 0 1 1 0 0 1 0 1 1 0 0 1 0 1 1 0 0 1 0 1 1</float_array>
          <technique_common>
            <accessor source="#Cube_005-mesh-map-0-array" count="36" stride="2">
              <param name="S" type="float"/>
              <param name="T" type="float"/>
            </accessor>
          </technique_common>
        </source>
        <vertices id="Cube_005-mesh-vertices">
          <input semantic="POSITION" source="#Cube_005-mesh-positions"/>
        </vertices>
        <polylist material="Material1" count="12">
          <input semantic="VERTEX" source="#Cube_005-mesh-vertices" offset="0"/>
          <input semantic="NORMAL" source="#Cube_005-mesh-normals" offset="1"/>
          <input semantic="TEXCOORD" source="#Cube_005-mesh-map-0" offset="2" set="0"/>
          <vcount>3 3 3 3 3 3 3 3 3 3 3 3 </vcount>
          <p>4 0 0 0 0 1 3 0 2 4 1 3 3 1 4 7 1 5 2 2 6 6 2 7 7 2 8 2 3 9 7 3 10 3 3 11 1 4 12 5 4 13 6 4 14 1 5 15 6 5 16 2 5 17 0 6 18 4 6 19 5 6 20 0 7 21 5 7 22 1 7 23 4 8 24 7 8 25 6 8 26 4 9 27 6 9 28 5 9 29 0 10 30 1 10 31 2 10 32 0 11 33 2 11 34 3 11 35</p>
        </polylist>
      </mesh>
      <extra><technique profile="MAYA"><double_sided>1</double_sided></technique></extra>
    </geometry>
    <geometry id="Cylinder-mesh">
      <mesh>
        <source id="Cylinder-mesh-positions">
          <float_array id="Cylinder-mesh-positions-array" count="78">-0.04708355 0.04954844 0.003613948 -0.0223093 0.04291021 0.003613948 -0.004173338 0.02477419 0.003613948 0.00246489 0 0.003613948 -0.004173338 -0.02477419 0.003613948 -0.0223093 -0.04291021 0.003613948 -0.04708355 -0.04954844 0.003613948 -0.07185781 -0.04291021 0.003613948 -0.08999377 -0.02477425 0.003613948 -0.09663206 0 0.003613948 -0.08999383 0.02477419 0.003613948 -0.07185781 0.04291021 0.003613948 -0.04708361 0.04954844 2.097297 -0.02230936 0.04291021 2.097297 -0.004173338 0.02477425 2.097297 0.00246489 0 2.097297 -0.004173278 -0.02477419 2.097297 -0.0223093 -0.04291021 2.097297 -0.04708349 -0.04954844 2.097297 -0.07185775 -0.04291021 2.097297 -0.08999377 -0.02477425 2.097297 -0.09663206 0 2.097297 -0.08999383 0.02477413 2.097297 -0.07185786 0.04291015 2.097297 -0.04708355 0 0.003613948 -0.04708355 0 2.097297</float_array>
          <technique_common>
            <accessor source="#Cylinder-mesh-positions-array" count="26" stride="3">
              <param name="X" type="float"/>
              <param name="Y" type="float"/>
              <param name="Z" type="float"/>
            </accessor>
          </technique_common>
        </source>
        <source id="Cylinder-mesh-normals">
          <float_array id="Cylinder-mesh-normals-array" count="144">0 0 -1 0 0 1 0 0 -1 0 0 1 0 0 -1 0 0 1 0 0 -1 0 0 1 0 0 -1 0 0 1 0 0 -1 0 0 1 0 0 -1 0 0 1 0 0 -1 0 0 1 0 0 -1 0 0 1 0 0 -1 0 0 1 0 0 -1 0 0 1 0 0 -1 0 0 1 -0.2588193 0.9659258 0 -0.25882 0.9659256 0 -0.7071081 0.7071055 0 -0.7071074 0.7071062 0 -0.9659261 0.2588182 0 -0.9659259 0.2588188 0 -0.9659255 -0.2588205 0 -0.9659256 -0.2588199 0 -0.7071062 -0.7071074 0 -0.707107 -0.7071066 0 -0.2588181 -0.9659261 0 -0.2588188 -0.9659259 0 0.2588199 -0.9659256 0 0.258819 -0.9659258 0 0.7071074 -0.7071063 0 0.707107 -0.7071066 0 0.9659261 -0.2588182 0 0.9659258 -0.2588193 0 0.9659255 0.2588199 0 0.9659258 0.258819 0 0.707106 0.7071077 0 0.7071067 0.7071068 0 0.2588183 0.9659261 0 0.258819 0.9659258 0</float_array>
          <technique_common>
            <accessor source="#Cylinder-mesh-normals-array" count="48" stride="3">
              <param name="X" type="float"/>
              <param name="Y" type="float"/>
              <param name="Z" type="float"/>
            </accessor>
          </technique_common>
        </source>
        <source id="Cylinder-mesh-map-0">
          <float_array id="Cylinder-mesh-map-0-array" count="288">0 0 1 0 1 1 0 0 1 0 1 1 0 0 1 0 1 1 0 0 1 0 1 1 0 0 1 0 1 1 0 0 1 0 1 1 0 0 1 0 1 1 0 0 1 0 1 1 0 0 1 0 1 1 0 0 1 0 1 1 0 0 1 0 1 1 0 0 1 0 1 1 0 0 1 0 1 1 0 0 1 0 1 1 0 0 1 0 1 1 0 0 1 0 1 1 0 0 1 0 1 1 0 0 1 0 1 1 0 0 1 0 1 1 0 0 1 0 1 1 0 0 1 0 1 1 0 0 1 0 1 1 0 0 1 0 1 1 0 0 1 0 1 1 0 0 1 0 1 1 0 0 1 0 1 1 0 0 1 0 1 1 0 0 1 0 1 1 0 0 1 0 1 1 0 0 1 0 1 1 0 0 1 0 1 1 0 0 1 0 1 1 0 0 1 0 1 1 0 0 1 0 1 1 0 0 1 0 1 1 0 0 1 0 1 1 0 0 1 0 1 1 0 0 1 0 1 1 0 0 1 0 1 1 0 0 1 0 1 1 0 0 1 0 1 1 0 0 1 0 1 1 0 0 1 0 1 1 0 0 1 0 1 1 0 0 1 0 1 1 0 0 1 0 1 1 0 0 1 0 1 1 0 0 1 0 1 1</float_array>
          <technique_common>
            <accessor source="#Cylinder-mesh-map-0-array" count="144" stride="2">
              <param name="S" type="float"/>
              <param name="T" type="float"/>
            </accessor>
          </technique_common>
        </source>
        <vertices id="Cylinder-mesh-vertices">
          <input semantic="POSITION" source="#Cylinder-mesh-positions"/>
        </vertices>
        <polylist material="Material1" count="48">
          <input semantic="VERTEX" source="#Cylinder-mesh-vertices" offset="0"/>
          <input semantic="NORMAL" source="#Cylinder-mesh-normals" offset="1"/>
          <input semantic="TEXCOORD" source="#Cylinder-mesh-map-0" offset="2" set="0"/>
          <vcount>3 3 3 3 3 3 3 3 3 3 3 3 3 3 3 3 3 3 3 3 3 3 3 3 3 3 3 3 3 3 3 3 3 3 3 3 3 3 3 3 3 3 3 3 3 3 3 3 </vcount>
          <p>24 0 0 0 0 1 1 0 2 25 1 3 13 1 4 12 1 5 24 2 6 1 2 7 2 2 8 25 3 9 14 3 10 13 3 11 24 4 12 2 4 13 3 4 14 25 5 15 15 5 16 14 5 17 24 6 18 3 6 19 4 6 20 25 7 21 16 7 22 15 7 23 24 8 24 4 8 25 5 8 26 25 9 27 17 9 28 16 9 29 24 10 30 5 10 31 6 10 32 25 11 33 18 11 34 17 11 35 24 12 36 6 12 37 7 12 38 25 13 39 19 13 40 18 13 41 24 14 42 7 14 43 8 14 44 25 15 45 20 15 46 19 15 47 24 16 48 8 16 49 9 16 50 25 17 51 21 17 52 20 17 53 24 18 54 9 18 55 10 18 56 25 19 57 22 19 58 21 19 59 24 20 60 10 20 61 11 20 62 25 21 63 23 21 64 22 21 65 11 22 66 0 22 67 24 22 68 25 23 69 12 23 70 23 23 71 12 24 72 0 24 73 11 24 74 12 25 75 11 25 76 23 25 77 10 26 78 22 26 79 23 26 80 10 27 81 23 27 82 11 27 83 9 28 84 21 28 85 22 28 86 9 29 87 22 29 88 10 29 89 8 30 90 20 30 91 21 30 92 8 31 93 21 31 94 9 31 95 7 32 96 19 32 97 20 32 98 7 33 99 20 33 100 8 33 101 6 34 102 18 34 103 19 34 104 6 35 105 19 35 106 7 35 107 5 36 108 17 36 109 18 36 110 5 37 111 18 37 112 6 37 113 4 38 114 16 38 115 17 38 116 4 39 117 17 39 118 5 39 119 3 40 120 15 40 121 16 40 122 3 41 123 16 41 124 4 41 125 2 42 126 14 42 127 15 42 128 2 43 129 15 43 130 3 43 131 1 44 132 13 44 133 14 44 134 1 45 135 14 45 136 2 45 137 0 46 138 12 46 139 13 46 140 0 47 141 13 47 142 1 47 143</p>
        </polylist>
      </mesh>
      <extra><technique profile="MAYA"><double_sided>1</double_sided></technique></extra>
    </geometry>
  </library_geometries>
  <library_visual_scenes>
    <visual_scene id="Scene" name="Scene">
      <node id="Plane_001" type="NODE">
        <translate sid="location">0 0 0</translate>
        <rotate sid="rotationZ">0 0 1 0</rotate>
        <rotate sid="rotationY">0 1 0 0</rotate>
        <rotate sid="rotationX">1 0 0 0</rotate>
        <scale sid="scale">1 1 1</scale>
        <instance_geometry url="#Plane_001-mesh">
          <bind_material>
            <technique_common>
              <instance_material symbol="Plane1" target="#Plane-material">
                <bind_vertex_input semantic="UVTex" input_semantic="TEXCOORD" input_set="0"/>
              </instance_material>
            </technique_common>
          </bind_material>
        </instance_geometry>
      </node>
      <node id="Cylinder_001" type="NODE">
        <translate sid="location">0 0 0</translate>
        <rotate sid="rotationZ">0 0 1 0</rotate>
        <rotate sid="rotationY">0 1 0 0</rotate>
        <rotate sid="rotationX">1 0 0 0</rotate>
        <scale sid="scale">1 1 1</scale>
        <instance_geometry url="#Cylinder_001-mesh">
          <bind_material>
            <technique_common>
              <instance_material symbol="Material1" target="#Material-material">
                <bind_vertex_input semantic="UVTex" input_semantic="TEXCOORD" input_set="0"/>
              </instance_material>
            </technique_common>
          </bind_material>
        </instance_geometry>
      </node>
      <node id="Plane" type="NODE">
        <translate sid="location">0 0 0</translate>
        <rotate sid="rotationZ">0 0 1 0</rotate>
        <rotate sid="rotationY">0 1 0 0</rotate>
        <rotate sid="rotationX">1 0 0 0</rotate>
        <scale sid="scale">1 1 1</scale>
        <instance_geometry url="#Plane-mesh">
          <bind_material>
            <technique_common>
              <instance_material symbol="Plane1" target="#Plane-material">
                <bind_vertex_input semantic="UVTex" input_semantic="TEXCOORD" input_set="0"/>
              </instance_material>
            </technique_common>
          </bind_material>
        </instance_geometry>
      </node>
      <node id="Cube" type="NODE">
        <translate sid="location">0 0 0</translate>
        <rotate sid="rotationZ">0 0 1 0</rotate>
        <rotate sid="rotationY">0 1 0 0</rotate>
        <rotate sid="rotationX">1 0 0 0</rotate>
        <scale sid="scale">1 1 1</scale>
        <instance_geometry url="#Cube_005-mesh">
          <bind_material>
            <technique_common>
              <instance_material symbol="Material1" target="#Material-material">
                <bind_vertex_input semantic="UVTex" input_semantic="TEXCOORD" input_set="0"/>
              </instance_material>
            </technique_common>
          </bind_material>
        </instance_geometry>
      </node>
      <node id="Cylinder" type="NODE">
        <translate sid="location">0 0 0</translate>
        <rotate sid="rotationZ">0 0 1 0</rotate>
        <rotate sid="rotationY">0 1 0 0</rotate>
        <rotate sid="rotationX">1 0 0 0</rotate>
        <scale sid="scale">1 1 1</scale>
        <instance_geometry url="#Cylinder-mesh">
          <bind_material>
            <technique_common>
              <instance_material symbol="Material1" target="#Material-material">
                <bind_vertex_input semantic="UVTex" input_semantic="TEXCOORD" input_set="0"/>
              </instance_material>
            </technique_common>
          </bind_material>
        </instance_geometry>
      </node>
    </visual_scene>
  </library_visual_scenes>
  <scene>
    <instance_visual_scene url="#Scene"/>
  </scene>
</COLLADA>