<?xml version="1.0" encoding="utf-8"?>
<COLLADA xmlns="http://www.collada.org/2005/11/COLLADASchema" version="1.4.0">
  <asset>
    <contributor>
      <author>jens</author>
      <authoring_tool>Maya 7.0 | ColladaMaya v0.88</authoring_tool>
      <comments>Collada Maya Export Options: bakeTransforms=0;exportPolygonMeshes=1;bakeLighting=0;isSampling=0;
curveConstrainSampling=0;exportCameraAsLookat=0;relativePaths=0;
exportLights=1;exportCameras=1;exportJointsAndSkin=1;
exportAnimations=1;exportTriangles=1;exportInvisibleNodes=0;
exportNormals=1;exportTexCoords=1;exportVertexColors=1;exportTangents=0;
exportTexTangents=0;exportConstraints=1;exportPhysics=1;exportXRefs=1;
dereferenceXRefs=0;cameraXFov=0;cameraYFov=1</comments>
      <source_data>file://C|/Documents and Settings/jens/My Documents/maya/projects/default/untitled</source_data>
    </contributor>
    <created>2007-12-18T19:24:19Z</created>
    <modified>2007-12-18T19:24:19Z</modified>
    <unit name="meter" meter="1.000000"/>
    <up_axis>Y_UP</up_axis>
  </asset>
  <library_images>
    <image id="file1-image" name="file1">
      <init_from>file://C|\penumbra2\redist\models\office\office_pen.jpg</init_from>
    </image>
  </library_images>
  <library_materials>
    <material id="lambert2" name="lambert2">
      <instance_effect url="#lambert2-fx"/>
    </material>
    <material id="lambert3" name="lambert3">
      <instance_effect url="#lambert3-fx"/>
    </material>
    <material id="lambert1" name="lambert1">
      <instance_effect url="#lambert1-fx"/>
    </material>
  </library_materials>
  <library_effects>
    <effect id="lambert2-fx" name="lambert2">
      <profile_COMMON>
        <technique sid="standard">
          <lambert>
            <emission>
              <color sid="emission">0 0 0 1.000000</color>
            </emission>
            <ambient>
              <color sid="ambient">0 0 0 1.000000</color>
            </ambient>
            <diffuse>
              <texture texture="file1-image" texcoord="UVSET0">
                <extra>
                  <technique profile="MAYA">
                    <wrapU sid="wrapU0">true</wrapU>
                    <wrapV sid="wrapV0">true</wrapV>
                    <mirrorU sid="mirrorU0">false</mirrorU>
                    <mirrorV sid="mirrorV0">false</mirrorV>
                    <coverageU sid="coverageU0">1.000000</coverageU>
                    <coverageV sid="coverageV0">1.000000</coverageV>
                    <translateFrameU sid="translateFrameU0">0</translateFrameU>
                    <translateFrameV sid="translateFrameV0">0</translateFrameV>
                    <rotateFrame sid="rotateFrame0">0</rotateFrame>
                    <stagger sid="stagger0">false</stagger>
                    <fast sid="fast0">false</fast>
                    <repeatU sid="repeatU0">1.000000</repeatU>
                    <repeatV sid="repeatV0">1.000000</repeatV>
                    <offsetU sid="offsetU0">0</offsetU>
                    <offsetV sid="offsetV0">0</offsetV>
                    <rotateUV sid="rotateUV0">0</rotateUV>
                    <noiseU sid="noiseU0">0</noiseU>
                    <noiseV sid="noiseV0">0</noiseV>
                    <blend_mode>NONE</blend_mode>
                  </technique>
                </extra>
              </texture>
            </diffuse>
            <transparent>
              <color sid="transparent">0 0 0 1.000000</color>
            </transparent>
            <transparency>
              <float>1</float>
            </transparency>
          </lambert>
        </technique>
      </profile_COMMON>
    </effect>
    <effect id="lambert3-fx" name="lambert3">
      <profile_COMMON>
        <technique sid="standard">
          <lambert>
            <emission>
              <color sid="emission">0 0 0 1.000000</color>
            </emission>
            <ambient>
              <color sid="ambient">0 0 0 1.000000</color>
            </ambient>
            <diffuse>
              <color sid="diffuse">0.500000 0.500000 0.500000 1.000000</color>
            </diffuse>
            <transparent>
              <color sid="transparent">0 0 0 1.000000</color>
            </transparent>
            <transparency>
              <float>1</float>
            </transparency>
          </lambert>
        </technique>
      </profile_COMMON>
    </effect>
    <effect id="lambert1-fx" name="lambert1">
      <profile_COMMON>
        <technique sid="standard">
          <lambert>
            <emission>
              <color sid="emission">0 0 0 1.000000</color>
            </emission>
            <ambient>
              <color sid="ambient">0 0 0 1.000000</color>
            </ambient>
            <diffuse>
              <color sid="diffuse">0.500000 0.500000 0.500000 1.000000</color>
            </diffuse>
            <transparent>
              <color sid="transparent">0 0 0 1.000000</color>
            </transparent>
            <transparency>
              <float>1</float>
            </transparency>
          </lambert>
        </technique>
      </profile_COMMON>
    </effect>
  </library_effects>
  <library_geometries>
    <geometry id="penShape-lib" name="penShape">
      <mesh>
        <source id="penShape-lib-Position">
          <float_array count="39" id="penShape-lib-Position-array">
0.005126 0.001186 -0.108304
0.009974 0.009583 -0.108304
0.009974 0.009583 0.096692
0.005126 0.001186 0.096692
-0.004571 0.001186 -0.108304
-0.004571 0.001186 0.096692
-0.009420 0.009583 -0.108304
-0.009420 0.009583 0.096692
-0.004571 0.017981 -0.108304
-0.004571 0.017981 0.096692
0.005126 0.017981 -0.108304
0.005126 0.017981 0.096692
0.000277 0.009583 0.129402
</float_array>
          <technique_common>
            <accessor source="#penShape-lib-Position-array" count="13" stride="3">
              <param name="X" type="float"/>
              <param name="Y" type="float"/>
              <param name="Z" type="float"/>
            </accessor>
          </technique_common>
        </source>
        <source id="penShape-lib-Normal">
          <float_array count="198" id="penShape-lib-Normal-array">
0.866026 -0.500000 0
0.866026 -0.500000 0
0.866026 -0.500000 0
0.866026 -0.500000 0
0.866026 -0.500000 0
0.866026 -0.500000 0
0 -1.000000 0
0 -1.000000 0
0 -1.000000 0
0 -1.000000 0
0 -1.000000 0
0 -1.000000 0
-0.866026 -0.500000 0
-0.866026 -0.500000 0
-0.866026 -0.500000 0
-0.866026 -0.500000 0
-0.866026 -0.500000 0
-0.866026 -0.500000 0
-0.866026 0.500000 0
-0.866026 0.500000 0
-0.866026 0.500000 0
-0.866026 0.500000 0
-0.866026 0.500000 0
-0.866026 0.500000 0
0 1.000000 0
0 1.000000 0
0 1.000000 0
0 1.000000 0
0 1.000000 0
0 1.000000 0
0.866026 0.500000 0
0.866026 0.500000 0
0.866026 0.500000 0
0.866026 0.500000 0
0.866026 0.500000 0
0.866026 0.500000 0
0.000001 -0.000001 -1.000000
0.000001 -0.000001 -1.000000
0.000001 -0.000001 -1.000000
0.000001 -0.000001 -1.000000
0.000001 -0.000001 -1.000000
0.000001 -0.000001 -1.000000
0 0.000002 -1.000000
0 0.000002 -1.000000
0 0.000002 -1.000000
-0.000001 -0.000001 -1.000000
-0.000001 -0.000001 -1.000000
-0.000001 -0.000001 -1.000000
0.838822 -0.484293 0.248672
0.838822 -0.484293 0.248672
0.838822 -0.484293 0.248672
0.838822 0.484293 0.248672
0.838822 0.484293 0.248672
0.838822 0.484293 0.248672
0 0.968588 0.248672
0 0.968588 0.248672
0 0.968588 0.248672
-0.838822 0.484293 0.248672
-0.838822 0.484293 0.248672
-0.838822 0.484293 0.248672
-0.838822 -0.484293 0.248672
-0.838822 -0.484293 0.248672
-0.838822 -0.484293 0.248672
0 -0.968588 0.248672
0 -0.968588 0.248672
0 -0.968588 0.248672
</float_array>
          <technique_common>
            <accessor source="#penShape-lib-Normal-array" count="66" stride="3">
              <param name="X" type="float"/>
              <param name="Y" type="float"/>
              <param name="Z" type="float"/>
            </accessor>
          </technique_common>
          <technique profile="MAYA">
            <DOUBLE_SIDED>false</DOUBLE_SIDED>
          </technique>
        </source>
        <source id="penShape-lib-map1" name="map1">
          <float_array count="48" id="penShape-lib-map1-array">
0.993342 1.000000
0.830948 1.000000
0.830948 0.158324
0.993342 0.158324
0.170855 1.000000
0.002551 1.000000
0.002048 0.160339
0.171291 0.158741
0.335552 1.000000
0.335552 0.158324
0.500249 1.000000
0.500249 0.158324
0.666251 1.000000
0.666251 0.158324
0.830948 1.000000
0.993342 1.000000
0.830948 1.000000
0.993342 0.158324
0.917852 0.011641
0.751847 0.009209
0.584317 0.009209
0.405470 0.016869
0.238005 0.009209
0.073714 0.008968
</float_array>
          <technique_common>
            <accessor source="#penShape-lib-map1-array" count="24" stride="2">
              <param name="S" type="float"/>
              <param name="T" type="float"/>
            </accessor>
          </technique_common>
        </source>
        <vertices id="penShape-lib-Vertex">
          <input semantic="POSITION" source="#penShape-lib-Position"/>
        </vertices>
        <triangles material="lambert2" count="22">
          <input semantic="VERTEX" offset="0" source="#penShape-lib-Vertex"/>
          <input semantic="NORMAL" offset="1" source="#penShape-lib-Normal"/>
          <input semantic="TEXCOORD" offset="2" set="0" source="#penShape-lib-map1"/>
          <p>0 0 0 1 1 1 3 2 3 1 3 1 2 4 2 3 5 3 4 6 4 0 7 5 5 8 7 0 9 5 3 10 6 5 11 7 6 12 8 4 13 4 7 14 9 4 15 4 5 16 7 7 17 9 8 18 10 6 19 8 9 20 11 6 21 8 7 22 9 9 23 11 10 24 12 8 25 10 11 26 13 8 27 10 9 28 11 11 29 13 1 30 14 10 31 12 2 32 2 10 33 12 11 34 13 2 35 2 10 36 12 0 37 15 6 38 8 6 39 8 0 40 15 4 41 4 6 42 8 8 43 10 10 44 12 1 45 16 0 46 15 10 47 12 3 48 17 2 49 2 12 50 18 2 51 2 11 52 13 12 53 19 11 54 13 9 55 11 12 56 20 9 57 11 7 58 9 12 59 21 7 60 9 5 61 7 12 62 22 5 63 7 3 64 6 12 65 23</p>
        </triangles>
      </mesh>
    </geometry>
    <geometry id="_collider_box_nShape1-lib" name="_collider_box_nShape1">
      <mesh>
        <source id="_collider_box_nShape1-lib-Position">
          <float_array count="24" id="_collider_box_nShape1-lib-Position-array">
-0.500000 -0.500000 0.500000
0.500000 -0.500000 0.500000
-0.500000 0.500000 0.500000
0.500000 0.500000 0.500000
-0.500000 0.500000 -0.500000
0.500000 0.500000 -0.500000
-0.500000 -0.500000 -0.500000
0.500000 -0.500000 -0.500000
</float_array>
          <technique_common>
            <accessor source="#_collider_box_nShape1-lib-Position-array" count="8" stride="3">
              <param name="X" type="float"/>
              <param name="Y" type="float"/>
              <param name="Z" type="float"/>
            </accessor>
          </technique_common>
        </source>
        <source id="_collider_box_nShape1-lib-Normal">
          <float_array count="108" id="_collider_box_nShape1-lib-Normal-array">
0 0 1.000000
0 0 1.000000
0 0 1.000000
0 0 1.000000
0 0 1.000000
0 0 1.000000
0 1.000000 0
0 1.000000 0
0 1.000000 0
0 1.000000 0
0 1.000000 0
0 1.000000 0
0 0 -1.000000
0 0 -1.000000
0 0 -1.000000
0 0 -1.000000
0 0 -1.000000
0 0 -1.000000
0 -1.000000 0
0 -1.000000 0
0 -1.000000 0
0 -1.000000 0
0 -1.000000 0
0 -1.000000 0
1.000000 0 0
1.000000 0 0
1.000000 0 0
1.000000 0 0
1.000000 0 0
1.000000 0 0
-1.000000 0 0
-1.000000 0 0
-1.000000 0 0
-1.000000 0 0
-1.000000 0 0
-1.000000 0 0
</float_array>
          <technique_common>
            <accessor source="#_collider_box_nShape1-lib-Normal-array" count="36" stride="3">
              <param name="X" type="float"/>
              <param name="Y" type="float"/>
              <param name="Z" type="float"/>
            </accessor>
          </technique_common>
          <technique profile="MAYA">
            <DOUBLE_SIDED>false</DOUBLE_SIDED>
          </technique>
        </source>
        <source id="_collider_box_nShape1-lib-map1" name="map1">
          <float_array count="28" id="_collider_box_nShape1-lib-map1-array">
0 0
1.000000 0
0 1.000000
1.000000 1.000000
0 2.000000
1.000000 2.000000
0 3.000000
1.000000 3.000000
0 4.000000
1.000000 4.000000
2.000000 0
2.000000 1.000000
-1.000000 0
-1.000000 1.000000
</float_array>
          <technique_common>
            <accessor source="#_collider_box_nShape1-lib-map1-array" count="14" stride="2">
              <param name="S" type="float"/>
              <param name="T" type="float"/>
            </accessor>
          </technique_common>
        </source>
        <vertices id="_collider_box_nShape1-lib-Vertex">
          <input semantic="POSITION" source="#_collider_box_nShape1-lib-Position"/>
        </vertices>
        <triangles material="lambert3" count="12">
          <input semantic="VERTEX" offset="0" source="#_collider_box_nShape1-lib-Vertex"/>
          <input semantic="NORMAL" offset="1" source="#_collider_box_nShape1-lib-Normal"/>
          <input semantic="TEXCOORD" offset="2" set="0" source="#_collider_box_nShape1-lib-map1"/>
          <p>0 0 0 1 1 1 2 2 2 1 3 1 3 4 3 2 5 2 2 6 2 3 7 3 4 8 4 3 9 3 5 10 5 4 11 4 4 12 4 5 13 5 6 14 6 5 15 5 7 16 7 6 17 6 6 18 6 7 19 7 0 20 8 7 21 7 1 22 9 0 23 8 1 24 1 7 25 10 3 26 3 7 27 10 5 28 11 3 29 3 6 30 12 0 31 0 4 32 13 0 33 0 2 34 2 4 35 13</p>
        </triangles>
      </mesh>
    </geometry>
    <geometry id="_collider_sphere_bShape1-lib" name="_collider_sphere_bShape1">
      <mesh>
        <source id="_collider_sphere_bShape1-lib-Position">
          <float_array count="66" id="_collider_sphere_bShape1-lib-Position-array">
0.181636 -0.809017 -0.559017
-0.475528 -0.809017 -0.345492
-0.475528 -0.809017 0.345491
0.181636 -0.809017 0.559017
0.587785 -0.809017 0
0.293893 -0.309017 -0.904508
-0.769421 -0.309017 -0.559017
-0.769421 -0.309017 0.559017
0.293893 -0.309017 0.904508
0.951056 -0.309017 0
0.293893 0.309017 -0.904508
-0.769421 0.309017 -0.559017
-0.769421 0.309017 0.559017
0.293893 0.309017 0.904508
0.951056 0.309017 0
0.181636 0.809017 -0.559017
-0.475528 0.809017 -0.345492
-0.475528 0.809017 0.345491
0.181636 0.809017 0.559017
0.587785 0.809017 0
0 -1.000000 0
0 1.000000 0
</float_array>
          <technique_common>
            <accessor source="#_collider_sphere_bShape1-lib-Position-array" count="22" stride="3">
              <param name="X" type="float"/>
              <param name="Y" type="float"/>
              <param name="Z" type="float"/>
            </accessor>
          </technique_common>
        </source>
        <source id="_collider_sphere_bShape1-lib-Normal">
          <float_array count="270" id="_collider_sphere_bShape1-lib-Normal-array">
-0.266405 -0.506732 -0.819909
-0.266405 -0.506732 -0.819909
-0.266405 -0.506732 -0.819909
-0.266405 -0.506732 -0.819909
-0.862104 -0.506732 0
-0.862104 -0.506732 0
-0.862104 -0.506732 0
-0.862104 -0.506732 0
-0.266405 -0.506732 0.819909
-0.266405 -0.506732 0.819909
-0.266405 -0.506732 0.819909
-0.266405 -0.506732 0.819909
0.697457 -0.506732 0.506732
0.697457 -0.506732 0.506732
0.697457 -0.506732 0.506732
0.697457 -0.506732 0.506732
0.697457 -0.506732 -0.506732
0.697457 -0.506732 -0.506732
0.697457 -0.506732 -0.506732
0.697457 -0.506732 -0.506732
-0.309017 0 -0.951057
-0.309017 0 -0.951057
-0.309017 0 -0.951057
-0.309017 0 -0.951057
-1.000000 0 0
-1.000000 0 0
-1.000000 0 0
-1.000000 0 0
-0.309017 0 0.951056
-0.309017 0 0.951056
-0.309017 0 0.951056
-0.309017 0 0.951056
0.809017 0 0.587785
0.809017 0 0.587785
0.809017 0 0.587785
0.809017 0 0.587785
0.809017 0 -0.587785
0.809017 0 -0.587785
0.809017 0 -0.587785
0.809017 0 -0.587785
-0.266405 0.506732 -0.819909
-0.266405 0.506732 -0.819909
-0.266405 0.506732 -0.819909
-0.266405 0.506732 -0.819909
-0.862104 0.506732 0
-0.862104 0.506732 0
-0.862104 0.506732 0
-0.862104 0.506732 0
-0.266405 0.506732 0.819909
-0.266405 0.506732 0.819909
-0.266405 0.506732 0.819909
-0.266405 0.506732 0.819909
0.697457 0.506732 0.506732
0.697457 0.506732 0.506732
0.697457 0.506732 0.506732
0.697457 0.506732 0.506732
0.697457 0.506732 -0.506732
0.697457 0.506732 -0.506732
0.697457 0.506732 -0.506732
0.697457 0.506732 -0.506732
-0.115167 -0.927956 -0.354448
-0.115167 -0.927956 -0.354448
-0.115167 -0.927956 -0.354448
-0.372689 -0.927956 0
-0.372689 -0.927956 0
-0.372689 -0.927956 0
-0.115167 -0.927956 0.354448
-0.115167 -0.927956 0.354448
-0.115167 -0.927956 0.354448
0.301511 -0.927956 0.219061
0.301511 -0.927956 0.219061
0.301511 -0.927956 0.219061
0.301511 -0.927957 -0.219061
0.301511 -0.927957 -0.219061
0.301511 -0.927957 -0.219061
-0.115167 0.927956 -0.354448
-0.115167 0.927956 -0.354448
-0.115167 0.927956 -0.354448
-0.372689 0.927957 0
-0.372689 0.927957 0
-0.372689 0.927957 0
-0.115167 0.927956 0.354448
-0.115167 0.927956 0.354448
-0.115167 0.927956 0.354448
0.301511 0.927956 0.219061
0.301511 0.927956 0.219061
0.301511 0.927956 0.219061
0.301511 0.927956 -0.219061
0.301511 0.927956 -0.219061
0.301511 0.927956 -0.219061
</float_array>
          <technique_common>
            <accessor source="#_collider_sphere_bShape1-lib-Normal-array" count="90" stride="3">
              <param name="X" type="float"/>
              <param name="Y" type="float"/>
              <param name="Z" type="float"/>
            </accessor>
          </technique_common>
          <technique profile="MAYA">
            <DOUBLE_SIDED>true</DOUBLE_SIDED>
          </technique>
        </source>
        <source id="_collider_sphere_bShape1-lib-map1" name="map1">
          <float_array count="68" id="_collider_sphere_bShape1-lib-map1-array">
0 0.200000
0.200000 0.200000
0.400000 0.200000
0.600000 0.200000
0.800000 0.200000
1.000000 0.200000
0 0.400000
0.200000 0.400000
0.400000 0.400000
0.600000 0.400000
0.800000 0.400000
1.000000 0.400000
0 0.600000
0.200000 0.600000
0.400000 0.600000
0.600000 0.600000
0.800000 0.600000
1.000000 0.600000
0 0.800000
0.200000 0.800000
0.400000 0.800000
0.600000 0.800000
0.800000 0.800000
1.000000 0.800000
0.100000 0
0.300000 0
0.500000 0
0.700000 0
0.900000 0
0.100000 1.000000
0.300000 1.000000
0.500000 1.000000
0.700000 1.000000
0.900000 1.000000
</float_array>
          <technique_common>
            <accessor source="#_collider_sphere_bShape1-lib-map1-array" count="34" stride="2">
              <param name="S" type="float"/>
              <param name="T" type="float"/>
            </accessor>
          </technique_common>
        </source>
        <vertices id="_collider_sphere_bShape1-lib-Vertex">
          <input semantic="POSITION" source="#_collider_sphere_bShape1-lib-Position"/>
        </vertices>
        <triangles material="lambert1" count="40">
          <input semantic="VERTEX" offset="0" source="#_collider_sphere_bShape1-lib-Vertex"/>
          <input semantic="NORMAL" offset="1" source="#_collider_sphere_bShape1-lib-Normal"/>
          <input semantic="TEXCOORD" offset="2" set="0" source="#_collider_sphere_bShape1-lib-map1"/>
          <p>6 2 7 5 3 6 1 1 1 0 0 0 1 1 1 5 3 6 7 6 8 6 7 7 2 5 2 1 4 1 2 5 2 6 7 7 8 10 9 7 11 8 3 9 3 2 8 2 3 9 3 7 11 8 9 14 10 8 15 9 4 13 4 3 12 3 4 13 4 8 15 9 5 18 11 9 19 10 0 17 5 4 16 4 0 17 5 9 19 10 5 20 6 6 21 7 10 23 12 6 21 7 11 22 13 10 23 12 6 24 7 7 25 8 11 27 13 7 25 8 12 26 14 11 27 13 7 28 8 8 29 9 12 31 14 8 29 9 13 30 15 12 31 14 8 32 9 9 33 10 13 35 15 9 33 10 14 34 16 13 35 15 9 36 10 5 37 11 14 39 16 5 37 11 10 38 17 14 39 16 10 40 12 11 41 13 15 43 18 11 41 13 16 42 19 15 43 18 11 44 13 12 45 14 16 47 19 12 45 14 17 46 20 16 47 19 12 48 14 13 49 15 17 51 20 13 49 15 18 50 21 17 51 20 13 52 15 14 53 16 18 55 21 14 53 16 19 54 22 18 55 21 14 56 16 10 57 17 19 59 22 10 57 17 15 58 23 19 59 22 1 60 1 0 61 0 20 62 24 2 63 2 1 64 1 20 65 25 3 66 3 2 67 2 20 68 26 4 69 4 3 70 3 20 71 27 0 72 5 4 73 4 20 74 28 15 75 18 16 76 19 21 77 29 16 78 19 17 79 20 21 80 30 17 81 20 18 82 21 21 83 31 18 84 21 19 85 22 21 86 32 19 87 22 15 88 23 21 89 33</p>
        </triangles>
      </mesh>
    </geometry>
  </library_geometries>
  <library_visual_scenes>
    <visual_scene id="DefaultScene" name="untitled">
      <node id="group1" name="group1" sid="group1">
        <translate sid="translate">-0.002617 0.008308 0.005854</translate>
        <rotate sid="rotateZ">0 0 1 0</rotate>
        <rotate sid="rotateY">0 1 0 0</rotate>
        <rotate sid="rotateX">1 0 0 0</rotate>
        <translate sid="scalePivotTranslation">0.002617 -0.008308 -0.005854</translate>
        <translate sid="scalePivot">-0.002617 0.008308 0.005854</translate>
        <translate sid="scalePivotInverse">0.002617 -0.008308 -0.005854</translate>
        <node id="pen" name="pen" sid="pen">
          <translate sid="translate">0.000277 0.009583 0.010549</translate>
          <rotate sid="rotateZ">0 0 1 0</rotate>
          <rotate sid="rotateY">0 1 0 0</rotate>
          <rotate sid="rotateX">1 0 0 0</rotate>
          <translate sid="scalePivotTranslation">-0.000277 -0.009583 -0.010549</translate>
          <translate sid="scalePivot">0.000277 0.009583 0.010549</translate>
          <translate sid="scalePivotInverse">-0.000277 -0.009583 -0.010549</translate>
          <instance_geometry url="#penShape-lib">
            <bind_material>
              <technique_common>
                <instance_material symbol="lambert2" target="#lambert2">
                  <bind semantic="UVSET0" target="#penShape-lib-map1"/>
                </instance_material>
              </technique_common>
            </bind_material>
          </instance_geometry>
        </node>
        <node id="_collider_box_n1" name="_collider_box_n1" sid="_collider_box_n1">
          <translate sid="translate">-0.000002 0.009965 0.006579</translate>
          <rotate sid="rotateZ">0 0 1 0</rotate>
          <rotate sid="rotateY">0 1 0 0</rotate>
          <rotate sid="rotateX">1 0 0 0</rotate>
          <scale sid="scale">0.020107 0.016770 0.231534</scale>
          <instance_geometry url="#_collider_box_nShape1-lib">
            <bind_material>
              <technique_common>
                <instance_material symbol="lambert3" target="#lambert3"/>
              </technique_common>
            </bind_material>
          </instance_geometry>
        </node>
        <node id="_collider_sphere_b1" name="_collider_sphere_b1" sid="_collider_sphere_b1">
          <translate sid="translate">-0.000537 0.009798 0</translate>
          <rotate sid="rotateZ">0 0 1 0</rotate>
          <rotate sid="rotateY">0 1 0 0</rotate>
          <rotate sid="rotateX">1 0 0 0</rotate>
          <scale sid="scale">0.009819 0.009819 0.009819</scale>
          <instance_geometry url="#_collider_sphere_bShape1-lib">
            <bind_material>
              <technique_common>
                <instance_material symbol="lambert1" target="#lambert1"/>
              </technique_common>
            </bind_material>
          </instance_geometry>
        </node>
      </node>
      <extra>
        <technique profile="MAYA">
          <start_time>0.041667</start_time>
          <end_time>2.000000</end_time>
        </technique>
      </extra>
    </visual_scene>
  </library_visual_scenes>
  <scene>
    <instance_visual_scene url="#DefaultScene"/>
  </scene>
</COLLADA>
