<?xml version="1.0" encoding="utf-8"?>
<COLLADA xmlns="http://www.collada.org/2005/11/COLLADASchema" version="1.4.1">
<asset>
	<contributor>
		<author>Darkfire</author>
		<authoring_tool>Collada Exporter for Blender 2.6+, by Juan Linietsky (juan@codenix.com)</authoring_tool>
	</contributor>
	<created>2019-06-04T17:41:26Z</created>
	<modified>2019-06-04T17:41:26Z</modified>
	<unit meter="1.0" name="meter"/>
	<up_axis>Z_UP</up_axis>
</asset>
<library_images>
	<image id="id-image-3" name="danger_dkf.png">
		<init_from>images\construction_dkf.png</init_from>
	</image>
	<image id="id-image-10" name="pole.png">
		<init_from>images\pole.png</init_from>
	</image>
</library_images>
<library_effects>
	<effect id="id-fx-2" name="Material-fx">
		<profile_COMMON>
			<newparam sid="id-fx_surf-4">
				<surface type="2D">
					<init_from>id-image-3</init_from>
					<format>A8R8G8B8</format>
				</surface>
			</newparam>
			<newparam sid="id-fx_sampler-5">
				<sampler2D>
					<source>id-fx_surf-4</source>
				</sampler2D>
			</newparam>
			<technique sid="common">
				<blinn>
					<emission>
						<color>  0.0 0.0 0.0 1.0 </color>
					</emission>
					<ambient>
						<color>  0.0 0.0 0.0 1.0 </color>
					</ambient>
					<diffuse>
						<texture texture="id-fx_sampler-5" texcoord="CHANNEL1"/>
					</diffuse>
					<specular>
						<color>  0.5 0.5 0.5 1.0 </color>
					</specular>
					<shininess>
						<float>50</float>
					</shininess>
					<reflective>
						<color>  1.0 1.0 1.0 1.0 </color>
					</reflective>
					<index_of_refraction>
						<float>4.0</float>
					</index_of_refraction>
				</blinn>
				<extra>
					<technique profile="FCOLLADA">
					</technique>
					<technique profile="GOOGLEEARTH">
						<double_sided>0</double_sided>
					</technique>
				</extra>
			</technique>
		</profile_COMMON>
	</effect>
	<effect id="id-fx-9" name="metal-fx">
		<profile_COMMON>
			<newparam sid="id-fx_surf-11">
				<surface type="2D">
					<init_from>id-image-10</init_from>
					<format>A8R8G8B8</format>
				</surface>
			</newparam>
			<newparam sid="id-fx_sampler-12">
				<sampler2D>
					<source>id-fx_surf-11</source>
				</sampler2D>
			</newparam>
			<technique sid="common">
				<blinn>
					<emission>
						<color>  0.0 0.0 0.0 1.0 </color>
					</emission>
					<ambient>
						<color>  0.0 0.0 0.0 1.0 </color>
					</ambient>
					<diffuse>
						<texture texture="id-fx_sampler-12" texcoord="CHANNEL1"/>
					</diffuse>
					<specular>
						<color>  0.5 0.5 0.5 1.0 </color>
					</specular>
					<shininess>
						<float>50</float>
					</shininess>
					<reflective>
						<color>  1.0 1.0 1.0 1.0 </color>
					</reflective>
					<index_of_refraction>
						<float>4.0</float>
					</index_of_refraction>
				</blinn>
				<extra>
					<technique profile="FCOLLADA">
					</technique>
					<technique profile="GOOGLEEARTH">
						<double_sided>0</double_sided>
					</technique>
				</extra>
			</technique>
		</profile_COMMON>
	</effect>
</library_effects>
<library_materials>
	<material id="id-material-6" name="Material">
		<instance_effect url="#id-fx-2"/>
	</material>
	<material id="id-material-13" name="metal">
		<instance_effect url="#id-fx-9"/>
	</material>
</library_materials>
<library_geometries>
	<geometry id="id-mesh-7" name="Cube">
		<mesh>
			<source id="id-mesh-7-positions">
				<float_array id="id-mesh-7-positions-array" count="228"> -0.01763627864420414 0.21867352724075317 0.4236576557159424 -0.014082320034503937 0.5296327471733093 0.737606942653656 -0.009765008464455605 0.5296327471733093 0.4236576557159424 -0.009765008464455605 0.5296327471733093 0.4236576557159424 0.01420483086258173 0.5296327471733093 0.737606942653656 0.01804068312048912 0.5296327471733093 0.4236576557159424 0.034032970666885376 -0.24153050780296326 0.4236576557159424 0.02567269280552864 -0.5296327471733093 0.737606942653656 0.008358635008335114 -0.5296327471733093 0.4236576557159424 0.008358635008335114 -0.5296327471733093 0.4236576557159424 -0.0058796945959329605 -0.5296327471733093 0.737606942653656 -0.008275959640741348 -0.5296327471733093 0.4236576557159424 0.01562189869582653 -0.24153050780296326 -0.737606942653656 -0.008121893741190434 -0.5296327471733093 -0.737606942653656 -0.008881142362952232 -0.24153050780296326 -0.737606942653656 0.02707122266292572 -0.24153050780296326 0.737606942653656 -0.0058796945959329605 -0.5296327471733093 0.737606942653656 0.02567269280552864 -0.5296327471733093 0.737606942653656 -0.010384436696767807 -0.5296327471733093 0.024842768907546997 0.01308414526283741 -0.5296327471733093 0.024842768907546997 0.027412017807364464 -0.24153050780296326 0.024842768907546997 0.01308414526283741 -0.5296327471733093 0.024842768907546997 -0.002093133982270956 0.5296327471733093 0.024842768907546997 0.02246139943599701 0.5296327471733093 0.024842768907546997 -0.005201494321227074 0.21867352724075317 0.024842768907546997 -0.002093133982270956 0.5296327471733093 0.024842768907546997 -0.0012876142282038927 0.21867352724075317 -0.3739721179008484 -0.009919585660099983 0.5296327471733093 -0.737606942653656 -0.017752163112163544 0.21867352724075317 -0.737606942653656 0.006445412058383226 0.5296327471733093 -0.3739721179008484 0.011786735616624355 0.5296327471733093 -0.737606942653656 -0.009919585660099983 0.5296327471733093 -0.737606942653656 0.01562189869582653 -0.24153050780296326 -0.737606942653656 0.020358137786388397 -0.5296327471733093 -0.3739721179008484 0.01729564368724823 -0.5296327471733093 -0.737606942653656 0.020358137786388397 -0.5296327471733093 -0.3739721179008484 -0.008121893741190434 -0.5296327471733093 -0.737606942653656 0.01729564368724823 -0.5296327471733093 -0.737606942653656 0.02336365357041359 0.5296327471733093 -0.3739721179008484 0.018433168530464172 0.21867352724075317 -0.737606942653656 0.011786735616624355 0.5296327471733093 -0.737606942653656 -0.01813347078859806 -0.24153050780296326 -0.3739721179008484 -0.008881142362952232 -0.24153050780296326 -0.737606942653656 -0.0028326469473540783 -0.24153050780296326 0.4236576557159424 -0.013933255337178707 -0.24153050780296326 0.024842768907546997 0.02246139943599701 0.5296327471733093 0.024842768907546997 0.03742149472236633 0.21867352724075317 0.4236576557159424 0.03864084556698799 0.21867352724075317 0.024842768907546997 0.01420483086258173 0.5296327471733093 0.737606942653656 0.004230281338095665 0.21867352724075317 0.737606942653656 0.03208459913730621 0.21867352724075317 0.737606942653656 -0.009919585660099983 0.5296327471733093 -0.737606942653656 0.018433168530464172 0.21867352724075317 -0.737606942653656 -0.017752163112163544 0.21867352724075317 -0.737606942653656 0.01804068312048912 0.5296327471733093 0.4236576557159424 0.03208459913730621 0.21867352724075317 0.737606942653656 0.004230281338095665 0.21867352724075317 0.737606942653656 -0.008275959640741348 -0.5296327471733093 0.4236576557159424 -0.007498026825487614 -0.24153050780296326 0.737606942653656 -0.010384436696767807 -0.5296327471733093 0.024842768907546997 -0.014381373301148415 -0.5296327471733093 -0.373972088098526 -0.008121893741190434 -0.5296327471733093 -0.737606942653656 0.017840184271335602 0.21867352724075317 -0.3739721179008484 0.02776619791984558 -0.24153050780296326 -0.3739721179008484 0.006445412058383226 0.5296327471733093 -0.3739721179008484 0.02336365357041359 0.5296327471733093 -0.3739721179008484 -0.014381373301148415 -0.5296327471733093 -0.373972088098526 -0.014082320034503937 0.5296327471733093 0.737606942653656 0.02707122266292572 -0.24153050780296326 0.737606942653656 0.02567269280552864 -0.5296327471733093 0.737606942653656 0.01729564368724823 -0.5296327471733093 -0.737606942653656 -0.007498026825487614 -0.24153050780296326 0.737606942653656 -0.014082320034503937 0.5296327471733093 0.737606942653656 0.011786735616624355 0.5296327471733093 -0.737606942653656 0.01420483086258173 0.5296327471733093 0.737606942653656 -0.0058796945959329605 -0.5296327471733093 0.737606942653656</float_array>
				<technique_common>
				<accessor source="#id-mesh-7-positions-array" count="76" stride="3">
					<param name="X" type="float"/>
					<param name="Y" type="float"/>
					<param name="Z" type="float"/>
				</accessor>
				</technique_common>
			</source>
			<source id="id-mesh-7-normals">
				<float_array id="id-mesh-7-normals-array" count="228"> -0.999847412109375 -0.013855403289198875 0.00866725668311119 -0.5839106440544128 0.5692006945610046 0.5788140296936035 -0.6997283697128296 0.7142552137374878 -0.0139469588175416 -0.6997283697128296 0.7142552137374878 -0.0139469588175416 0.5551927089691162 0.5926389098167419 0.5835139155387878 0.6852626204490662 0.7282326817512512 0.00878933072090149 0.999114990234375 -0.04101687669754028 -0.005615405738353729 0.5774407386779785 -0.5832697749137878 0.5712149143218994 0.669637143611908 -0.7423932552337646 -0.020172733813524246 0.669637143611908 -0.7423932552337646 -0.020172733813524246 -0.5731680989265442 -0.5792108178138733 0.5796380639076233 -0.7097384333610535 -0.7043977379798889 0.005188146606087685 0.6990569829940796 0.0007324442267417908 -0.7150486707687378 -0.5710623264312744 -0.5789361000061035 -0.5819574594497681 -0.6969206929206848 -0.009155552834272385 -0.7170628905296326 0.6985076665878296 -0.005493331700563431 0.7155674695968628 -0.5731680989265442 -0.5792108178138733 0.5796380639076233 0.5774407386779785 -0.5832697749137878 0.5712149143218994 -0.7021698951721191 -0.711966335773468 0.005371257662773132 0.6884975433349609 -0.7251502871513367 0.010345774702727795 0.99945068359375 -0.032288581132888794 -0.006988738663494587 0.6884975433349609 -0.7251502871513367 0.010345774702727795 -0.7025666236877441 0.7114779949188232 -0.0119022186845541 0.6939298510551453 0.7199621796607971 -0.00787377543747425 -0.9998779296875 0.00912503432482481 -0.012054811231791973 -0.7025666236877441 0.7114779949188232 -0.0119022186845541 -0.99945068359375 0.026764731854200363 0.01828058809041977 -0.5834223628044128 0.5816522836685181 -0.5667897462844849 -0.7224341630935669 0.013702810741961002 -0.6912747621536255 -0.6904813051223755 0.7232581377029419 0.008117923513054848 0.5605029463768005 0.5844904780387878 -0.5866267681121826 -0.5834223628044128 0.5816522836685181 -0.5667897462844849 0.6990569829940796 0.0007324442267417908 -0.7150486707687378 0.7016205191612244 -0.712515652179718 -0.005218665115535259 0.5764946341514587 -0.5762504935264587 -0.5792413353919983 0.7016205191612244 -0.712515652179718 -0.005218665115535259 -0.5710623264312744 -0.5789361000061035 -0.5819574594497681 0.5764946341514587 -0.5762504935264587 -0.5792413353919983 0.7140110731124878 0.7000640630722046 -0.0039674062281847 0.7074800729751587 -0.0008239997550845146 -0.7066866159439087 0.5605029463768005 0.5844904780387878 -0.5866267681121826 -0.999969482421875 0.0037537766620516777 6.103701889514923e-05 -0.6969206929206848 -0.009155552834272385 -0.7170628905296326 -0.999908447265625 0.009247108362615108 0.007812738418579102 -0.999847412109375 0.008758812211453915 0.013397625647485256 0.6939298510551453 0.7199621796607971 -0.00787377543747425 0.99957275390625 0.026337474584579468 0.01116977445781231 0.99951171875 0.016083255410194397 -0.026734214276075363 0.5551927089691162 0.5926389098167419 0.5835139155387878 -0.6776635050773621 -0.023346658796072006 0.7349772453308105 0.7084872126579285 0.018097475171089172 0.7054658532142639 -0.5834223628044128 0.5816522836685181 -0.5667897462844849 0.7074800729751587 -0.0008239997550845146 -0.7066866159439087 -0.7224341630935669 0.013702810741961002 -0.6912747621536255 0.6852626204490662 0.7282326817512512 0.00878933072090149 0.7084872126579285 0.018097475171089172 0.7054658532142639 -0.6776635050773621 -0.023346658796072006 0.7349772453308105 -0.7097384333610535 -0.7043977379798889 0.005188146606087685 -0.713614284992218 0.011200292967259884 0.7004303336143494 -0.7021698951721191 -0.711966335773468 0.005371257662773132 -0.7063509225845337 -0.7078157663345337 -0.0040894802659749985 -0.5710623264312744 -0.5789361000061035 -0.5819574594497681 0.9998779296875 -0.0009765923023223877 -0.01507614366710186 0.999847412109375 -0.0020447401329874992 -0.016235847026109695 -0.6904813051223755 0.7232581377029419 0.008117923513054848 0.7140110731124878 0.7000640630722046 -0.0039674062281847 -0.7063509225845337 -0.7078157663345337 -0.0040894802659749985 -0.5839106440544128 0.5692006945610046 0.5788140296936035 0.6985076665878296 -0.005493331700563431 0.7155674695968628 0.5774407386779785 -0.5832697749137878 0.5712149143218994 0.5764946341514587 -0.5762504935264587 -0.5792413353919983 -0.713614284992218 0.011200292967259884 0.7004303336143494 -0.5839106440544128 0.5692006945610046 0.5788140296936035 0.5605029463768005 0.5844904780387878 -0.5866267681121826 0.5551927089691162 0.5926389098167419 0.5835139155387878 -0.5731680989265442 -0.5792108178138733 0.5796380639076233</float_array>
				<technique_common>
				<accessor source="#id-mesh-7-normals-array" count="76" stride="3">
					<param name="X" type="float"/>
					<param name="Y" type="float"/>
					<param name="Z" type="float"/>
				</accessor>
				</technique_common>
			</source>
			<source id="id-mesh-7-texcoord-0">
				<float_array id="id-mesh-7-texcoord-0-array" count="152"> 0.6769191026687622 0.549085259437561 0.5496707558631897 0.677557110786438 0.5496707558631897 0.5490851998329163 0.6068163514137268 0.776124894618988 0.5907412171363831 0.9721183776855469 0.5907415151596069 0.7761305570602417 0.14652252197265625 0.7907136678695679 0.0012128949165344238 1.005948781967163 0.0012128949165344238 0.7907136678695679 0.5902432203292847 0.776124894618988 0.5741433501243591 0.9721163511276245 0.5741683840751648 0.7761284708976746 0.6379950046539307 0.7188535928726196 0.6172761917114258 0.9555454254150391 0.6172761917114258 0.7188535928726196 0.6385233402252197 0.7188534736633301 0.6592425107955933 0.9555454254150391 0.6385233998298645 0.9555454254150391 0.5742002725601196 0.5271619558334351 0.5902750492095947 0.527158260345459 0.14652249217033386 0.5172970294952393 0.0012128949165344238 0.5172970294952393 0.6068167686462402 0.527158260345459 0.5907419919967651 0.5271639823913574 0.6769191026687622 0.3858852982521057 0.5496706962585449 0.3858852982521057 0.6769191026687622 0.22268541157245636 0.5496707558631897 0.07388162612915039 0.6769190430641174 0.07388162612915039 0.6068171858787537 0.2781916856765747 0.590742826461792 0.05119248479604721 0.6068175435066223 0.05118682235479355 0.14652252197265625 -0.005417525768280029 0.0012128949165344238 0.24388055503368378 0.0012128949165344238 -0.005417525768280029 0.5903068780899048 0.2781916856765747 0.5742610692977905 0.05119045823812485 0.5903359055519104 0.05118682235479355 0.5354727506637573 0.24388055503368378 0.37863481044769287 -0.005417525768280029 0.5354727506637573 -0.005417525768280029 0.865240216255188 0.22268542647361755 0.8652400970458984 0.07388162612915039 0.865240216255188 0.549085259437561 0.865240216255188 0.3858853578567505 0.5354727506637573 0.5172970294952393 0.37863481044769287 0.7907136678695679 0.3786347806453705 0.5172970294952393 0.6385233998298645 0.08530017733573914 0.6592414975166321 0.340770423412323 0.6385233402252197 0.3407703936100006 0.6172761917114258 0.08530062437057495 0.6379944086074829 0.34077075123786926 0.6172761917114258 0.3407707214355469 0.5354727506637573 0.7907136678695679 0.37863481044769287 1.005948781967163 0.6769190430641174 0.677557110786438 0.9831351637840271 0.549085259437561 0.8652401566505432 0.677557110786438 0.9831349849700928 0.3858852982521057 0.9831351041793823 0.22268544137477875 0.9831350445747375 0.07388162612915039 0.37863481044769287 0.24388054013252258 0.14652252197265625 0.24388054013252258 0.5496707558631897 0.22268541157245636 0.5907424688339233 0.27819734811782837 0.5742320418357849 0.278195321559906 0.6068160533905029 0.972112774848938 0.14652250707149506 1.005948781967163 0.590218186378479 0.972112774848938 0.6379954218864441 0.9555454254150391 0.6592421531677246 0.7188535332679749 0.6592410802841187 0.08530017733573914 0.6379939317703247 0.08530062437057495 0.5354727506637573 1.005948781967163 0.9831351637840271 0.677557110786438</float_array>
				<technique_common>
				<accessor source="#id-mesh-7-texcoord-0-array" count="76" stride="2">
					<param name="S" type="float"/>
					<param name="T" type="float"/>
				</accessor>
				</technique_common>
			</source>
			<vertices id="id-mesh-7-vertices">
				<input semantic="POSITION" source="#id-mesh-7-positions"/>
			</vertices>
			<triangles count="76" material="id-trimat-8">
				<input semantic="VERTEX" source="#id-mesh-7-vertices" offset="0"/>
				<input semantic="NORMAL" source="#id-mesh-7-normals" offset="0"/>
				<input semantic="TEXCOORD" source="#id-mesh-7-texcoord-0" offset="0" set="0"/>
				<p> 0 1 2 3 4 5 6 7 8 9 10 11 12 13 14 15 16 17 9 18 19 20 8 21 22 5 23 24 2 25 26 27 28 29 30 31 32 33 34 35 36 37 38 39 40 41 28 42 43 24 44 45 46 47 48 49 50 51 52 53 54 55 46 43 56 0 57 58 43 57 44 59 60 42 61 62 32 39 47 6 20 49 15 50 52 14 53 55 6 46 62 20 63 60 44 41 45 62 38 44 26 41 26 25 64 29 23 65 20 33 63 19 66 35 0 56 1 3 67 4 6 68 7 9 69 10 12 70 13 15 71 16 9 11 18 20 6 8 22 3 5 24 0 2 26 64 27 29 65 30 32 63 33 35 66 36 38 62 39 41 26 28 43 0 24 45 54 46 48 72 49 51 73 52 54 74 55 43 58 56 57 75 58 57 43 44 60 41 42 62 63 32 47 46 6 49 71 15 52 12 14 55 68 6 62 47 20 60 59 44 45 47 62 44 24 26 26 24 25 29 22 23 20 21 33 19 18 66 </p>
			</triangles>
		</mesh>
	</geometry>
	<geometry id="id-mesh-14" name="Cylinder">
		<mesh>
			<source id="id-mesh-14-positions">
				<float_array id="id-mesh-14-positions-array" count="1392"> 0.032152771949768066 -0.4557960033416748 0.6513247489929199 0.032152771949768066 -0.4397774338722229 0.6394021511077881 0.032152771949768066 -0.44891250133514404 0.6394021511077881 0.032152771949768066 -0.46956300735473633 0.627479612827301 0.032152771949768066 -0.48558157682418823 0.6394021511077881 0.032152771949768066 -0.4764465093612671 0.6394021511077881 0.032152771949768066 -0.46956300735473633 0.6513247489929199 0.032152771949768066 -0.48558157682418823 0.6394021511077881 0.032152771949768066 -0.4741305708885193 0.6592360138893127 0.032152771949768066 -0.4557960033416748 0.627479612827301 0.032152771949768066 -0.4397774338722229 0.6394021511077881 0.032152771949768066 -0.45122843980789185 0.6195683479309082 -0.016451358795166016 -0.4764465093612671 0.6394021511077881 -0.016451358795166016 -0.46956300735473633 0.6513247489929199 -0.016451358795166016 -0.4557960033416748 0.6513247489929199 0.032152771949768066 -0.4557960033416748 0.6513247489929199 -0.016451358795166016 -0.44891250133514404 0.6394021511077881 -0.016451358795166016 -0.4557960033416748 0.6513247489929199 0.032152771949768066 -0.46956300735473633 0.6513247489929199 -0.016451358795166016 -0.4557960033416748 0.6513247489929199 -0.016451358795166016 -0.46956300735473633 0.6513247489929199 0.032152771949768066 -0.4764465093612671 0.6394021511077881 -0.016451358795166016 -0.46956300735473633 0.6513247489929199 -0.016451358795166016 -0.4764465093612671 0.6394021511077881 0.032152771949768066 -0.46956300735473633 0.627479612827301 -0.016451358795166016 -0.4764465093612671 0.6394021511077881 -0.016451358795166016 -0.46956300735473633 0.627479612827301 0.032152771949768066 -0.4557960033416748 0.627479612827301 -0.016451358795166016 -0.46956300735473633 0.627479612827301 -0.016451358795166016 -0.4557960033416748 0.627479612827301 0.032152771949768066 -0.44891250133514404 0.6394021511077881 -0.016451358795166016 -0.4557960033416748 0.627479612827301 -0.016451358795166016 -0.44891250133514404 0.6394021511077881 0.045029282569885254 -0.4397774338722229 0.6394021511077881 0.032152771949768066 -0.45122843980789185 0.6195683479309082 0.032152771949768066 -0.4397774338722229 0.6394021511077881 0.045029282569885254 -0.45122843980789185 0.6195683479309082 0.032152771949768066 -0.4741305708885193 0.6195683479309082 0.032152771949768066 -0.45122843980789185 0.6195683479309082 0.045029282569885254 -0.4741305708885193 0.6195683479309082 0.032152771949768066 -0.48558157682418823 0.6394021511077881 0.032152771949768066 -0.4741305708885193 0.6195683479309082 0.045029282569885254 -0.48558157682418823 0.6394021511077881 0.032152771949768066 -0.4741305708885193 0.6592360138893127 0.032152771949768066 -0.48558157682418823 0.6394021511077881 0.045029282569885254 -0.4741305708885193 0.6592360138893127 0.032152771949768066 -0.45122843980789185 0.6592360138893127 0.032152771949768066 -0.4741305708885193 0.6592360138893127 0.045029282569885254 -0.45122843980789185 0.6592360138893127 0.032152771949768066 -0.4397774338722229 0.6394021511077881 0.032152771949768066 -0.45122843980789185 0.6592360138893127 0.032152771949768066 -0.4557960033416748 0.627479612827301 0.032152771949768066 -0.4741305708885193 0.6195683479309082 0.032152771949768066 -0.46956300735473633 0.627479612827301 0.032152771949768066 -0.46956300735473633 0.6513247489929199 0.032152771949768066 -0.45122843980789185 0.6592360138893127 0.032152771949768066 -0.4557960033416748 0.6513247489929199 0.045029282569885254 -0.4741305708885193 0.6195683479309082 0.045029282569885254 -0.45122843980789185 0.6195683479309082 0.045029282569885254 -0.4397774338722229 0.6394021511077881 0.028766751289367676 0.44227486848831177 0.6498019695281982 0.02879023551940918 0.46196067333221436 0.6531504392623901 0.028867602348327637 0.4504137933254242 0.6456537246704102 0.028748154640197754 0.48308420181274414 0.6290024518966675 0.02881908416748047 0.46339839696884155 0.6256539821624756 0.02884852886199951 0.4749453067779541 0.6331506371498108 0.02883315086364746 0.4818883538246155 0.6518732905387878 0.02884852886199951 0.4749453067779541 0.6331506371498108 0.028628945350646973 0.4742264151573181 0.6468988656997681 0.028835535049438477 0.4434707462787628 0.6269310712814331 0.028867602348327637 0.4504137933254242 0.6456537246704102 0.028661608695983887 0.4511326551437378 0.6319055557250977 -0.019952893257141113 0.46339839696884155 0.6256539821624756 -0.019954681396484375 0.4511326551437378 0.6319055557250977 -0.01986861228942871 0.46196067333221436 0.6531504392623901 -0.01986861228942871 0.46196067333221436 0.6531504392623901 0.028867602348327637 0.4504137933254242 0.6456537246704102 0.02879023551940918 0.46196067333221436 0.6531504392623901 -0.01986861228942871 0.46196067333221436 0.6531504392623901 0.028628945350646973 0.4742264151573181 0.6468988656997681 -0.019779086112976074 0.4742264151573181 0.6468988656997681 -0.01981973648071289 0.4749453067779541 0.6331506371498108 0.028628945350646973 0.4742264151573181 0.6468988656997681 0.02884852886199951 0.4749453067779541 0.6331506371498108 -0.01981973648071289 0.4749453067779541 0.6331506371498108 0.02881908416748047 0.46339839696884155 0.6256539821624756 -0.019952893257141113 0.46339839696884155 0.6256539821624756 -0.019952893257141113 0.46339839696884155 0.6256539821624756 0.028661608695983887 0.4511326551437378 0.6319055557250977 -0.019954681396484375 0.4511326551437378 0.6319055557250977 -0.01994955539703369 0.4504137933254242 0.6456537246704102 0.028661608695983887 0.4511326551437378 0.6319055557250977 0.028867602348327637 0.4504137933254242 0.6456537246704102 0.028766751289367676 0.44227486848831177 0.6498019695281982 0.041493773460388184 0.4434707462787628 0.6269310712814331 0.041646718978881836 0.44227486848831177 0.6498019695281982 0.028835535049438477 0.4434707462787628 0.6269310712814331 0.041472673416137695 0.463875412940979 0.6165313124656677 0.041493773460388184 0.4434707462787628 0.6269310712814331 0.028748154640197754 0.48308420181274414 0.6290024518966675 0.041472673416137695 0.463875412940979 0.6165313124656677 0.028798341751098633 0.463875412940979 0.6165313124656677 0.02883315086364746 0.4818883538246155 0.6518732905387878 0.0416487455368042 0.48308420181274414 0.6290024518966675 0.028748154640197754 0.48308420181274414 0.6290024518966675 0.02878284454345703 0.4614836871623993 0.6622730493545532 0.041616082191467285 0.4818883538246155 0.6518732905387878 0.02883315086364746 0.4818883538246155 0.6518732905387878 0.02878284454345703 0.4614836871623993 0.6622730493545532 0.041646718978881836 0.44227486848831177 0.6498019695281982 0.0417783260345459 0.4614836871623993 0.6622730493545532 0.02881908416748047 0.46339839696884155 0.6256539821624756 0.028835535049438477 0.4434707462787628 0.6269310712814331 0.028661608695983887 0.4511326551437378 0.6319055557250977 0.02879023551940918 0.46196067333221436 0.6531504392623901 0.02883315086364746 0.4818883538246155 0.6518732905387878 0.028628945350646973 0.4742264151573181 0.6468988656997681 0.0416487455368042 0.48308420181274414 0.6290024518966675 0.041616082191467285 0.4818883538246155 0.6518732905387878 0.041646718978881836 0.44227486848831177 0.6498019695281982 0.023071646690368652 -0.44319674372673035 -0.6514406800270081 0.023071646690368652 -0.4630908668041229 -0.6531628966331482 0.023071646690368652 -0.450967937707901 -0.6466386914253235 0.023071646690368652 -0.47439107298851013 -0.6321654915809631 0.023071646690368652 -0.46199527382850647 -0.6165102124214172 0.023071646690368652 -0.4622681736946106 -0.6256412863731384 0.023071646690368652 -0.48284658789634705 -0.6502553820610046 0.023071646690368652 -0.47439107298851013 -0.6321654915809631 0.023071646690368652 -0.4748024344444275 -0.645926296710968 0.023071646690368652 -0.4425124526023865 -0.6285489201545715 0.023071646690368652 -0.450967937707901 -0.6466386914253235 0.023071646690368652 -0.45055657625198364 -0.6328778862953186 -0.02553248405456543 -0.4622681736946106 -0.6256412863731384 -0.02553248405456543 -0.45055657625198364 -0.6328778862953186 -0.02553248405456543 -0.4630908668041229 -0.6531628966331482 -0.02553248405456543 -0.450967937707901 -0.6466386914253235 0.023071646690368652 -0.4630908668041229 -0.6531628966331482 -0.02553248405456543 -0.4630908668041229 -0.6531628966331482 -0.02553248405456543 -0.4630908668041229 -0.6531628966331482 0.023071646690368652 -0.4748024344444275 -0.645926296710968 -0.02553248405456543 -0.4748024344444275 -0.645926296710968 -0.02553248405456543 -0.4748024344444275 -0.645926296710968 0.023071646690368652 -0.47439107298851013 -0.6321654915809631 -0.02553248405456543 -0.47439107298851013 -0.6321654915809631 -0.02553248405456543 -0.47439107298851013 -0.6321654915809631 0.023071646690368652 -0.4622681736946106 -0.6256412863731384 -0.02553248405456543 -0.4622681736946106 -0.6256412863731384 -0.02553248405456543 -0.4622681736946106 -0.6256412863731384 0.023071646690368652 -0.45055657625198364 -0.6328778862953186 -0.02553248405456543 -0.45055657625198364 -0.6328778862953186 -0.02553248405456543 -0.45055657625198364 -0.6328778862953186 0.023071646690368652 -0.450967937707901 -0.6466386914253235 -0.02553248405456543 -0.450967937707901 -0.6466386914253235 0.023071646690368652 -0.4425124526023865 -0.6285489201545715 0.03594815731048584 -0.44319674372673035 -0.6514406800270081 0.023071646690368652 -0.44319674372673035 -0.6514406800270081 0.023071646690368652 -0.46199527382850647 -0.6165102124214172 0.03594815731048584 -0.4425124526023865 -0.6285489201545715 0.023071646690368652 -0.4425124526023865 -0.6285489201545715 0.023071646690368652 -0.4821622967720032 -0.6273636221885681 0.03594815731048584 -0.46199527382850647 -0.6165102124214172 0.023071646690368652 -0.46199527382850647 -0.6165102124214172 0.023071646690368652 -0.48284658789634705 -0.6502553820610046 0.03594815731048584 -0.4821622967720032 -0.6273636221885681 0.023071646690368652 -0.4821622967720032 -0.6273636221885681 0.023071646690368652 -0.46336376667022705 -0.6622939705848694 0.03594815731048584 -0.48284658789634705 -0.6502553820610046 0.023071646690368652 -0.48284658789634705 -0.6502553820610046 0.023071646690368652 -0.44319674372673035 -0.6514406800270081 0.03594815731048584 -0.46336376667022705 -0.6622939705848694 0.023071646690368652 -0.46336376667022705 -0.6622939705848694 0.023071646690368652 -0.46199527382850647 -0.6165102124214172 0.023071646690368652 -0.45055657625198364 -0.6328778862953186 0.023071646690368652 -0.4622681736946106 -0.6256412863731384 0.023071646690368652 -0.46336376667022705 -0.6622939705848694 0.023071646690368652 -0.4748024344444275 -0.645926296710968 0.023071646690368652 -0.4630908668041229 -0.6531628966331482 0.03594815731048584 -0.46199527382850647 -0.6165102124214172 0.03594815731048584 -0.4821622967720032 -0.6273636221885681 0.03594815731048584 -0.48284658789634705 -0.6502553820610046 0.023071646690368652 0.4531489908695221 -0.6294673085212708 0.023071646690368652 0.4404395520687103 -0.6448690295219421 0.023071646690368652 0.4468249976634979 -0.6228751540184021 0.023071646690368652 0.4760485887527466 -0.6361157298088074 0.023071646690368652 0.4785340428352356 -0.6559290289878845 0.023071646690368652 0.4722100496292114 -0.6493368744850159 0.023071646690368652 0.4722100496292114 -0.6493368744850159 0.023071646690368652 0.45629405975341797 -0.6613959670066833 0.023071646690368652 0.4588410258293152 -0.6526232361793518 0.023071646690368652 0.4531489908695221 -0.6294673085212708 0.023071646690368652 0.46906498074531555 -0.6174082159996033 0.023071646690368652 0.4665180444717407 -0.6261810660362244 -0.02553248405456543 0.4665180444717407 -0.6261810660362244 -0.02553248405456543 0.4722100496292114 -0.6493368744850159 -0.02553248405456543 0.4493105113506317 -0.6426884531974792 0.023071646690368652 0.4493105113506317 -0.6426884531974792 -0.02553248405456543 0.4531489908695221 -0.6294673085212708 -0.02553248405456543 0.4493105113506317 -0.6426884531974792 0.023071646690368652 0.4588410258293152 -0.6526232361793518 -0.02553248405456543 0.4493105113506317 -0.6426884531974792 -0.02553248405456543 0.4588410258293152 -0.6526232361793518 0.023071646690368652 0.4722100496292114 -0.6493368744850159 -0.02553248405456543 0.4588410258293152 -0.6526232361793518 -0.02553248405456543 0.4722100496292114 -0.6493368744850159 0.023071646690368652 0.4760485887527466 -0.6361157298088074 -0.02553248405456543 0.4722100496292114 -0.6493368744850159 -0.02553248405456543 0.4760485887527466 -0.6361157298088074 0.023071646690368652 0.4665180444717407 -0.6261810660362244 -0.02553248405456543 0.4760485887527466 -0.6361157298088074 -0.02553248405456543 0.4665180444717407 -0.6261810660362244 0.023071646690368652 0.4531489908695221 -0.6294673085212708 -0.02553248405456543 0.4665180444717407 -0.6261810660362244 -0.02553248405456543 0.4531489908695221 -0.6294673085212708 0.03594815731048584 0.4468249976634979 -0.6228751540184021 0.023071646690368652 0.46906498074531555 -0.6174082159996033 0.023071646690368652 0.4468249976634979 -0.6228751540184021 0.03594815731048584 0.46906498074531555 -0.6174082159996033 0.023071646690368652 0.4849194884300232 -0.6339351534843445 0.023071646690368652 0.46906498074531555 -0.6174082159996033 0.03594815731048584 0.4849194884300232 -0.6339351534843445 0.023071646690368652 0.4785340428352356 -0.6559290289878845 0.023071646690368652 0.4849194884300232 -0.6339351534843445 0.03594815731048584 0.4785340428352356 -0.6559290289878845 0.023071646690368652 0.45629405975341797 -0.6613959670066833 0.023071646690368652 0.4785340428352356 -0.6559290289878845 0.03594815731048584 0.45629405975341797 -0.6613959670066833 0.023071646690368652 0.4404395520687103 -0.6448690295219421 0.023071646690368652 0.45629405975341797 -0.6613959670066833 0.03594815731048584 0.4404395520687103 -0.6448690295219421 0.023071646690368652 0.4468249976634979 -0.6228751540184021 0.023071646690368652 0.4404395520687103 -0.6448690295219421 0.023071646690368652 0.4665180444717407 -0.6261810660362244 0.023071646690368652 0.4849194884300232 -0.6339351534843445 0.023071646690368652 0.4760485887527466 -0.6361157298088074 0.023071646690368652 0.4588410258293152 -0.6526232361793518 0.023071646690368652 0.4404395520687103 -0.6448690295219421 0.023071646690368652 0.4493105113506317 -0.6426884531974792 0.03594815731048584 0.4849194884300232 -0.6339351534843445 0.03594815731048584 0.46906498074531555 -0.6174082159996033 0.03594815731048584 0.4468249976634979 -0.6228751540184021 0.032152771949768066 -0.4557960033416748 0.6513247489929199 0.032152771949768066 -0.45122843980789185 0.6592360138893127 0.032152771949768066 -0.4397774338722229 0.6394021511077881 0.032152771949768066 -0.4741305708885193 0.6195683479309082 0.032152771949768066 -0.46956300735473633 0.6513247489929199 0.032152771949768066 -0.4764465093612671 0.6394021511077881 0.032152771949768066 -0.48558157682418823 0.6394021511077881 0.032152771949768066 -0.44891250133514404 0.6394021511077881 -0.016451358795166016 -0.4557960033416748 0.6513247489929199 -0.016451358795166016 -0.44891250133514404 0.6394021511077881 -0.016451358795166016 -0.4557960033416748 0.627479612827301 -0.016451358795166016 -0.4557960033416748 0.627479612827301 -0.016451358795166016 -0.46956300735473633 0.627479612827301 -0.016451358795166016 -0.4557960033416748 0.6513247489929199 -0.016451358795166016 -0.46956300735473633 0.627479612827301 -0.016451358795166016 -0.4764465093612671 0.6394021511077881 -0.016451358795166016 -0.4557960033416748 0.6513247489929199 0.032152771949768066 -0.44891250133514404 0.6394021511077881 0.032152771949768066 -0.4557960033416748 0.6513247489929199 0.032152771949768066 -0.4764465093612671 0.6394021511077881 0.032152771949768066 -0.46956300735473633 0.6513247489929199 -0.016451358795166016 -0.46956300735473633 0.6513247489929199 0.032152771949768066 -0.46956300735473633 0.627479612827301 0.032152771949768066 -0.4764465093612671 0.6394021511077881 -0.016451358795166016 -0.4764465093612671 0.6394021511077881 0.032152771949768066 -0.46956300735473633 0.627479612827301 0.032152771949768066 -0.4557960033416748 0.627479612827301 0.045029282569885254 -0.45122843980789185 0.6195683479309082 0.045029282569885254 -0.4741305708885193 0.6195683479309082 0.045029282569885254 -0.48558157682418823 0.6394021511077881 0.045029282569885254 -0.48558157682418823 0.6394021511077881 0.045029282569885254 -0.4741305708885193 0.6592360138893127 0.032152771949768066 -0.4741305708885193 0.6592360138893127 0.045029282569885254 -0.45122843980789185 0.6592360138893127 0.045029282569885254 -0.45122843980789185 0.6592360138893127 0.045029282569885254 -0.4397774338722229 0.6394021511077881 0.032152771949768066 -0.4397774338722229 0.6394021511077881 0.032152771949768066 -0.45122843980789185 0.6195683479309082 0.032152771949768066 -0.4741305708885193 0.6592360138893127 0.045029282569885254 -0.45122843980789185 0.6592360138893127 0.045029282569885254 -0.4741305708885193 0.6592360138893127 0.045029282569885254 -0.48558157682418823 0.6394021511077881 0.028766751289367676 0.44227486848831177 0.6498019695281982 0.02878284454345703 0.4614836871623993 0.6622730493545532 0.02879023551940918 0.46196067333221436 0.6531504392623901 0.028748154640197754 0.48308420181274414 0.6290024518966675 0.028798341751098633 0.463875412940979 0.6165313124656677 0.02881908416748047 0.46339839696884155 0.6256539821624756 0.02883315086364746 0.4818883538246155 0.6518732905387878 0.028748154640197754 0.48308420181274414 0.6290024518966675 0.02884852886199951 0.4749453067779541 0.6331506371498108 0.028835535049438477 0.4434707462787628 0.6269310712814331 0.028766751289367676 0.44227486848831177 0.6498019695281982 0.028867602348327637 0.4504137933254242 0.6456537246704102 -0.019954681396484375 0.4511326551437378 0.6319055557250977 -0.01994955539703369 0.4504137933254242 0.6456537246704102 -0.01986861228942871 0.46196067333221436 0.6531504392623901 -0.01986861228942871 0.46196067333221436 0.6531504392623901 -0.019779086112976074 0.4742264151573181 0.6468988656997681 -0.01981973648071289 0.4749453067779541 0.6331506371498108 -0.01981973648071289 0.4749453067779541 0.6331506371498108 -0.019952893257141113 0.46339839696884155 0.6256539821624756 -0.01986861228942871 0.46196067333221436 0.6531504392623901 -0.01986861228942871 0.46196067333221436 0.6531504392623901 -0.01994955539703369 0.4504137933254242 0.6456537246704102 0.028867602348327637 0.4504137933254242 0.6456537246704102 -0.01986861228942871 0.46196067333221436 0.6531504392623901 0.02879023551940918 0.46196067333221436 0.6531504392623901 0.028628945350646973 0.4742264151573181 0.6468988656997681 -0.01981973648071289 0.4749453067779541 0.6331506371498108 -0.019779086112976074 0.4742264151573181 0.6468988656997681 0.028628945350646973 0.4742264151573181 0.6468988656997681 -0.01981973648071289 0.4749453067779541 0.6331506371498108 0.02884852886199951 0.4749453067779541 0.6331506371498108 0.02881908416748047 0.46339839696884155 0.6256539821624756 -0.019952893257141113 0.46339839696884155 0.6256539821624756 0.02881908416748047 0.46339839696884155 0.6256539821624756 0.028661608695983887 0.4511326551437378 0.6319055557250977 -0.01994955539703369 0.4504137933254242 0.6456537246704102 -0.019954681396484375 0.4511326551437378 0.6319055557250977 0.028661608695983887 0.4511326551437378 0.6319055557250977 0.028766751289367676 0.44227486848831177 0.6498019695281982 0.028835535049438477 0.4434707462787628 0.6269310712814331 0.041493773460388184 0.4434707462787628 0.6269310712814331 0.028835535049438477 0.4434707462787628 0.6269310712814331 0.028798341751098633 0.463875412940979 0.6165313124656677 0.041472673416137695 0.463875412940979 0.6165313124656677 0.028748154640197754 0.48308420181274414 0.6290024518966675 0.0416487455368042 0.48308420181274414 0.6290024518966675 0.041472673416137695 0.463875412940979 0.6165313124656677 0.02883315086364746 0.4818883538246155 0.6518732905387878 0.041616082191467285 0.4818883538246155 0.6518732905387878 0.0416487455368042 0.48308420181274414 0.6290024518966675 0.02878284454345703 0.4614836871623993 0.6622730493545532 0.0417783260345459 0.4614836871623993 0.6622730493545532 0.041616082191467285 0.4818883538246155 0.6518732905387878 0.02878284454345703 0.4614836871623993 0.6622730493545532 0.028766751289367676 0.44227486848831177 0.6498019695281982 0.041646718978881836 0.44227486848831177 0.6498019695281982 0.02881908416748047 0.46339839696884155 0.6256539821624756 0.028798341751098633 0.463875412940979 0.6165313124656677 0.028835535049438477 0.4434707462787628 0.6269310712814331 0.02879023551940918 0.46196067333221436 0.6531504392623901 0.02878284454345703 0.4614836871623993 0.6622730493545532 0.02883315086364746 0.4818883538246155 0.6518732905387878 0.041616082191467285 0.4818883538246155 0.6518732905387878 0.0417783260345459 0.4614836871623993 0.6622730493545532 0.041646718978881836 0.44227486848831177 0.6498019695281982 0.041646718978881836 0.44227486848831177 0.6498019695281982 0.041493773460388184 0.4434707462787628 0.6269310712814331 0.041472673416137695 0.463875412940979 0.6165313124656677 0.041472673416137695 0.463875412940979 0.6165313124656677 0.0416487455368042 0.48308420181274414 0.6290024518966675 0.041646718978881836 0.44227486848831177 0.6498019695281982 0.023071646690368652 -0.46336376667022705 -0.6622939705848694 0.023071646690368652 -0.4821622967720032 -0.6273636221885681 0.023071646690368652 -0.48284658789634705 -0.6502553820610046 0.023071646690368652 -0.4821622967720032 -0.6273636221885681 0.023071646690368652 -0.47439107298851013 -0.6321654915809631 0.023071646690368652 -0.44319674372673035 -0.6514406800270081 -0.02553248405456543 -0.45055657625198364 -0.6328778862953186 -0.02553248405456543 -0.450967937707901 -0.6466386914253235 -0.02553248405456543 -0.4630908668041229 -0.6531628966331482 -0.02553248405456543 -0.4630908668041229 -0.6531628966331482 -0.02553248405456543 -0.4748024344444275 -0.645926296710968 -0.02553248405456543 -0.47439107298851013 -0.6321654915809631 -0.02553248405456543 -0.4622681736946106 -0.6256412863731384 0.023071646690368652 -0.450967937707901 -0.6466386914253235 -0.02553248405456543 -0.4630908668041229 -0.6531628966331482 0.023071646690368652 -0.4630908668041229 -0.6531628966331482 0.023071646690368652 -0.4748024344444275 -0.645926296710968 -0.02553248405456543 -0.4748024344444275 -0.645926296710968 0.023071646690368652 -0.4748024344444275 -0.645926296710968 0.023071646690368652 -0.47439107298851013 -0.6321654915809631 -0.02553248405456543 -0.47439107298851013 -0.6321654915809631 0.023071646690368652 -0.47439107298851013 -0.6321654915809631 0.023071646690368652 -0.4622681736946106 -0.6256412863731384 0.023071646690368652 -0.4622681736946106 -0.6256412863731384 -0.02553248405456543 -0.45055657625198364 -0.6328778862953186 0.023071646690368652 -0.45055657625198364 -0.6328778862953186 0.023071646690368652 -0.450967937707901 -0.6466386914253235 0.023071646690368652 -0.4425124526023865 -0.6285489201545715 0.03594815731048584 -0.4425124526023865 -0.6285489201545715 0.03594815731048584 -0.44319674372673035 -0.6514406800270081 0.023071646690368652 -0.46199527382850647 -0.6165102124214172 0.03594815731048584 -0.46199527382850647 -0.6165102124214172 0.03594815731048584 -0.4425124526023865 -0.6285489201545715 0.03594815731048584 -0.4821622967720032 -0.6273636221885681 0.023071646690368652 -0.48284658789634705 -0.6502553820610046 0.03594815731048584 -0.48284658789634705 -0.6502553820610046 0.03594815731048584 -0.4821622967720032 -0.6273636221885681 0.023071646690368652 -0.46336376667022705 -0.6622939705848694 0.03594815731048584 -0.46336376667022705 -0.6622939705848694 0.03594815731048584 -0.48284658789634705 -0.6502553820610046 0.023071646690368652 -0.44319674372673035 -0.6514406800270081 0.03594815731048584 -0.44319674372673035 -0.6514406800270081 0.03594815731048584 -0.46336376667022705 -0.6622939705848694 0.023071646690368652 -0.46199527382850647 -0.6165102124214172 0.023071646690368652 -0.4425124526023865 -0.6285489201545715 0.023071646690368652 -0.45055657625198364 -0.6328778862953186 0.023071646690368652 -0.46336376667022705 -0.6622939705848694 0.023071646690368652 -0.48284658789634705 -0.6502553820610046 0.023071646690368652 -0.4748024344444275 -0.645926296710968 0.03594815731048584 -0.48284658789634705 -0.6502553820610046 0.03594815731048584 -0.46336376667022705 -0.6622939705848694 0.03594815731048584 -0.44319674372673035 -0.6514406800270081 0.03594815731048584 -0.4425124526023865 -0.6285489201545715 0.03594815731048584 -0.46199527382850647 -0.6165102124214172 0.023071646690368652 0.4531489908695221 -0.6294673085212708 0.023071646690368652 0.4493105113506317 -0.6426884531974792 0.023071646690368652 0.4404395520687103 -0.6448690295219421 0.023071646690368652 0.4760485887527466 -0.6361157298088074 0.023071646690368652 0.4849194884300232 -0.6339351534843445 0.023071646690368652 0.4785340428352356 -0.6559290289878845 0.023071646690368652 0.4722100496292114 -0.6493368744850159 0.023071646690368652 0.4785340428352356 -0.6559290289878845 0.023071646690368652 0.45629405975341797 -0.6613959670066833 0.023071646690368652 0.4531489908695221 -0.6294673085212708 0.023071646690368652 0.4468249976634979 -0.6228751540184021 0.023071646690368652 0.46906498074531555 -0.6174082159996033 -0.02553248405456543 0.4493105113506317 -0.6426884531974792 -0.02553248405456543 0.4531489908695221 -0.6294673085212708 -0.02553248405456543 0.4665180444717407 -0.6261810660362244 -0.02553248405456543 0.4665180444717407 -0.6261810660362244 -0.02553248405456543 0.4760485887527466 -0.6361157298088074 -0.02553248405456543 0.4722100496292114 -0.6493368744850159 -0.02553248405456543 0.4722100496292114 -0.6493368744850159 -0.02553248405456543 0.4588410258293152 -0.6526232361793518 -0.02553248405456543 0.4493105113506317 -0.6426884531974792 0.023071646690368652 0.4531489908695221 -0.6294673085212708 0.023071646690368652 0.4588410258293152 -0.6526232361793518 0.023071646690368652 0.4493105113506317 -0.6426884531974792 -0.02553248405456543 0.4493105113506317 -0.6426884531974792 0.023071646690368652 0.4722100496292114 -0.6493368744850159 0.023071646690368652 0.4588410258293152 -0.6526232361793518 -0.02553248405456543 0.4588410258293152 -0.6526232361793518 0.023071646690368652 0.4760485887527466 -0.6361157298088074 0.023071646690368652 0.4722100496292114 -0.6493368744850159 -0.02553248405456543 0.4722100496292114 -0.6493368744850159 0.023071646690368652 0.4665180444717407 -0.6261810660362244 0.023071646690368652 0.4760485887527466 -0.6361157298088074 -0.02553248405456543 0.4760485887527466 -0.6361157298088074 0.023071646690368652 0.4665180444717407 -0.6261810660362244 0.03594815731048584 0.46906498074531555 -0.6174082159996033 0.03594815731048584 0.4849194884300232 -0.6339351534843445 0.03594815731048584 0.4849194884300232 -0.6339351534843445 0.03594815731048584 0.4785340428352356 -0.6559290289878845 0.023071646690368652 0.4785340428352356 -0.6559290289878845 0.03594815731048584 0.45629405975341797 -0.6613959670066833 0.03594815731048584 0.4404395520687103 -0.6448690295219421 0.03594815731048584 0.4404395520687103 -0.6448690295219421 0.03594815731048584 0.4468249976634979 -0.6228751540184021 0.023071646690368652 0.4468249976634979 -0.6228751540184021 0.023071646690368652 0.4665180444717407 -0.6261810660362244 0.023071646690368652 0.46906498074531555 -0.6174082159996033 0.023071646690368652 0.4849194884300232 -0.6339351534843445 0.023071646690368652 0.4588410258293152 -0.6526232361793518 0.023071646690368652 0.45629405975341797 -0.6613959670066833 0.023071646690368652 0.4404395520687103 -0.6448690295219421 0.03594815731048584 0.4404395520687103 -0.6448690295219421 0.03594815731048584 0.45629405975341797 -0.6613959670066833 0.03594815731048584 0.45629405975341797 -0.6613959670066833 0.03594815731048584 0.4785340428352356 -0.6559290289878845 0.03594815731048584 0.4849194884300232 -0.6339351534843445</float_array>
				<technique_common>
				<accessor source="#id-mesh-14-positions-array" count="464" stride="3">
					<param name="X" type="float"/>
					<param name="Y" type="float"/>
					<param name="Z" type="float"/>
				</accessor>
				</technique_common>
			</source>
			<source id="id-mesh-14-normals">
				<float_array id="id-mesh-14-normals-array" count="1392"> -0.9999999403953552 0.0 0.0 -0.9999999403953552 0.0 0.0 -0.9999999403953552 0.0 0.0 -1.0 0.0 0.0 -1.0 0.0 0.0 -1.0 0.0 0.0 -1.0 6.42524867089378e-07 0.0 -1.0 6.42524867089378e-07 0.0 -1.0 6.42524867089378e-07 0.0 -1.0 0.0 0.0 -1.0 0.0 0.0 -1.0 0.0 0.0 -0.9999999403953552 0.0 0.0 -0.9999999403953552 0.0 0.0 -0.9999999403953552 0.0 0.0 0.0 0.8660247325897217 0.5000011920928955 0.0 0.8660247325897217 0.5000011920928955 0.0 0.8660247325897217 0.5000011920928955 0.0 0.0 1.0 0.0 0.0 1.0 0.0 0.0 1.0 0.0 -0.8660247325897217 0.5000011920928955 0.0 -0.8660247325897217 0.5000011920928955 0.0 -0.8660247325897217 0.5000011920928955 0.0 -0.8660260438919067 -0.49999886751174927 0.0 -0.8660260438919067 -0.49999886751174927 0.0 -0.8660260438919067 -0.49999886751174927 0.0 0.0 -1.0 0.0 0.0 -1.0 0.0 0.0 -1.0 0.0 0.8660236597061157 -0.5000030398368835 0.0 0.8660236597061157 -0.5000030398368835 0.0 0.8660236597061157 -0.5000030398368835 0.0 0.8660265207290649 -0.4999981224536896 0.0 0.8660265207290649 -0.4999981224536896 0.0 0.8660265207290649 -0.4999981224536896 0.0 0.0 -1.0 0.0 0.0 -1.0 0.0 0.0 -1.0 0.0 -0.8660265207290649 -0.4999981224536896 0.0 -0.8660265207290649 -0.4999981224536896 0.0 -0.8660265207290649 -0.4999981224536896 0.0 -0.8660272359848022 0.49999693036079407 0.0 -0.8660272359848022 0.49999693036079407 0.0 -0.8660272359848022 0.49999693036079407 0.0 0.0 1.0 0.0 0.0 1.0 0.0 0.0 1.0 0.0 0.8660272359848022 0.49999693036079407 0.0 0.8660272359848022 0.49999693036079407 0.0 0.8660272359848022 0.49999693036079407 -1.0 0.0 0.0 -1.0 0.0 0.0 -1.0 0.0 0.0 -1.0 0.0 0.0 -1.0 0.0 0.0 -1.0 0.0 0.0 1.0 0.0 0.0 1.0 0.0 0.0 1.0 0.0 0.0 -0.9998563528060913 0.0039945924654603004 -0.01647111587226391 -0.9998563528060913 0.0039945924654603004 -0.01647111587226391 -0.9998563528060913 0.0039945924654603004 -0.01647111587226391 -0.9999008178710938 -0.00578696746379137 0.012840836308896542 -0.9999008178710938 -0.00578696746379137 0.012840836308896542 -0.9999008178710938 -0.00578696746379137 0.012840836308896542 -0.9992603659629822 0.03577945753931999 -0.014089193195104599 -0.9992603659629822 0.03577945753931999 -0.014089193195104599 -0.9992603659629822 0.03577945753931999 -0.014089193195104599 -0.9994196891784668 -0.03134476765990257 0.013335706666111946 -0.9994196891784668 -0.03134476765990257 0.013335706666111946 -0.9994196891784668 -0.03134476765990257 0.013335706666111946 -0.9999935030937195 0.0017546782037243247 0.003156904596835375 -0.9999935030937195 0.0017546782037243247 0.003156904596835375 -0.9999935030937195 0.0017546782037243247 0.003156904596835375 0.0 -0.544542133808136 0.8387335538864136 0.0 -0.544542133808136 0.8387335538864136 0.0 -0.544542133808136 0.8387335538864136 0.0 0.4540988504886627 0.8909512162208557 0.0 0.4540988504886627 0.8909512162208557 0.0 0.4540988504886627 0.8909512162208557 0.0 0.9986355900764465 0.05221961811184883 0.0 0.9986355900764465 0.05221961811184883 0.0 0.9986355900764465 0.05221961811184883 0.0 0.5445361137390137 -0.838737428188324 0.0 0.5445361137390137 -0.838737428188324 0.0 0.5445361137390137 -0.838737428188324 0.0 -0.4540959298610687 -0.8909527659416199 0.0 -0.4540959298610687 -0.8909527659416199 0.0 -0.4540959298610687 -0.8909527659416199 0.0 -0.9986355304718018 -0.05222071334719658 0.0 -0.9986355304718018 -0.05222071334719658 0.0 -0.9986355304718018 -0.05222071334719658 0.0 -0.9986357688903809 -0.05221681296825409 0.0 -0.9986357688903809 -0.05221681296825409 0.0 -0.9986357688903809 -0.05221681296825409 0.0 -0.454097718000412 -0.8909518718719482 0.0 -0.454097718000412 -0.8909518718719482 0.0 -0.454097718000412 -0.8909518718719482 0.0 0.5445419549942017 -0.8387336730957031 0.0 0.5445419549942017 -0.8387336730957031 0.0 0.5445419549942017 -0.8387336730957031 0.0 0.9986357688903809 0.052216414362192154 0.0 0.9986357688903809 0.052216414362192154 0.0 0.9986357688903809 0.052216414362192154 0.0 0.4540962278842926 0.8909525871276855 0.0 0.4540962278842926 0.8909525871276855 0.0 0.4540962278842926 0.8909525871276855 0.0 -0.544538140296936 0.8387360572814941 0.0 -0.544538140296936 0.8387360572814941 0.0 -0.544538140296936 0.8387360572814941 -0.99952632188797 -0.0027894722297787666 -0.030650541186332703 -0.99952632188797 -0.0027894722297787666 -0.030650541186332703 -0.99952632188797 -0.0027894722297787666 -0.030650541186332703 -0.9994012713432312 0.004352003801614046 0.03432343900203705 -0.9994012713432312 0.004352003801614046 0.03432343900203705 -0.9994012713432312 0.004352003801614046 0.03432343900203705 0.9999986290931702 0.000696894945576787 0.001464593457058072 0.9999986290931702 0.000696894945576787 0.001464593457058072 0.9999986290931702 0.000696894945576787 0.001464593457058072 -1.0 0.0 0.0 -1.0 0.0 0.0 -1.0 0.0 0.0 -1.0 0.0 0.0 -1.0 0.0 0.0 -1.0 0.0 0.0 -1.0 0.0 0.0 -1.0 0.0 0.0 -1.0 0.0 0.0 -1.0 0.0 0.0 -1.0 0.0 0.0 -1.0 0.0 0.0 -1.0 -3.546280424870929e-07 0.0 -1.0 -3.546280424870929e-07 0.0 -1.0 -3.546280424870929e-07 0.0 0.0 0.4739006459712982 -0.880578339099884 0.0 0.4739006459712982 -0.880578339099884 0.0 0.4739006459712982 -0.880578339099884 0.0 -0.5256489515304565 -0.8507015705108643 0.0 -0.5256489515304565 -0.8507015705108643 0.0 -0.5256489515304565 -0.8507015705108643 0.0 -0.9995535016059875 0.029880011454224586 0.0 -0.9995535016059875 0.029880011454224586 0.0 -0.9995535016059875 0.029880011454224586 0.0 -0.47390294075012207 0.880577027797699 0.0 -0.47390294075012207 0.880577027797699 0.0 -0.47390294075012207 0.880577027797699 0.0 0.5256489515304565 0.8507015705108643 0.0 0.5256489515304565 0.8507015705108643 0.0 0.5256489515304565 0.8507015705108643 0.0 0.9995536208152771 -0.029874447733163834 0.0 0.9995536208152771 -0.029874447733163834 0.0 0.9995536208152771 -0.029874447733163834 0.0 0.9995534420013428 -0.02988213673233986 0.0 0.9995534420013428 -0.02988213673233986 0.0 0.9995534420013428 -0.02988213673233986 0.0 0.5256564021110535 0.8506969213485718 0.0 0.5256564021110535 0.8506969213485718 0.0 0.5256564021110535 0.8506969213485718 0.0 -0.4739052355289459 0.8805758953094482 0.0 -0.4739052355289459 0.8805758953094482 0.0 -0.4739052355289459 0.8805758953094482 0.0 -0.9995535016059875 0.029878981411457062 0.0 -0.9995535016059875 0.029878981411457062 0.0 -0.9995535016059875 0.029878981411457062 0.0 -0.525654137134552 -0.8506984114646912 0.0 -0.525654137134552 -0.8506984114646912 0.0 -0.525654137134552 -0.8506984114646912 0.0 0.47390255331993103 -0.8805773258209229 0.0 0.47390255331993103 -0.8805773258209229 0.0 0.47390255331993103 -0.8805773258209229 -1.0 0.0 0.0 -1.0 0.0 0.0 -1.0 0.0 0.0 -1.0 0.0 0.0 -1.0 0.0 0.0 -1.0 0.0 0.0 0.9999999403953552 0.0 0.0 0.9999999403953552 0.0 0.0 0.9999999403953552 0.0 0.0 -1.0 0.0 0.0 -1.0 0.0 0.0 -1.0 0.0 0.0 -1.0 -2.672173593509797e-07 0.0 -1.0 -2.672173593509797e-07 0.0 -1.0 -2.672173593509797e-07 0.0 -1.0 0.0 0.0 -1.0 0.0 0.0 -1.0 0.0 0.0 -1.0 0.0 0.0 -1.0 0.0 0.0 -1.0 0.0 0.0 -1.0 1.1820867484857445e-07 0.0 -1.0 1.1820867484857445e-07 0.0 -1.0 1.1820867484857445e-07 0.0 0.0 -0.9603445529937744 0.2788161635398865 0.0 -0.9603445529937744 0.2788161635398865 0.0 -0.9603445529937744 0.2788161635398865 0.0 -0.7216349244117737 -0.6922737956047058 0.0 -0.7216349244117737 -0.6922737956047058 0.0 -0.7216349244117737 -0.6922737956047058 0.0 0.23871207237243652 -0.9710904359817505 0.0 0.23871207237243652 -0.9710904359817505 0.0 0.23871207237243652 -0.9710904359817505 0.0 0.9603445529937744 -0.2788161635398865 0.0 0.9603445529937744 -0.2788161635398865 0.0 0.9603445529937744 -0.2788161635398865 0.0 0.7216307520866394 0.6922781467437744 0.0 0.7216307520866394 0.6922781467437744 0.0 0.7216307520866394 0.6922781467437744 0.0 -0.2387039065361023 0.9710924029350281 0.0 -0.2387039065361023 0.9710924029350281 0.0 -0.2387039065361023 0.9710924029350281 0.0 -0.23870955407619476 0.9710910320281982 0.0 -0.23870955407619476 0.9710910320281982 0.0 -0.23870955407619476 0.9710910320281982 0.0 0.7216352224349976 0.6922734975814819 0.0 0.7216352224349976 0.6922734975814819 0.0 0.7216352224349976 0.6922734975814819 0.0 0.9603452086448669 -0.2788139283657074 0.0 0.9603452086448669 -0.2788139283657074 0.0 0.9603452086448669 -0.2788139283657074 0.0 0.23870955407619476 -0.9710910320281982 0.0 0.23870955407619476 -0.9710910320281982 0.0 0.23870955407619476 -0.9710910320281982 0.0 -0.7216352224349976 -0.6922734975814819 0.0 -0.7216352224349976 -0.6922734975814819 0.0 -0.7216352224349976 -0.6922734975814819 0.0 -0.9603452086448669 0.2788139283657074 0.0 -0.9603452086448669 0.2788139283657074 0.0 -0.9603452086448669 0.2788139283657074 -1.0 1.336121044914762e-07 0.0 -1.0 1.336121044914762e-07 0.0 -1.0 1.336121044914762e-07 0.0 -1.0 -1.336121044914762e-07 0.0 -1.0 -1.336121044914762e-07 0.0 -1.0 -1.336121044914762e-07 0.0 1.0 0.0 0.0 1.0 0.0 0.0 1.0 0.0 0.0 -1.0 -6.42524867089378e-07 0.0 -1.0 -6.42524867089378e-07 0.0 -1.0 -6.42524867089378e-07 0.0 -1.0 0.0 0.0 -0.9999999403953552 0.0 0.0 -0.9999999403953552 0.0 0.0 -0.9999999403953552 0.0 0.0 -1.0 0.0 0.0 -1.0 -1.773120033021769e-07 0.0 -1.0 -1.773120033021769e-07 0.0 -1.0 -1.773120033021769e-07 0.0 -1.0 0.0 0.0 -1.0 0.0 0.0 -1.0 0.0 0.0 -1.0 8.865650613643083e-08 0.0 -1.0 8.865650613643083e-08 0.0 -1.0 8.865650613643083e-08 0.0 0.0 0.8660247325897217 0.5000011920928955 0.0 0.0 1.0 0.0 -0.8660271167755127 0.49999698996543884 0.0 -0.8660271167755127 0.49999698996543884 0.0 -0.8660271167755127 0.49999698996543884 0.0 -0.8660236597061157 -0.5000030398368835 0.0 -0.8660236597061157 -0.5000030398368835 0.0 -0.8660236597061157 -0.5000030398368835 0.0 0.0 -1.0 0.0 0.8660236597061157 -0.5000030398368835 0.0 0.8660265207290649 -0.4999981224536896 0.0 0.0 -1.0 0.0 -0.8660265207290649 -0.4999981224536896 0.0 -0.8660270571708679 0.499997079372406 0.0 -0.8660270571708679 0.499997079372406 0.0 -0.8660270571708679 0.499997079372406 0.0 0.0 1.0 0.0 0.8660270571708679 0.499997079372406 0.0 0.8660270571708679 0.499997079372406 0.0 0.8660270571708679 0.499997079372406 -1.0 0.0 0.0 -1.0 0.0 0.0 1.0 0.0 0.0 1.0 0.0 0.0 1.0 0.0 0.0 -0.9999988675117493 0.0013191134203225374 -0.0007412157137878239 -0.9999988675117493 0.0013191134203225374 -0.0007412157137878239 -0.9999988675117493 0.0013191134203225374 -0.0007412157137878239 -0.9999900460243225 -0.003954668063670397 0.0020669244695454836 -0.9999900460243225 -0.003954668063670397 0.0020669244695454836 -0.9999900460243225 -0.003954668063670397 0.0020669244695454836 -0.9999375343322754 -0.01072374265640974 0.003155435435473919 -0.9999375343322754 -0.01072374265640974 0.003155435435473919 -0.9999375343322754 -0.01072374265640974 0.003155435435473919 -0.9999348521232605 0.011154606938362122 -0.002424020553007722 -0.9999348521232605 0.011154606938362122 -0.002424020553007722 -0.9999348521232605 0.011154606938362122 -0.002424020553007722 -0.9999783039093018 0.0065453676506876945 0.0007150878664106131 -0.9999783039093018 0.0065453676506876945 0.0007150878664106131 -0.9999783039093018 0.0065453676506876945 0.0007150878664106131 -0.9999531507492065 0.009046472609043121 0.0034297057427465916 -0.9999531507492065 0.009046472609043121 0.0034297057427465916 -0.9999531507492065 0.009046472609043121 0.0034297057427465916 -0.9999510645866394 0.00922824814915657 0.003547471249476075 -0.9999510645866394 0.00922824814915657 0.003547471249476075 -0.9999510645866394 0.00922824814915657 0.003547471249476075 0.0 -0.544539213180542 0.8387352824211121 0.0 -0.544539213180542 0.8387352824211121 0.0 -0.544539213180542 0.8387352824211121 0.0 0.4540981352329254 0.8909516334533691 0.0 0.4540981352329254 0.8909516334533691 0.0 0.4540981352329254 0.8909516334533691 0.0 0.9986355304718018 0.05222071707248688 0.0 0.9986355304718018 0.05222071707248688 0.0 0.9986355304718018 0.05222071707248688 0.0 0.5445366501808167 -0.8387370705604553 0.0 0.5445366501808167 -0.8387370705604553 0.0 0.5445366501808167 -0.8387370705604553 0.0 -0.45409974455833435 -0.8909508585929871 0.0 -0.45409974455833435 -0.8909508585929871 0.0 -0.45409974455833435 -0.8909508585929871 0.0 -0.9986361265182495 -0.052208784967660904 0.0 -0.9986361265182495 -0.052208784967660904 0.0 -0.9986361265182495 -0.052208784967660904 0.0 -0.9986357688903809 -0.05221690237522125 0.0 -0.9986357688903809 -0.05221690237522125 0.0 -0.9986357688903809 -0.05221690237522125 0.0 -0.45409566164016724 -0.890953004360199 0.0 -0.45409566164016724 -0.890953004360199 0.0 -0.45409566164016724 -0.890953004360199 0.0 0.544540524482727 -0.83873450756073 0.0 0.544540524482727 -0.83873450756073 0.0 0.544540524482727 -0.83873450756073 0.0 0.9986358880996704 0.052215028554201126 0.0 0.9986358880996704 0.052215028554201126 0.0 0.9986358880996704 0.052215028554201126 0.0 0.45409727096557617 0.8909520506858826 0.0 0.45409727096557617 0.8909520506858826 0.0 0.45409727096557617 0.8909520506858826 0.0 -0.5445390343666077 0.8387354612350464 0.0 -0.5445390343666077 0.8387354612350464 0.0 -0.5445390343666077 0.8387354612350464 -0.9999972581863403 -0.0006823560106568038 0.0022380570881068707 -0.9999972581863403 -0.0006823560106568038 0.0022380570881068707 -0.9999972581863403 -0.0006823560106568038 0.0022380570881068707 -0.9999974966049194 0.0021087939385324717 -0.0006999394972808659 -0.9999974966049194 0.0021087939385324717 -0.0006999394972808659 -0.9999974966049194 0.0021087939385324717 -0.0006999394972808659 0.9999173283576965 0.0014410075964406133 -0.012772029265761375 0.9999173283576965 0.0014410075964406133 -0.012772029265761375 0.9999173283576965 0.0014410075964406133 -0.012772029265761375 0.9999737739562988 -0.0024395242799073458 -0.006814651191234589 0.9999737739562988 -0.0024395242799073458 -0.006814651191234589 0.9999737739562988 -0.0024395242799073458 -0.006814651191234589 0.9999608993530273 -0.004058807156980038 -0.007866154424846172 0.9999608993530273 -0.004058807156980038 -0.007866154424846172 0.9999608993530273 -0.004058807156980038 -0.007866154424846172 -1.0 0.0 0.0 -1.0 0.0 0.0 -1.0 1.6063286523149145e-07 0.0 -1.0 1.6063286523149145e-07 0.0 -1.0 1.6063286523149145e-07 0.0 -1.0 0.0 0.0 -1.0 1.7731402124354645e-07 0.0 -1.0 1.7731402124354645e-07 0.0 -1.0 1.7731402124354645e-07 0.0 -1.0 0.0 0.0 -1.0 0.0 0.0 -1.0 0.0 0.0 -1.0 0.0 0.0 0.0 0.4739006459712982 -0.880578339099884 0.0 -0.5256514549255371 -0.8507000207901001 0.0 -0.5256514549255371 -0.8507000207901001 0.0 -0.5256514549255371 -0.8507000207901001 0.0 -0.9995535016059875 0.029880007728934288 0.0 -0.9995535016059875 0.029880007728934288 0.0 -0.9995535016059875 0.029880007728934288 0.0 -0.4739006459712982 0.880578339099884 0.0 -0.4739006459712982 0.880578339099884 0.0 -0.4739006459712982 0.880578339099884 0.0 0.5256489515304565 0.8507015705108643 0.0 0.9995533227920532 -0.02988557144999504 0.0 0.9995533227920532 -0.02988557144999504 0.0 0.9995533227920532 -0.02988557144999504 0.0 0.9995536208152771 -0.02987583726644516 0.0 0.9995536208152771 -0.02987583726644516 0.0 0.9995536208152771 -0.02987583726644516 0.0 0.5256578326225281 0.8506961464881897 0.0 0.5256578326225281 0.8506961464881897 0.0 0.5256578326225281 0.8506961464881897 0.0 -0.4739052355289459 0.8805758953094482 0.0 -0.9995535612106323 0.029878992587327957 0.0 -0.9995535612106323 0.029878992587327957 0.0 -0.9995535612106323 0.029878992587327957 0.0 -0.5256527066230774 -0.8506993055343628 0.0 -0.5256527066230774 -0.8506993055343628 0.0 -0.5256527066230774 -0.8506993055343628 0.0 0.4738999009132385 -0.8805786967277527 0.0 0.4738999009132385 -0.8805786967277527 0.0 0.4738999009132385 -0.8805786967277527 -1.0 8.031684473053247e-08 0.0 -1.0 8.031684473053247e-08 0.0 -1.0 8.031684473053247e-08 0.0 -1.0 8.031643261574573e-08 0.0 -1.0 8.031643261574573e-08 0.0 -1.0 8.031643261574573e-08 0.0 1.0 0.0 0.0 1.0 0.0 0.0 1.0 0.0 0.0 1.0 0.0 0.0 1.0 0.0 0.0 -1.0 -1.3360867967548984e-07 0.0 -1.0 -1.3360867967548984e-07 0.0 -1.0 -1.3360867967548984e-07 0.0 -1.0 6.425347578442597e-07 0.0 -1.0 6.425347578442597e-07 0.0 -1.0 6.425347578442597e-07 0.0 -1.0 -1.6063368946106493e-07 0.0 -1.0 -1.6063368946106493e-07 0.0 -1.0 -1.6063368946106493e-07 0.0 -1.0 1.6063204100191797e-07 0.0 -1.0 1.6063204100191797e-07 0.0 -1.0 1.6063204100191797e-07 0.0 -0.9999999403953552 0.0 0.0 -0.9999999403953552 0.0 0.0 -0.9999999403953552 0.0 0.0 -1.0 -3.546230118445237e-07 0.0 -1.0 -3.546230118445237e-07 0.0 -1.0 -3.546230118445237e-07 0.0 -1.0 3.546199991433241e-07 0.0 -1.0 3.546199991433241e-07 0.0 -1.0 3.546199991433241e-07 0.0 0.0 -0.9603445529937744 0.2788161635398865 0.0 -0.7216377258300781 -0.6922709345817566 0.0 -0.7216377258300781 -0.6922709345817566 0.0 -0.7216377258300781 -0.6922709345817566 0.0 0.2387133687734604 -0.9710900783538818 0.0 0.2387133687734604 -0.9710900783538818 0.0 0.2387133687734604 -0.9710900783538818 0.0 0.960343062877655 -0.27882128953933716 0.0 0.960343062877655 -0.27882128953933716 0.0 0.960343062877655 -0.27882128953933716 0.0 0.7216335535049438 0.6922752261161804 0.0 0.7216335535049438 0.6922752261161804 0.0 0.7216335535049438 0.6922752261161804 0.0 -0.2387039065361023 0.9710924029350281 0.0 -0.23870955407619476 0.9710910320281982 0.0 0.7216352224349976 0.6922734975814819 0.0 0.9603442549705505 -0.278816819190979 0.0 0.9603442549705505 -0.278816819190979 0.0 0.9603442549705505 -0.278816819190979 0.0 0.23870955407619476 -0.9710910320281982 0.0 -0.7216352224349976 -0.6922734975814819 0.0 -0.9603442549705505 0.278816819190979 0.0 -0.9603442549705505 0.278816819190979 0.0 -0.9603442549705505 0.278816819190979 -1.0 0.0 0.0 -1.0 0.0 0.0 -1.0 0.0 0.0 -1.0 0.0 0.0 -1.0 0.0 0.0 -1.0 0.0 0.0 1.0 0.0 0.0 1.0 0.0 0.0 1.0 -2.562893541835365e-07 0.0 1.0 -2.562893541835365e-07 0.0 1.0 -2.562893541835365e-07 0.0</float_array>
				<technique_common>
				<accessor source="#id-mesh-14-normals-array" count="464" stride="3">
					<param name="X" type="float"/>
					<param name="Y" type="float"/>
					<param name="Z" type="float"/>
				</accessor>
				</technique_common>
			</source>
			<source id="id-mesh-14-texcoord-0">
				<float_array id="id-mesh-14-texcoord-0-array" count="928"> 1.0 0.0 0.0 1.0 0.0 0.0 1.0 0.0 0.0 1.0 0.0 0.0 0.0 0.0 1.0 1.0 0.0 1.0 0.0 0.0 1.0 1.0 0.0 1.0 0.4999999701976776 0.0 0.06698727607727051 0.2500000596046448 0.06698727607727051 0.7499999403953552 1.0 0.0 0.0 1.0 0.0 0.0 1.0 0.0 0.0 1.0 0.0 0.0 1.0 0.0 0.0 1.0 0.0 0.0 1.0 0.0 0.0 1.0 0.0 0.0 1.0 0.0 0.0 1.0 0.0 0.0 1.0 0.0 0.0 1.0 0.0 0.0 1.0 0.0 0.0 1.0 0.0 0.0 1.0 0.0 0.0 1.0 0.0 0.0 1.0 0.0 0.0 1.0 0.0 0.0 1.0 0.0 0.0 1.0 0.0 0.0 1.0 0.0 0.0 1.0 0.0 0.0 1.0 0.0 0.0 1.0 0.0 0.0 1.0 0.0 0.0 1.0 0.0 0.0 1.0 0.0 0.0 1.0 0.0 0.0 0.4999999701976776 0.0 0.06698727607727051 0.2500000596046448 0.06698727607727051 0.7499999403953552 0.0 1.0 1.0 0.0 0.0 0.0 0.0 1.0 1.0 0.0 0.0 0.0 0.0 1.0 1.0 0.0 0.0 0.0 0.0 1.0 1.0 0.0 0.0 0.0 0.9330127239227295 0.2499999701976776 0.9330127239227295 0.75 0.06698727607727051 0.7499999403953552 0.0 0.0 1.0 1.0 1.0 0.0 0.0 1.0 1.0 0.0 0.0 0.0 0.0 0.0 1.0 1.0 1.0 0.0 0.0 1.0 1.0 0.0 0.0 0.0 0.0 1.0 1.0 0.0 0.0 0.0 0.0 0.0 1.0 1.0 1.0 0.0 0.0 0.0 1.0 1.0 1.0 0.0 0.0 0.0 1.0 1.0 1.0 0.0 0.0 1.0 1.0 0.0 0.0 0.0 0.0 1.0 1.0 0.0 0.0 0.0 0.0 1.0 1.0 0.0 0.0 0.0 0.0 0.0 1.0 1.0 1.0 0.0 0.0 0.0 1.0 1.0 1.0 0.0 0.0 0.0 1.0 1.0 1.0 0.0 0.9330127239227295 0.2499999701976776 0.9330127239227295 0.75 0.06698727607727051 0.7499999403953552 0.0 1.0 1.0 0.0 0.0 0.0 0.0 0.0 1.0 1.0 1.0 0.0 0.0 1.0 1.0 0.0 0.0 0.0 0.0 1.0 1.0 0.0 0.0 0.0 0.9330127239227295 0.2499999701976776 0.9330127239227295 0.75 0.06698727607727051 0.7499999403953552 0.0 1.0 1.0 0.0 0.0 0.0 0.0 1.0 1.0 0.0 0.0 0.0 0.0 1.0 1.0 0.0 0.0 0.0 0.0 1.0 1.0 0.0 0.0 0.0 0.0 1.0 1.0 0.0 0.0 0.0 0.0 1.0 1.0 0.0 0.0 0.0 0.0 1.0 1.0 0.0 0.0 0.0 0.0 1.0 1.0 0.0 0.0 0.0 0.0 1.0 1.0 0.0 0.0 0.0 0.0 1.0 1.0 0.0 0.0 0.0 0.0 1.0 1.0 0.0 0.0 0.0 0.0 1.0 1.0 0.0 0.0 0.0 0.0 1.0 1.0 0.0 0.0 0.0 0.0 1.0 1.0 0.0 0.0 0.0 0.4999999701976776 0.0 0.9330127239227295 0.2499999701976776 0.9330127239227295 0.75 0.0 0.0 1.0 1.0 0.0 1.0 1.0 0.0 0.0 1.0 0.0 0.0 1.0 0.0 0.0 1.0 0.0 0.0 1.0 0.0 0.0 1.0 0.0 0.0 0.9330127239227295 0.75 0.4999999701976776 0.0 0.06698727607727051 0.7499999403953552 1.0 0.0 0.0 1.0 0.0 0.0 1.0 0.0 0.0 1.0 0.0 0.0 1.0 0.0 0.0 1.0 0.0 0.0 1.0 0.0 0.0 1.0 0.0 0.0 1.0 0.0 0.0 1.0 0.0 0.0 1.0 0.0 0.0 1.0 0.0 0.0 1.0 0.0 0.0 1.0 0.0 0.0 1.0 0.0 0.0 1.0 0.0 0.0 1.0 0.0 0.0 1.0 0.0 0.0 1.0 0.0 0.0 1.0 0.0 0.0 1.0 0.0 0.0 1.0 0.0 0.0 1.0 0.0 0.0 1.0 0.0 0.0 1.0 0.0 0.0 1.0 0.0 0.0 1.0 0.0 0.0 1.0 0.0 0.0 0.4999999701976776 0.0 0.06698727607727051 0.2500000596046448 0.06698727607727051 0.7499999403953552 1.0 0.0 1.0 1.0 0.0 1.0 1.0 1.0 0.0 0.0 1.0 0.0 1.0 1.0 1.0 0.0 0.06698727607727051 0.7499999403953552 0.5 1.0 0.9330127239227295 0.75 0.9330127239227295 0.75 0.9330127239227295 0.2499999701976776 0.06698727607727051 0.7499999403953552 0.9330127239227295 0.2499999701976776 0.4999999701976776 0.0 0.06698727607727051 0.7499999403953552 1.0 1.0 1.0 1.0 1.0 0.0 1.0 1.0 0.0 1.0 1.0 0.0 1.0 1.0 0.0 1.0 1.0 1.0 1.0 1.0 1.0 1.0 1.0 1.0 1.0 1.0 1.0 0.0 1.0 1.0 0.0 1.0 1.0 1.0 1.0 0.0 1.0 1.0 0.0 1.0 1.0 1.0 1.0 1.0 0.5 1.0 0.9330127239227295 0.75 0.9330127239227295 0.2499999701976776 0.0 1.0 1.0 1.0 1.0 0.0 0.0 1.0 1.0 1.0 1.0 0.0 0.0 1.0 1.0 1.0 1.0 0.0 0.0 1.0 1.0 1.0 1.0 0.0 0.9330127239227295 0.75 0.5 1.0 0.06698727607727051 0.7499999403953552 0.06698727607727051 0.7499999403953552 0.06698727607727051 0.2500000596046448 0.4999999701976776 0.0 0.4999999701976776 0.0 0.9330127239227295 0.2499999701976776 0.06698727607727051 0.7499999403953552 0.0 0.0 0.0 1.0 1.0 1.0 0.0 1.0 1.0 1.0 1.0 0.0 0.0 0.0 0.0 1.0 1.0 1.0 0.0 1.0 1.0 1.0 1.0 0.0 0.0 1.0 1.0 1.0 1.0 0.0 0.0 0.0 0.0 1.0 1.0 1.0 0.0 0.0 0.0 1.0 1.0 1.0 0.0 0.0 0.0 1.0 1.0 1.0 0.0 1.0 1.0 1.0 1.0 0.0 0.0 1.0 1.0 1.0 1.0 0.0 0.0 1.0 1.0 1.0 1.0 0.0 0.0 0.0 0.0 1.0 1.0 1.0 0.0 0.0 0.0 1.0 1.0 1.0 0.0 0.0 0.0 1.0 1.0 1.0 0.9330127239227295 0.75 0.5 1.0 0.06698727607727051 0.7499999403953552 0.06698727607727051 0.7499999403953552 0.06698727607727051 0.2500000596046448 0.4999999701976776 0.0 0.4999999701976776 0.0 0.9330127239227295 0.2499999701976776 0.06698727607727051 0.7499999403953552 1.0 1.0 0.0 1.0 0.0 1.0 1.0 1.0 1.0 0.0 1.0 1.0 0.9330127239227295 0.75 0.5 1.0 0.06698727607727051 0.7499999403953552 0.06698727607727051 0.7499999403953552 0.06698727607727051 0.2500000596046448 0.4999999701976776 0.0 0.9330127239227295 0.2499999701976776 1.0 1.0 0.0 1.0 1.0 1.0 1.0 0.0 0.0 1.0 1.0 1.0 1.0 0.0 0.0 1.0 1.0 1.0 1.0 0.0 1.0 1.0 0.0 1.0 1.0 1.0 1.0 0.0 0.0 1.0 1.0 1.0 1.0 0.0 0.0 1.0 1.0 1.0 1.0 0.0 1.0 1.0 0.0 1.0 1.0 1.0 1.0 0.0 0.0 1.0 1.0 1.0 1.0 0.0 0.0 1.0 1.0 1.0 1.0 0.0 0.0 1.0 1.0 1.0 1.0 0.0 0.0 1.0 1.0 1.0 1.0 0.0 0.9330127239227295 0.75 0.5 1.0 0.06698727607727051 0.7499999403953552 0.06698727607727051 0.2500000596046448 0.4999999701976776 0.0 0.0 0.0 1.0 0.0 1.0 1.0 1.0 0.0 1.0 1.0 0.0 1.0 1.0 0.0 1.0 1.0 0.0 1.0 1.0 0.0 1.0 1.0 0.0 1.0 0.06698727607727051 0.7499999403953552 0.5 1.0 0.9330127239227295 0.75 0.9330127239227295 0.75 0.9330127239227295 0.2499999701976776 0.4999999701976776 0.0 0.4999999701976776 0.0 0.06698727607727051 0.2500000596046448 0.06698727607727051 0.7499999403953552 1.0 1.0 1.0 0.0 1.0 1.0 0.0 1.0 1.0 0.0 1.0 1.0 0.0 1.0 1.0 0.0 1.0 1.0 0.0 1.0 1.0 0.0 1.0 1.0 0.0 1.0 1.0 1.0 1.0 1.0 1.0 1.0 1.0 0.0 1.0 1.0 0.0 1.0 1.0 1.0 1.0 1.0 1.0 0.0 1.0 1.0 0.0 1.0 1.0 0.0 1.0 1.0 0.0 1.0 1.0 0.0 1.0 1.0 0.0 1.0 0.5 1.0 0.9330127239227295 0.75 0.9330127239227295 0.75 0.9330127239227295 0.2499999701976776 0.4999999701976776 0.0</float_array>
				<technique_common>
				<accessor source="#id-mesh-14-texcoord-0-array" count="464" stride="2">
					<param name="S" type="float"/>
					<param name="T" type="float"/>
				</accessor>
				</technique_common>
			</source>
			<vertices id="id-mesh-14-vertices">
				<input semantic="POSITION" source="#id-mesh-14-positions"/>
			</vertices>
			<triangles count="176" material="id-trimat-15">
				<input semantic="VERTEX" source="#id-mesh-14-vertices" offset="0"/>
				<input semantic="NORMAL" source="#id-mesh-14-normals" offset="0"/>
				<input semantic="TEXCOORD" source="#id-mesh-14-texcoord-0" offset="0" set="0"/>
				<p> 0 1 2 3 4 5 6 7 8 9 10 11 12 13 14 15 16 17 18 19 20 21 22 23 24 25 26 27 28 29 30 31 32 33 34 35 36 37 38 39 40 41 42 43 44 45 46 47 48 49 50 51 52 53 54 55 56 57 58 59 60 61 62 63 64 65 66 67 68 69 70 71 72 73 74 75 76 77 78 79 80 81 82 83 84 85 86 87 88 89 90 91 92 93 94 95 96 97 98 99 100 101 102 103 104 105 106 107 108 109 110 111 112 113 114 115 116 117 118 119 120 121 122 123 124 125 126 127 128 129 130 131 132 133 134 135 136 137 138 139 140 141 142 143 144 145 146 147 148 149 150 151 152 153 154 155 156 157 158 159 160 161 162 163 164 165 166 167 168 169 170 171 172 173 174 175 176 177 178 179 180 181 182 183 184 185 186 187 188 189 190 191 192 193 194 195 196 197 198 199 200 201 202 203 204 205 206 207 208 209 210 211 212 213 214 215 216 217 218 219 220 221 222 223 224 225 226 227 228 229 230 231 232 233 234 235 236 237 238 239 240 241 242 3 243 4 244 245 246 9 247 10 248 249 250 251 252 253 254 255 256 15 257 16 18 258 19 259 260 261 262 263 264 27 265 28 30 266 31 33 267 34 36 268 37 39 269 40 270 271 272 45 273 46 274 275 276 51 277 52 54 278 55 59 279 280 280 281 59 281 57 59 282 283 284 285 286 287 288 289 290 291 292 293 294 295 296 297 298 299 300 301 302 303 304 305 306 307 308 309 310 311 312 313 314 315 316 317 318 319 320 321 322 323 324 325 326 327 328 329 330 331 332 333 334 335 336 337 338 339 340 341 342 343 344 345 346 347 348 349 350 351 352 353 120 354 121 123 355 124 356 357 358 129 359 130 360 361 362 363 364 365 365 366 363 135 367 136 368 369 370 371 372 373 374 375 376 147 377 148 378 379 380 381 382 383 384 385 386 159 387 160 388 389 390 391 392 393 394 395 396 397 398 399 400 401 402 403 404 405 405 406 403 406 407 403 408 409 410 411 412 413 414 415 416 417 418 419 420 421 422 423 424 425 426 427 428 195 429 196 430 431 432 433 434 435 436 437 438 439 440 441 210 442 211 213 443 214 216 444 217 445 446 447 222 448 223 225 449 226 450 451 452 453 454 455 456 457 458 239 459 237 459 460 237 461 462 463 </p>
			</triangles>
		</mesh>
	</geometry>
</library_geometries>
<library_visual_scenes>
	<visual_scene id="id-scene-1" name="scene">
		<node id="Empty" name="Empty" type="NODE">
			<matrix sid="transform"> 1.0 0.0 0.0 0.0 0.0 1.0 0.0 0.0 0.0 0.0 1.0 0.0 0.0 0.0 0.0 1.0  </matrix>
				<extra>
					<technique profile="GODOT">
						<empty_draw_type>PLAIN_AXES</empty_draw_type>
					</technique>
				</extra>
			<node id="Cube" name="Cube" type="NODE">
				<matrix sid="transform"> 1.0 0.0 0.0 0.0 0.0 1.0 0.0 0.0 0.0 0.0 1.0 0.0 0.0 0.0 0.0 1.0  </matrix>
				<instance_geometry url="#id-mesh-7">
					<bind_material>
						<technique_common>
							<instance_material symbol="id-trimat-8" target="#id-material-6"/>
						</technique_common>
					</bind_material>
				</instance_geometry>
			</node>
			<node id="Cylinder" name="Cylinder" type="NODE">
				<matrix sid="transform"> 1.0 0.0 0.0 0.0 0.0 1.0 0.0 0.0 0.0 0.0 1.0 0.0 0.0 0.0 0.0 1.0  </matrix>
				<instance_geometry url="#id-mesh-14">
					<bind_material>
						<technique_common>
							<instance_material symbol="id-trimat-15" target="#id-material-13"/>
						</technique_common>
					</bind_material>
				</instance_geometry>
			</node>
		</node>
	</visual_scene>
</library_visual_scenes>
<scene>
	<instance_visual_scene url="#id-scene-1" />
</scene>
</COLLADA>
