<?xml version="1.0" encoding="utf-8"?>
<COLLADA xmlns="http://www.collada.org/2005/11/COLLADASchema" version="1.4.1">
  <asset>
    <contributor>
      <author>user</author>
      <authoring_tool>Maya8.5 Service Pack 1 | ColladaMaya v3.05B</authoring_tool>
      <comments>ColladaMaya export options: bakeTransforms=0;exportPolygonMeshes=1;bakeLighting=0;isSampling=0;
curveConstrainSampling=0;removeStaticCurves=1;exportCameraAsLookat=0;
exportLights=1;exportCameras=1;exportJointsAndSkin=0;
exportAnimations=0;exportTriangles=1;exportInvisibleNodes=0;
exportNormals=1;exportTexCoords=1;
exportVertexColors=1;exportVertexColorsAnimation=0;exportTangents=0;
exportTexTangents=0;exportConstraints=1;exportPhysics=1;exportXRefs=1;
dereferenceXRefs=1;cameraXFov=0;cameraYFov=1</comments>
      <source_data>file:///C:/Users/user/Documents/maya/projects/default/untitled</source_data>
    </contributor>
    <created>2012-02-20T08:32:29Z</created>
    <modified>2012-02-20T08:32:29Z</modified>
    <unit meter="0.01" name="centimeter"/>
    <up_axis>Y_UP</up_axis>
  </asset>
  <library_physics_scenes>
    <physics_scene id="MayaNativePhysicsScene">
      <technique_common>
        <gravity>0 -980 0</gravity>
        <time_step>0.083</time_step>
      </technique_common>
    </physics_scene>
  </library_physics_scenes>
  <library_images>
    <image id="trashcan_plastic_1" name="trashcan_plastic_1">
      <init_from>file:///E:/kitchen_trashcan_plastic/tijiao/trashcan_plastic.dds</init_from>
      <extra>
        <technique profile="MAYA">
          <dgnode_type>kFile</dgnode_type>
          <image_sequence>0</image_sequence>
        </technique>
      </extra>
    </image>
    <image id="trashcan_plastic_nrm_1" name="trashcan_plastic_nrm_1">
      <init_from>file:///E:/kitchen_trashcan_plastic/tijiao/trashcan_plastic_nrm.dds</init_from>
      <extra>
        <technique profile="MAYA">
          <dgnode_type>kFile</dgnode_type>
          <image_sequence>0</image_sequence>
        </technique>
      </extra>
    </image>
    <image id="trashcan_plastic_spec_1" name="trashcan_plastic_spec_1">
      <init_from>file:///E:/kitchen_trashcan_plastic/tijiao/trashcan_plastic_spec.dds</init_from>
      <extra>
        <technique profile="MAYA">
          <dgnode_type>kFile</dgnode_type>
          <image_sequence>0</image_sequence>
        </technique>
      </extra>
    </image>
  </library_images>
  <library_materials>
    <material id="blinn1" name="blinn1">
      <instance_effect url="#blinn1-fx"/>
    </material>
  </library_materials>
  <library_effects>
    <effect id="blinn1-fx">
      <profile_COMMON>
        <newparam sid="trashcan_plastic_1-surface">
          <surface type="2D">
            <init_from>trashcan_plastic_1</init_from>
            <format>A8R8G8B8</format>
          </surface>
        </newparam>
        <newparam sid="trashcan_plastic_1-sampler">
          <sampler2D>
            <source>trashcan_plastic_1-surface</source>
            <wrap_s>WRAP</wrap_s>
            <wrap_t>WRAP</wrap_t>
            <minfilter>NONE</minfilter>
            <magfilter>NONE</magfilter>
            <mipfilter>NONE</mipfilter>
          </sampler2D>
        </newparam>
        <newparam sid="trashcan_plastic_nrm_1-surface">
          <surface type="2D">
            <init_from>trashcan_plastic_nrm_1</init_from>
            <format>A8R8G8B8</format>
          </surface>
        </newparam>
        <newparam sid="trashcan_plastic_nrm_1-sampler">
          <sampler2D>
            <source>trashcan_plastic_nrm_1-surface</source>
            <wrap_s>WRAP</wrap_s>
            <wrap_t>WRAP</wrap_t>
            <minfilter>NONE</minfilter>
            <magfilter>NONE</magfilter>
            <mipfilter>NONE</mipfilter>
          </sampler2D>
        </newparam>
        <newparam sid="trashcan_plastic_spec_1-surface">
          <surface type="2D">
            <init_from>trashcan_plastic_spec_1</init_from>
            <format>A8R8G8B8</format>
          </surface>
        </newparam>
        <newparam sid="trashcan_plastic_spec_1-sampler">
          <sampler2D>
            <source>trashcan_plastic_spec_1-surface</source>
            <wrap_s>WRAP</wrap_s>
            <wrap_t>WRAP</wrap_t>
            <minfilter>NONE</minfilter>
            <magfilter>NONE</magfilter>
            <mipfilter>NONE</mipfilter>
          </sampler2D>
        </newparam>
        <technique sid="common">
          <blinn>
            <emission>
              <color>0 0 0 1</color>
            </emission>
            <ambient>
              <color>0 0 0 1</color>
            </ambient>
            <diffuse>
              <texture texture="trashcan_plastic_1-sampler" texcoord="TEX0">
                <extra>
                  <technique profile="MAYA">
                    <wrapU>1</wrapU>
                    <wrapV>1</wrapV>
                    <mirrorU>0</mirrorU>
                    <mirrorV>0</mirrorV>
                    <coverageU>1</coverageU>
                    <coverageV>1</coverageV>
                    <translateFrameU>0</translateFrameU>
                    <translateFrameV>0</translateFrameV>
                    <rotateFrame>0</rotateFrame>
                    <stagger>0</stagger>
                    <fast>0</fast>
                    <repeatU>1</repeatU>
                    <repeatV>1</repeatV>
                    <offsetU>0</offsetU>
                    <offsetV>0</offsetV>
                    <rotateUV>0</rotateUV>
                    <noiseU>0</noiseU>
                    <noiseV>0</noiseV>
                    <blend_mode>NONE</blend_mode>
                  </technique>
                </extra>
              </texture>
            </diffuse>
            <specular>
              <texture texture="trashcan_plastic_spec_1-sampler" texcoord="TEX2">
                <extra>
                  <technique profile="MAYA">
                    <wrapU>1</wrapU>
                    <wrapV>1</wrapV>
                    <mirrorU>0</mirrorU>
                    <mirrorV>0</mirrorV>
                    <coverageU>1</coverageU>
                    <coverageV>1</coverageV>
                    <translateFrameU>0</translateFrameU>
                    <translateFrameV>0</translateFrameV>
                    <rotateFrame>0</rotateFrame>
                    <stagger>0</stagger>
                    <fast>0</fast>
                    <repeatU>1</repeatU>
                    <repeatV>1</repeatV>
                    <offsetU>0</offsetU>
                    <offsetV>0</offsetV>
                    <rotateUV>0</rotateUV>
                    <noiseU>0</noiseU>
                    <noiseV>0</noiseV>
                    <blend_mode>NONE</blend_mode>
                  </technique>
                </extra>
              </texture>
            </specular>
            <shininess>
              <float>0.3</float>
            </shininess>
            <reflective>
              <color>0 0 0 1</color>
            </reflective>
            <reflectivity>
              <float>0.5</float>
            </reflectivity>
            <transparent opaque="RGB_ZERO">
              <color>0 0 0 1</color>
            </transparent>
            <transparency>
              <float>1</float>
            </transparency>
          </blinn>
          <extra>
            <technique profile="FCOLLADA">
              <bump>
                <texture texture="trashcan_plastic_nrm_1-sampler" texcoord="TEX1">
                  <extra>
                    <technique profile="MAYA">
                      <wrapU>1</wrapU>
                      <wrapV>1</wrapV>
                      <mirrorU>0</mirrorU>
                      <mirrorV>0</mirrorV>
                      <coverageU>1</coverageU>
                      <coverageV>1</coverageV>
                      <translateFrameU>0</translateFrameU>
                      <translateFrameV>0</translateFrameV>
                      <rotateFrame>0</rotateFrame>
                      <stagger>0</stagger>
                      <fast>0</fast>
                      <repeatU>1</repeatU>
                      <repeatV>1</repeatV>
                      <offsetU>0</offsetU>
                      <offsetV>0</offsetV>
                      <rotateUV>0</rotateUV>
                      <noiseU>0</noiseU>
                      <noiseV>0</noiseV>
                      <blend_mode>NONE</blend_mode>
                    </technique>
                    <technique profile="MAX3D">
                      <amount>1</amount>
                      <bumpInterp>1</bumpInterp>
                    </technique>
                  </extra>
                </texture>
              </bump>
            </technique>
          </extra>
        </technique>
      </profile_COMMON>
    </effect>
  </library_effects>
  <library_geometries>
    <geometry id="trashcan_plasticShape" name="trashcan_plasticShape">
      <mesh>
        <source id="trashcan_plasticShape-positions" name="position">
          <float_array id="trashcan_plasticShape-positions-array" count="642">4.58788 0.005218 3.77927 5.99324 20 5.55942 5.99324 20 -5.39422 4.58788 0.005218 -4.33219 5.16617 5.71789 4.99171 5.04607 4.25671 4.13869 6.26742 19.1157 5.82162 6.26742 19.1157 -5.65446 6.66042 19.1532 6.21116 6.71671 19.838 6.25358 6.66042 19.1523 -6.04415 6.71671 19.8371 -6.08809 4.69515 0.715618 3.86717 4.69515 0.715618 -4.42151 3.76668 0.795419 3.64229 3.76656 0.795501 -3.47676 5.44152 18.8973 -4.88372 5.4417 18.8972 5.04924 -4.58788 0.005218 3.77927 -5.99324 20 5.55942 -5.99324 20 -5.39422 -4.58788 0.005218 -4.33219 -5.16617 5.71789 4.99171 -5.04607 4.25671 4.13869 -6.26742 19.1157 5.82162 -6.26742 19.1157 -5.65446 -6.66042 19.1532 6.21116 -6.71671 19.838 6.25358 -6.66042 19.1523 -6.04415 -6.71671 19.8371 -6.08809 -4.69515 0.715618 3.86717 -4.69515 0.715618 -4.42151 -3.76668 0.795419 3.64229 -3.76656 0.795501 -3.47676 -5.44152 18.8973 -4.88372 -5.4417 18.8972 5.04924 4.59284 0.670941 3.77871 -4.59284 0.670941 3.77871 -4.59284 0.670941 -4.33266 4.59284 0.670941 -4.33266 5.17351 18.1791 4.93616 3.83091 17.9448 4.94003 3.51877 16.7325 4.39196 1.84654 16.9515 4.5057 2.33399 18.163 4.92453 0.99444 18.2097 4.86682 -0.181429 17.0932 4.49803 -1.59537 17.1216 4.5582 -0.908017 18.0184 4.80506 -2.5895 18.0612 4.8576 -3.26071 17.0451 4.77711 -4.42261 17.1695 4.53484 -4.79603 18.1845 4.93316 -5.14056 17.9346 3.11205 -5.05378 16.8364 3.19832 -4.59052 16.9649 1.54756 -5.2716 18.0781 1.82397 -5.20913 18.388 -0.335988 -5.24424 18.2034 -1.55104 -5.03494 16.1214 -2.04368 -4.80997 16.7349 -2.67287 -5.26701 17.884 -3.08643 4.77552 16.6437 4.24533 5.28884 18.2386 4.0778 5.26507 18.043 2.64783 5.23283 18.0412 0.905131 5.17561 18.0694 -0.717547 5.1665 18.218 -2.31098 5.27336 18.1673 -3.72556 5.28485 18.2382 -4.70433 3.88155 17.9253 -4.75016 1.7869 18.2496 -4.63351 0.61081 18.3233 -4.62092 -0.997151 18.0605 -4.70061 -2.35481 18.1448 -4.73001 -3.87819 18.2316 -4.72363 -5.05875 18.1986 -4.72354 -4.86782 17.0264 -4.31415 -4.45678 15.5714 -3.7665 -2.79675 16.2668 -4.09149 -1.61011 17.5938 -4.30502 -0.459036 17.4256 -3.82968 0.702067 17.3344 -3.47076 2.67888 17.0818 -3.6921 3.84345 16.9846 -4.21817 5.07993 16.7944 -4.40251 4.92487 16.2219 -3.24355 4.65208 16.3942 -1.49295 4.87193 16.228 0.079993 4.71608 16.3791 1.55926 4.77162 16.3226 3.12592 -3.01932 18.2686 -4.75372 3.71898 15.9961 -2.75393 3.48959 15.6622 -1.19852 3.31346 16.3956 0.121581 3.23088 16.9794 2.02845 3.49724 16.7819 3.389 2.51215 17.0761 1.93555 2.69598 17.4061 3.4918 0.502632 16.9768 3.37813 0.623831 17.4838 1.99878 -1.29577 16.8118 3.64302 -0.875274 17.7954 2.22942 -3.20894 17.9362 1.86413 -3.25132 17.7995 3.32283 -4.17268 17.3697 3.31067 -4.18879 17.4416 2.01495 2.22765 16.5596 0.33713 2.63506 16.5983 -1.17998 2.65655 16.3061 -2.06477 0.721952 17.0181 0.293345 -1.99488 17.7027 0.732749 -0.469923 17.2152 0.222191 -2.53693 17.6924 1.06869 2.57951 16.6351 -0.510429 2.49164 17.3239 -0.757589 2.14843 17.8567 -0.395349 2.01828 17.8237 0.006638 2.0841 17.1543 0.391215 2.32419 16.5857 0.052372 2.00145 17.4866 0.33864 2.34746 17.6511 -0.677957 0.093047 17.007 -1.74282 0.235077 16.6805 -1.83188 0.296455 16.3106 -1.75625 2.53693 16.7999 -0.466469 2.24654 16.8334 0.230056 -0.116998 17.2992 -1.39702 -0.316031 17.2939 -0.973105 -0.382217 17.0173 -0.550457 -0.351312 16.7619 -0.405013 2.70748 16.5801 -3.04092 1.48343 17.4123 -1.91482 2.7153 16.1572 -2.61368 1.04324 17.4627 -2.45988 1.301 17.5163 -2.1965 0.733256 17.1829 -2.62832 1.50492 17.3333 -3.31852 1.24884 18.3568 -4.60643 -2.99396 19.2923 -2.71241 0.45381 16.2592 -2.74666 0.055552 14.9142 -3.66527 -3.85713 18.2061 -3.70552 -5.06614 18.651 -3.05349 -4.14253 19.6725 -2.07399 -3.58591 18.5763 -1.39582 -4.16932 19.6478 -2.01734 -4.35665 19.8223 -2.05147 -5.24834 18.7839 -3.03639 -4.53403 17.537 -2.38306 -5.07287 18.6239 -3.00095 -0.737998 14.2825 -2.66862 0.050524 14.7783 -3.67678 -1.7359 17.3465 -1.77957 -3.0905 17.4137 0.179133 -3.07873 15.7856 0.571816 -3.09515 15.8106 -1.05544 -3.07547 18.9864 -0.21839 -3.09476 18.6141 -1.69962 -3.09691 18.0949 -1.39168 -3.14005 18.4761 -1.69535 -3.09028 18.618 -0.100491 -0.527583 18.618 -1.72537 -0.495317 17.1673 -1.38133 -0.52185 15.3328 -0.961673 -0.502683 18.9664 -0.216755 -0.500777 18.2608 -0.016978 -2.90408 18.0273 1.08128 -3.16594 18.1007 1.27411 -3.51711 18.1047 1.25447 -3.30674 17.3301 1.75117 -3.72198 18.0416 1.09098 -3.73335 17.5504 1.35935 -3.48331 17.5902 1.55581 -3.03426 17.6058 1.48604 -2.77104 17.1635 1.22078 -3.81825 17.8926 0.834136 -3.80938 17.3595 1.1149 -3.6992 17.1985 0.854732 -3.68479 17.7403 0.557825 -4.49233 16.8448 0.952723 -5.15502 18.2393 0.675038 -3.35288 17.1738 0.666663 -3.26592 16.9971 0.816737 -3.37908 17.6646 0.417671 -3.06996 17.6846 0.455317 -2.94798 16.9882 0.917466 -2.64384 16.5239 1.03889 -2.89573 17.7756 0.616311 -2.82125 17.9075 0.860332 -3.06671 17.3541 0.639663 -3.19226 15.7728 0.619473 -4.13985 16.8325 -1.74187 -4.52728 17.0551 0.049462 -1.89254 14.2821 -3.51362 -0.746246 15.5059 -3.71281 -1.29366 14.6797 -3.61151 -0.259304 14.3494 -2.91069 -4.54183 14.8832 -2.43711 -4.93069 17.1646 -2.97325 -5.29705 18.0561 -3.65937 -4.98985 17.145 -2.82354 -2.61508 15.2721 -2.44301 -3.56831 14.6734 -2.35415 -4.21608 15.3757 -2.131 -2.69002 15.3647 -1.12206 -1.60114 14.911 -2.04281 -1.53193 14.9079 -1.0699 1.56317 17.1403 -1.62406 2.16955 16.8411 -0.834334 0.822349 16.8186 -2.30119 -0.510619 16.451 -1.22204 -5.02532 16.6007 3.8798 -5.22347 18.1684 4.53321</float_array>
          <technique_common>
            <accessor source="#trashcan_plasticShape-positions-array" count="214" stride="3">
              <param name="X" type="float"/>
              <param name="Y" type="float"/>
              <param name="Z" type="float"/>
            </accessor>
          </technique_common>
        </source>
        <source id="trashcan_plasticShape-normals" name="normal">
          <float_array id="trashcan_plasticShape-normals-array" count="2631">0.707085 -0.005769 -0.707105 0.515902 -0.669854 -0.533986 0.516039 -0.669164 0.534718 0.707089 -0.004675 0.707109 0.413703 -0.810826 -0.414019 0.486902 0.722222 -0.491245 0.486669 0.722887 0.490497 0.413837 -0.810163 0.415181 0.643765 -0.686542 -0.337974 0.413703 -0.810826 -0.414019 0.413837 -0.810163 0.415181 0.413838 -0.810163 0.415179 0.486902 0.722222 -0.491245 -0.226977 0.946791 0.228184 -0.226946 0.946682 -0.228669 0.486669 0.722887 0.490497 -0.657044 0.360533 0.662049 -0.657056 0.36045 -0.662083 -0.226946 0.946682 -0.228669 -0.226977 0.946791 0.228184 -0.701592 0.119519 0.702484 -0.701605 0.119521 -0.702471 -0.657056 0.36045 -0.662083 -0.657044 0.360533 0.662049 0.828914 -0.224536 0.512333 0.705747 -0.26776 0.655916 0.794649 -0.501207 -0.342526 0.794649 -0.501207 -0.342526 0.705747 -0.26776 0.655916 0.493936 -0.702361 0.512558 0.828914 -0.224536 0.512333 0.643765 -0.686542 -0.337974 0.413838 -0.810163 0.415179 -0.999972 -0.007448 0 -0.707089 -0.004675 0.707109 -0.516039 -0.669164 0.534718 -0.834673 -0.550746 0 -0.71131 -0.702879 0.00003 -0.413837 -0.810163 0.415181 -0.486669 0.722887 0.490497 -0.805691 0.592336 -0.000022 -0.873511 -0.486802 -0.001848 -0.413838 -0.810163 0.415179 -0.413837 -0.810163 0.415181 -0.71131 -0.702879 0.00003 -0.805691 0.592336 -0.000022 -0.486669 0.722887 0.490497 0.226946 0.946682 -0.228669 0.428693 0.90345 -0.000019 -0.828914 -0.224536 0.512333 -0.413838 -0.810163 0.415179 -0.873511 -0.486802 -0.001848 0.961592 0.274482 0.000015 0.428693 0.90345 -0.000019 0.226946 0.946682 -0.228669 0.657056 0.36045 -0.662083 0.995746 0.092138 0.000019 0.961592 0.274482 0.000015 0.657056 0.36045 -0.662083 0.701605 0.119521 -0.702471 -0.828914 -0.224536 0.512333 -0.944629 -0.328119 -0.003804 -0.705747 -0.26776 0.655916 -0.944629 -0.328119 -0.003804 -0.493936 -0.702362 0.512557 -0.705747 -0.26776 0.655916 -0.657044 0.360533 0.662049 0 0.252802 0.967518 0 0.077491 0.996993 -0.701592 0.119519 0.702484 -0.226977 0.946791 0.228184 0 0.899008 0.437932 0 0.252802 0.967518 -0.657044 0.360533 0.662049 0.486902 0.722222 -0.491245 0 0.59563 -0.803259 0 0.899008 0.437932 -0.226977 0.946791 0.228184 0.413703 -0.810826 -0.414019 0 -0.696625 -0.717435 0 0.59563 -0.803259 0.486902 0.722222 -0.491245 0.643765 -0.686542 -0.337974 0 -0.69764 -0.716448 0 -0.696625 -0.717435 0.413703 -0.810826 -0.414019 0.794649 -0.501207 -0.342526 0 -0.552942 -0.83322 0 -0.69764 -0.716448 0.643765 -0.686542 -0.337974 0.707085 -0.005769 -0.707105 0 -0.000711 -1 0 -0.525065 -0.851062 0.515902 -0.669854 -0.533986 0 -1 0 0 -1 0 0 -1 0 0 -1 0 0.516039 -0.669164 0.534718 -0.516039 -0.669164 0.534718 -0.707089 -0.004675 0.707109 0.707089 -0.004675 0.707109 0.705747 -0.26776 0.655916 -0.705747 -0.26776 0.655916 -0.493936 -0.702362 0.512557 0.493936 -0.702361 0.512558 0.828914 -0.224536 0.512333 -0.828914 -0.224536 0.512333 -0.705747 -0.26776 0.655916 0.705747 -0.26776 0.655916 0.413838 -0.810163 0.415179 -0.413838 -0.810163 0.415179 -0.828914 -0.224536 0.512333 0.828914 -0.224536 0.512333 0.413837 -0.810163 0.415181 -0.413837 -0.810163 0.415181 -0.413838 -0.810163 0.415179 0.413838 -0.810163 0.415179 -0.226946 0.946682 -0.228669 0.226946 0.946682 -0.228669 -0.486669 0.722887 0.490497 0.486669 0.722887 0.490497 -0.657056 0.36045 -0.662083 0.657056 0.36045 -0.662083 0.226946 0.946682 -0.228669 -0.226946 0.946682 -0.228669 0.486669 0.722887 0.490497 -0.486669 0.722887 0.490497 -0.413837 -0.810163 0.415181 0.413837 -0.810163 0.415181 -0.657056 0.36045 -0.662083 -0.701605 0.119521 -0.702471 0.701605 0.119521 -0.702471 0.657056 0.36045 -0.662083 0.493936 -0.702361 0.512558 -0.493936 -0.702362 0.512557 -0.516039 -0.669164 0.534718 0.516039 -0.669164 0.534718 -0.834673 -0.550746 0 -0.516039 -0.669164 0.534718 -0.493936 -0.702362 0.512557 -0.944629 -0.328119 -0.003804 0.515902 -0.669854 -0.533986 0 -0.525065 -0.851062 0 -0.552942 -0.83322 0.794649 -0.501207 -0.342526 0.516039 -0.669164 0.534718 0.515902 -0.669854 -0.533986 0.794649 -0.501207 -0.342526 0.493936 -0.702361 0.512558 0.828914 -0.224536 0.512333 0.794649 -0.501207 -0.342526 0.643765 -0.686542 -0.337974 -0.828914 -0.224536 0.512333 -0.873511 -0.486802 -0.001848 -0.944629 -0.328119 -0.003804 -0.388473 0.626456 0.675753 -0.719785 0.685056 0.112285 -0.982757 0.16662 -0.08016 -0.678224 0.342218 0.650307 -0.491378 0.868954 -0.058882 -0.47932 0.87688 -0.03651 -0.957343 0.288835 -0.008273 -0.967141 0.254197 -0.00463 -0.629596 0.769935 -0.103968 -0.491378 0.868954 -0.058882 -0.967141 0.254197 -0.00463 -0.971585 0.235044 0.027875 -0.736539 0.673058 -0.06711 -0.629596 0.769935 -0.103968 -0.971585 0.235044 0.027875 -0.975535 0.219156 -0.017383 -0.719785 0.685056 0.112285 -0.736539 0.673058 -0.06711 -0.975535 0.219156 -0.017383 -0.982757 0.16662 -0.08016 0.015145 0.853337 -0.521139 -0.008358 0.222478 -0.974902 -0.047837 0.264566 -0.96318 0.045147 0.765503 -0.641847 0.148835 0.844834 -0.513911 -0.027373 0.395939 -0.917869 -0.637513 0.447825 -0.626921 -0.614544 0.676948 -0.405064 0.107998 0.866172 -0.487937 0.028309 0.331213 -0.943131 -0.027373 0.395939 -0.917869 0.148835 0.844834 -0.513911 0.335929 0.940989 0.041127 0.176311 0.978431 0.107646 0.107998 0.866172 -0.487937 0.148835 0.844834 -0.513911 -0.614544 0.676948 -0.405064 -0.47932 0.87688 -0.03651 0.335929 0.940989 0.041127 0.148835 0.844834 -0.513911 -0.614544 0.676948 -0.405064 -0.637513 0.447825 -0.626921 -0.95444 0.288296 -0.077007 -0.614544 0.676948 -0.405064 -0.95444 0.288296 -0.077007 -0.957343 0.288835 -0.008273 -0.47932 0.87688 -0.03651 -0.47932 0.87688 -0.03651 -0.491378 0.868954 -0.058882 0.284094 0.948066 -0.143041 0.335929 0.940989 0.041127 0.197554 0.966518 -0.163753 0.176311 0.978431 0.107646 0.335929 0.940989 0.041127 0.284094 0.948066 -0.143041 -0.629596 0.769935 -0.103968 -0.736539 0.673058 -0.06711 0.169262 0.980851 -0.096342 0.191519 0.976139 -0.102343 0.191519 0.976139 -0.102343 0.284094 0.948066 -0.143041 -0.491378 0.868954 -0.058882 -0.629596 0.769935 -0.103968 0.564822 0.744856 0.355198 0.191519 0.976139 -0.102343 0.692169 0.644644 0.324557 0.692169 0.644644 0.324557 0.191519 0.976139 -0.102343 0.656738 0.752126 0.054782 0.204623 0.686031 0.698206 -0.388473 0.626456 0.675753 -0.678224 0.342218 0.650307 0.134016 0.482127 0.865791 0.158308 0.96596 0.204595 0.169262 0.980851 -0.096342 -0.736539 0.673058 -0.06711 -0.719785 0.685056 0.112285 -0.719785 0.685056 0.112285 -0.388473 0.626456 0.675753 0.204623 0.686031 0.698206 0.158308 0.96596 0.204595 -0.731098 -0.530575 -0.428937 0.317518 0.797287 0.513338 0.430972 0.892841 -0.130764 -0.348147 -0.026244 -0.937073 -0.058513 0.341872 0.937923 0.430972 0.892841 -0.130764 0.317518 0.797287 0.513338 -0.058513 0.341872 0.937923 0.317518 0.797287 0.513338 -0.731098 -0.530575 -0.428937 -0.801907 -0.574821 0.162868 -0.731098 -0.530575 -0.428937 -0.348147 -0.026244 -0.937073 -0.801907 -0.574821 0.162868 0.540866 0.822138 0.177633 0.430972 0.892841 -0.130764 -0.058513 0.341872 0.937923 0.128348 0.392325 0.910828 0.540866 0.822138 0.177633 -0.237959 -0.063485 -0.969198 -0.348147 -0.026244 -0.937073 0.430972 0.892841 -0.130764 0.540866 0.822138 0.177633 0.128348 0.392325 0.910828 -0.024538 0.999642 0.010658 0.569491 0.437853 -0.695675 -0.552876 0.489141 -0.674588 -0.535641 0.746406 0.394925 0.569183 0.717075 0.402285 -0.180058 0.956488 0.229585 -0.57204 0.482845 0.663046 -0.530637 0.847311 -0.022086 0.2981 0.934597 0.194073 -0.460457 0.418075 -0.783066 -0.875125 0.399361 -0.273251 -0.725129 0.656139 0.208973 -0.180058 0.956488 0.229585 0.466332 0.875268 0.128218 0.2981 0.934597 0.194073 -0.530637 0.847311 -0.022086 0.332454 0.55337 0.763712 0.332454 0.55337 0.763712 -0.530637 0.847311 -0.022086 0.1668 0.942648 -0.289123 0.1668 0.942648 -0.289123 -0.530637 0.847311 -0.022086 -0.556959 0.819337 -0.135953 0.1668 0.942648 -0.289123 0.466332 0.875268 0.128218 0.332454 0.55337 0.763712 0.501209 0.765031 -0.404373 0.466332 0.875268 0.128218 0.1668 0.942648 -0.289123 -0.199147 0.61984 -0.759038 0.466332 0.875268 0.128218 0.501209 0.765031 -0.404373 0.483999 0.631947 -0.6053 -0.024319 0.086076 -0.995992 -0.460457 0.418075 -0.783066 -0.180058 0.956488 0.229585 0.2981 0.934597 0.194073 0.2981 0.934597 0.194073 0.466332 0.875268 0.128218 -0.199147 0.61984 -0.759038 -0.024319 0.086076 -0.995992 -0.024319 0.086076 -0.995992 -0.199147 0.61984 -0.759038 -0.620179 -0.481126 -0.619593 -0.620179 -0.481126 -0.619593 -0.467436 -0.523296 -0.712507 0.491943 0.220668 -0.842198 -0.024319 0.086076 -0.995992 -0.038282 0.297905 0.953828 -0.172811 0.357376 0.917834 -0.103668 0.534415 0.83884 -0.045806 0.337071 0.940364 0.128348 0.392325 0.910828 -0.058513 0.341872 0.937923 -0.801907 -0.574821 0.162868 -0.682852 -0.687666 0.246635 -0.801907 -0.574821 0.162868 -0.348147 -0.026244 -0.937073 -0.237959 -0.063485 -0.969198 -0.682852 -0.687666 0.246635 -0.682852 -0.687666 0.246635 -0.237959 -0.063485 -0.969198 -0.821614 -0.507917 -0.258789 -0.928644 0.357246 -0.099975 0.287896 0.643867 0.708908 -0.038282 0.297905 0.953828 -0.045806 0.337071 0.940364 0.008332 0.331651 0.943365 0.954347 0.293464 0.055684 0.789796 0.373364 0.486643 0.59378 0.423006 0.684464 0.915655 0.378437 0.135504 0.962725 0.268328 0.034059 0.954347 0.293464 0.055684 0.915655 0.378437 0.135504 0.922359 0.384695 0.035554 0.008332 0.331651 0.943365 0.59378 0.423006 0.684464 0.789796 0.373364 0.486643 0.287896 0.643867 0.708908 0.863767 0.483618 -0.141495 0.287896 0.643867 0.708908 0.789796 0.373364 0.486643 0.954347 0.293464 0.055684 0.970626 0.237929 -0.035719 0.962725 0.268328 0.034059 0.922359 0.384695 0.035554 0.863767 0.483618 -0.141495 0.954347 0.293464 0.055684 0.962725 0.268328 0.034059 0.950488 0.309319 -0.029906 -0.111013 0.724364 0.680422 -0.103668 0.534415 0.83884 -0.172811 0.357376 0.917834 -0.193608 0.350837 0.916204 -0.193608 0.350837 0.916204 -0.172811 0.357376 0.917834 -0.266452 0.30112 0.915604 -0.381263 0.683211 0.622785 0.034937 0.941779 0.334412 0.104015 0.77212 0.626907 -0.120164 0.754955 0.644673 -0.120164 0.754955 0.644673 -0.111013 0.724364 0.680422 -0.193608 0.350837 0.916204 -0.381263 0.683211 0.622785 -0.381263 0.683211 0.622785 -0.193608 0.350837 0.916204 -0.708965 0.684152 0.171185 -0.821614 -0.507917 -0.258789 -0.237959 -0.063485 -0.969198 -0.266452 0.30112 0.915604 -0.708965 0.684152 0.171185 -0.266452 0.30112 0.915604 -0.237959 -0.063485 -0.969198 -0.708965 0.684152 0.171185 -0.193608 0.350837 0.916204 -0.266452 0.30112 0.915604 0.034937 0.941779 0.334412 -0.381263 0.683211 0.622785 -0.73585 0.607427 0.29926 0.480931 0.861226 0.1643 0.452076 0.878778 -0.152893 0.158308 0.96596 0.204595 0.656738 0.752126 0.054782 0.191519 0.976139 -0.102343 0.169262 0.980851 -0.096342 0.547781 0.828641 -0.115281 0.903024 0.136608 0.407292 0.692169 0.644644 0.324557 0.656738 0.752126 0.054782 0.963482 0.26621 -0.028876 0.564822 0.744856 0.355198 0.197554 0.966518 -0.163753 0.284094 0.948066 -0.143041 0.191519 0.976139 -0.102343 0.692169 0.644644 0.324557 0.903024 0.136608 0.407292 0.564822 0.744856 0.355198 0.564822 0.744856 0.355198 0.903024 0.136608 0.407292 0.524357 0.450913 0.722307 0.118775 0.988639 -0.092113 0.310578 0.947111 0.080755 0.590256 0.800786 0.101679 0.547781 0.828641 -0.115281 0.169262 0.980851 -0.096342 0.158308 0.96596 0.204595 0.452076 0.878778 -0.152893 -0.708965 0.684152 0.171185 -0.73585 0.607427 0.29926 -0.381263 0.683211 0.622785 -0.73585 0.607427 0.29926 -0.496426 0.859164 0.124089 -0.768296 0.52302 0.369013 0.767493 0.56877 -0.295729 0.540866 0.822138 0.177633 -0.024538 0.999642 0.010658 -0.708965 0.684152 0.171185 -0.237959 -0.063485 -0.969198 0.540866 0.822138 0.177633 -0.496426 0.859164 0.124089 -0.496426 0.859164 0.124089 0.540866 0.822138 0.177633 0.767493 0.56877 -0.295729 -0.496426 0.859164 0.124089 -0.73585 0.607427 0.29926 -0.708965 0.684152 0.171185 -0.496426 0.859164 0.124089 0.767493 0.56877 -0.295729 -0.451753 0.209904 -0.867098 -0.451753 0.209904 -0.867098 0.767493 0.56877 -0.295729 -0.159011 -0.145069 -0.976561 -0.079983 0.872096 -0.482754 0.015145 0.853337 -0.521139 -0.229181 0.955507 0.185696 -0.417625 0.906259 0.065452 0.528857 0.766652 -0.364081 -0.079983 0.872096 -0.482754 -0.417625 0.906259 0.065452 0.331099 0.937479 0.107272 -0.008358 0.222478 -0.974902 0.015145 0.853337 -0.521139 -0.079983 0.872096 -0.482754 0.305514 0.331926 -0.892461 0.305514 0.331926 -0.892461 -0.079983 0.872096 -0.482754 0.528857 0.766652 -0.364081 0.863864 0.295415 -0.408006 0.863864 0.295415 -0.408006 0.528857 0.766652 -0.364081 0.331099 0.937479 0.107272 0.974475 0.209294 0.08121 0.524357 0.450913 0.722307 0.359852 0.553823 0.750857 0.483275 0.637737 0.59978 0.310578 0.947111 0.080755 0.359852 0.553823 0.750857 0.129806 0.913707 0.385083 -0.479238 0.863211 0.158735 0.483275 0.637737 0.59978 -0.295725 0.822356 -0.486083 -0.479238 0.863211 0.158735 0.129806 0.913707 0.385083 0.323822 0.937 -0.131034 0.740356 0.616094 -0.268888 0.323822 0.937 -0.131034 0.129806 0.913707 0.385083 0.359852 0.553823 0.750857 -0.21807 0.318514 -0.922494 -0.295725 0.822356 -0.486083 0.323822 0.937 -0.131034 0.740356 0.616094 -0.268888 -0.451753 0.209904 -0.867098 -0.159011 -0.145069 -0.976561 -0.21807 0.318514 -0.922494 -0.095876 -0.052259 -0.99402 0.524357 0.450913 0.722307 0.903024 0.136608 0.407292 0.963482 0.26621 -0.028876 0.873427 0.126235 -0.470309 0.873427 0.126235 -0.470309 0.963482 0.26621 -0.028876 0.562105 0.695357 -0.44779 0.740356 0.616094 -0.268888 0.359852 0.553823 0.750857 0.524357 0.450913 0.722307 0.873427 0.126235 -0.470309 -0.095876 -0.052259 -0.99402 -0.21807 0.318514 -0.922494 0.740356 0.616094 -0.268888 0.873427 0.126235 -0.470309 0.873427 0.126235 -0.470309 0.562105 0.695357 -0.44779 -0.70344 0.495248 -0.509806 -0.095876 -0.052259 -0.99402 -0.768296 0.52302 0.369013 -0.496426 0.859164 0.124089 -0.70344 0.495248 -0.509806 -0.70344 0.495248 -0.509806 -0.496426 0.859164 0.124089 -0.451753 0.209904 -0.867098 0.562105 0.695357 -0.44779 0.242126 0.941262 0.235376 -0.768296 0.52302 0.369013 -0.70344 0.495248 -0.509806 -0.451753 0.209904 -0.867098 -0.095876 -0.052259 -0.99402 -0.70344 0.495248 -0.509806 0.242126 0.941262 0.235376 0.003631 0.726009 0.687675 -0.73585 0.607427 0.29926 -0.768296 0.52302 0.369013 0.547781 0.828641 -0.115281 0.452076 0.878778 -0.152893 0.242126 0.941262 0.235376 0.242126 0.941262 0.235376 0.452076 0.878778 -0.152893 0.480931 0.861226 0.1643 0.562105 0.695357 -0.44779 0.547781 0.828641 -0.115281 0.242126 0.941262 0.235376 0.562105 0.695357 -0.44779 0.963482 0.26621 -0.028876 0.656738 0.752126 0.054782 0.547781 0.828641 -0.115281 -0.649016 0.407914 0.642172 -0.987903 0.153292 -0.023418 0.1668 0.942648 -0.289123 0.053707 0.978204 0.200582 -0.620179 -0.481126 -0.619593 -0.199147 0.61984 -0.759038 -0.987903 0.153292 -0.023418 -0.987903 0.153292 -0.023418 -0.467436 -0.523296 -0.712507 -0.620179 -0.481126 -0.619593 -0.444711 0.486396 -0.752098 -0.467436 -0.523296 -0.712507 -0.987903 0.153292 -0.023418 -0.649016 0.407914 0.642172 -0.965936 -0.248802 0.071169 -0.987903 0.153292 -0.023418 -0.965936 -0.248802 0.071169 -0.265781 0.699882 -0.662967 -0.23206 0.307081 -0.922957 -0.682852 -0.687666 0.246635 -0.556755 -0.682076 0.474127 -0.965936 -0.248802 0.071169 -0.024538 0.999642 0.010658 0.128348 0.392325 0.910828 -0.965936 -0.248802 0.071169 -0.965936 -0.248802 0.071169 0.128348 0.392325 0.910828 -0.682852 -0.687666 0.246635 -0.649016 0.407914 0.642172 -0.024538 0.999642 0.010658 -0.965936 -0.248802 0.071169 -0.649016 0.407914 0.642172 -0.535641 0.746406 0.394925 -0.552876 0.489141 -0.674588 -0.024538 0.999642 0.010658 -0.3213 0.94564 -0.05032 -0.417625 0.906259 0.065452 -0.229181 0.955507 0.185696 -0.615312 0.756589 0.221278 -0.229181 0.955507 0.185696 -0.556959 0.819337 -0.135953 -0.615312 0.756589 0.221278 -0.615312 0.756589 0.221278 -0.556959 0.819337 -0.135953 -0.530637 0.847311 -0.022086 -0.57204 0.482845 0.663046 0.331099 0.937479 0.107272 -0.417625 0.906259 0.065452 -0.3213 0.94564 -0.05032 0.040492 0.987686 -0.151119 0.040492 0.987686 -0.151119 0.910564 0.393199 0.127544 0.974475 0.209294 0.08121 0.331099 0.937479 0.107272 -0.57204 0.482845 0.663046 -0.180058 0.956488 0.229585 -0.725129 0.656139 0.208973 -0.668748 0.604272 0.433164 -0.615312 0.756589 0.221278 -0.57204 0.482845 0.663046 -0.668748 0.604272 0.433164 -0.3213 0.94564 -0.05032 -0.615312 0.756589 0.221278 -0.668748 0.604272 0.433164 -0.668748 0.604272 0.433164 -0.725129 0.656139 0.208973 -0.875125 0.399361 -0.273251 -0.870294 0.437266 -0.226688 0.040492 0.987686 -0.151119 -0.3213 0.94564 -0.05032 -0.668748 0.604272 0.433164 -0.870294 0.437266 -0.226688 0.287896 0.643867 0.708908 0.863767 0.483618 -0.141495 0.253478 0.813889 -0.522814 0.253478 0.813889 -0.522814 0.863767 0.483618 -0.141495 0.950488 0.309319 -0.029906 0.240368 0.391345 -0.888297 0.280697 0.89797 0.338909 0.204623 0.686031 0.698206 0.134016 0.482127 0.865791 0.263471 0.689822 0.674336 0.516728 0.706787 0.483161 0.204623 0.686031 0.698206 0.280697 0.89797 0.338909 0.280697 0.89797 0.338909 -0.279917 0.957098 0.074902 0.000112 0.952595 0.30424 0.034937 0.941779 0.334412 -0.73585 0.607427 0.29926 -0.279917 0.957098 0.074902 0.280697 0.89797 0.338909 0.280697 0.89797 0.338909 0.263471 0.689822 0.674336 0.104015 0.77212 0.626907 0.034937 0.941779 0.334412 0.000112 0.952595 0.30424 0.003631 0.726009 0.687675 0.516728 0.706787 0.483161 0.280697 0.89797 0.338909 0.480931 0.861226 0.1643 0.158308 0.96596 0.204595 0.204623 0.686031 0.698206 0.516728 0.706787 0.483161 0.516728 0.706787 0.483161 0.003631 0.726009 0.687675 0.242126 0.941262 0.235376 0.480931 0.861226 0.1643 0.000112 0.952595 0.30424 -0.279917 0.957098 0.074902 -0.73585 0.607427 0.29926 0.003631 0.726009 0.687675 0.483275 0.637737 0.59978 -0.479238 0.863211 0.158735 0.220579 0.412406 -0.883893 0.220579 0.412406 -0.883893 0.825374 0.196964 0.529116 0.483275 0.637737 0.59978 0.220579 0.412406 -0.883893 -0.479238 0.863211 0.158735 -0.295725 0.822356 -0.486083 0.220579 0.412406 -0.883893 -0.295725 0.822356 -0.486083 -0.21807 0.318514 -0.922494 -0.159011 -0.145069 -0.976561 0.220579 0.412406 -0.883893 -0.024538 0.999642 0.010658 -0.552876 0.489141 -0.674588 0.569491 0.437853 -0.695675 0.767493 0.56877 -0.295729 -0.024538 0.999642 0.010658 0.220579 0.412406 -0.883893 0.220579 0.412406 -0.883893 0.569491 0.437853 -0.695675 0.569183 0.717075 0.402285 0.825374 0.196964 0.529116 -0.159011 -0.145069 -0.976561 0.767493 0.56877 -0.295729 0.220579 0.412406 -0.883893 0.825374 0.196964 0.529116 0.569183 0.717075 0.402285 -0.535641 0.746406 0.394925 -0.649016 0.407914 0.642172 0.045147 0.765503 -0.641847 -0.047837 0.264566 -0.96318 0.010335 0.301235 -0.953494 -0.037986 0.837519 -0.545086 -0.037986 0.837519 -0.545086 0.010335 0.301235 -0.953494 0.028309 0.331213 -0.943131 0.107998 0.866172 -0.487937 -0.037986 0.837519 -0.545086 0.107998 0.866172 -0.487937 0.176311 0.978431 0.107646 -0.020783 0.992069 0.123962 0.133885 0.990994 0.002474 -0.020783 0.992069 0.123962 0.176311 0.978431 0.107646 0.197554 0.966518 -0.163753 0.153953 0.986788 0.05047 0.087651 0.988374 0.124232 -0.020783 0.992069 0.123962 0.133885 0.990994 0.002474 0.133885 0.990994 0.002474 0.197554 0.966518 -0.163753 0.564822 0.744856 0.355198 0.118775 0.988639 -0.092113 0.133885 0.990994 0.002474 0.118775 0.988639 -0.092113 0.590256 0.800786 0.101679 0.153953 0.986788 0.05047 0.087651 0.988374 0.124232 0.045147 0.765503 -0.641847 -0.037986 0.837519 -0.545086 -0.229181 0.955507 0.185696 0.015145 0.853337 -0.521139 0.045147 0.765503 -0.641847 0.087651 0.988374 0.124232 0.087651 0.988374 0.124232 0.153953 0.986788 0.05047 -0.556959 0.819337 -0.135953 -0.229181 0.955507 0.185696 0.087651 0.988374 0.124232 -0.037986 0.837519 -0.545086 -0.020783 0.992069 0.123962 0.053707 0.978204 0.200582 0.1668 0.942648 -0.289123 -0.556959 0.819337 -0.135953 0.153953 0.986788 0.05047 0.590256 0.800786 0.101679 0.053707 0.978204 0.200582 0.153953 0.986788 0.05047 0.590256 0.800786 0.101679 0.310578 0.947111 0.080755 0.483275 0.637737 0.59978 -0.649016 0.407914 0.642172 0.053707 0.978204 0.200582 0.590256 0.800786 0.101679 0.590256 0.800786 0.101679 0.825374 0.196964 0.529116 -0.649016 0.407914 0.642172 0.483275 0.637737 0.59978 0.825374 0.196964 0.529116 0.590256 0.800786 0.101679 -0.581983 0.254036 -0.772504 -0.870294 0.437266 -0.226688 -0.875125 0.399361 -0.273251 -0.460457 0.418075 -0.783066 0.537131 0.779914 -0.321285 0.040492 0.987686 -0.151119 -0.870294 0.437266 -0.226688 -0.581983 0.254036 -0.772504 -0.581983 0.254036 -0.772504 -0.460457 0.418075 -0.783066 -0.024319 0.086076 -0.995992 0.491943 0.220668 -0.842198 0.427025 0.861013 -0.276236 -0.581983 0.254036 -0.772504 0.491943 0.220668 -0.842198 0.228537 0.692236 -0.684529 0.537131 0.779914 -0.321285 -0.581983 0.254036 -0.772504 -0.581983 0.254036 -0.772504 0.427025 0.861013 -0.276236 0.228537 0.692236 -0.684529 0.884251 0.459944 0.080941 0.910564 0.393199 0.127544 0.040492 0.987686 -0.151119 0.537131 0.779914 -0.321285 0.427025 0.861013 -0.276236 0.491943 0.220668 -0.842198 -0.444711 0.486396 -0.752098 -0.444711 0.486396 -0.752098 0.491943 0.220668 -0.842198 -0.467436 -0.523296 -0.712507 0.427025 0.861013 -0.276236 -0.444711 0.486396 -0.752098 0.228537 0.692236 -0.684529 0.228537 0.692236 -0.684529 -0.444711 0.486396 -0.752098 -0.707638 0.706046 -0.027343 -0.444711 0.486396 -0.752098 -0.987903 0.153292 -0.023418 -0.707638 0.706046 -0.027343 0.360367 0.715733 -0.598215 0.407244 0.76215 -0.503269 0.228537 0.692236 -0.684529 -0.707638 0.706046 -0.027343 0.360367 0.715733 -0.598215 -0.707638 0.706046 -0.027343 -0.987903 0.153292 -0.023418 -0.965936 -0.248802 0.071169 0.360367 0.715733 -0.598215 -0.965936 -0.248802 0.071169 -0.23206 0.307081 -0.922957 0.360367 0.715733 -0.598215 -0.23206 0.307081 -0.922957 0.506751 0.763715 -0.399928 0.970626 0.237929 -0.035719 0.928936 0.356589 -0.099608 0.752225 0.658229 -0.02986 0.800671 0.590237 -0.102691 0.800671 0.590237 -0.102691 0.752225 0.658229 -0.02986 0.228537 0.692236 -0.684529 0.407244 0.76215 -0.503269 0.752225 0.658229 -0.02986 0.928936 0.356589 -0.099608 0.884251 0.459944 0.080941 0.537131 0.779914 -0.321285 0.752225 0.658229 -0.02986 0.537131 0.779914 -0.321285 0.228537 0.692236 -0.684529 -0.520756 0.677071 -0.519988 -0.682852 -0.687666 0.246635 -0.928644 0.357246 -0.099975 -0.520756 0.677071 -0.519988 -0.556755 -0.682076 0.474127 -0.682852 -0.687666 0.246635 -0.520756 0.677071 -0.519988 -0.928644 0.357246 -0.099975 -0.073244 0.512082 0.855808 0.127684 0.942666 0.308346 -0.265781 0.699882 -0.662967 -0.965936 -0.248802 0.071169 -0.556755 -0.682076 0.474127 -0.520756 0.677071 -0.519988 0.127684 0.942666 0.308346 0.367583 0.816081 -0.445976 -0.265781 0.699882 -0.662967 -0.520756 0.677071 -0.519988 -0.073244 0.512082 0.855808 -0.038282 0.297905 0.953828 0.287896 0.643867 0.708908 0.127684 0.942666 0.308346 0.127684 0.942666 0.308346 0.287896 0.643867 0.708908 0.253478 0.813889 -0.522814 0.367583 0.816081 -0.445976 -0.266452 0.30112 0.915604 -0.172811 0.357376 0.917834 -0.038282 0.297905 0.953828 -0.073244 0.512082 0.855808 -0.073244 0.512082 0.855808 -0.928644 0.357246 -0.099975 -0.821614 -0.507917 -0.258789 -0.266452 0.30112 0.915604 0.506751 0.763715 -0.399928 -0.23206 0.307081 -0.922957 -0.265781 0.699882 -0.662967 0.367583 0.816081 -0.445976 0.407244 0.76215 -0.503269 0.360367 0.715733 -0.598215 0.367583 0.816081 -0.445976 0.367583 0.816081 -0.445976 0.360367 0.715733 -0.598215 0.506751 0.763715 -0.399928 0.367583 0.816081 -0.445976 0.253478 0.813889 -0.522814 0.240368 0.391345 -0.888297 0.367583 0.816081 -0.445976 0.240368 0.391345 -0.888297 0.407244 0.76215 -0.503269 0.524357 0.450913 0.722307 0.118775 0.988639 -0.092113 0.564822 0.744856 0.355198 0.118775 0.988639 -0.092113 0.524357 0.450913 0.722307 0.310578 0.947111 0.080755 0.483999 0.631947 -0.6053 0.1668 0.942648 -0.289123 -0.987903 0.153292 -0.023418 0.483999 0.631947 -0.6053 -0.987903 0.153292 -0.023418 -0.199147 0.61984 -0.759038 0.483999 0.631947 -0.6053 0.501209 0.765031 -0.404373 0.1668 0.942648 -0.289123 0.407244 0.76215 -0.503269 0.240368 0.391345 -0.888297 0.800671 0.590237 -0.102691 0.800671 0.590237 -0.102691 0.240368 0.391345 -0.888297 0.950488 0.309319 -0.029906 0.970626 0.237929 -0.035719 0.800671 0.590237 -0.102691 0.950488 0.309319 -0.029906 0.962725 0.268328 0.034059</float_array>
          <technique_common>
            <accessor source="#trashcan_plasticShape-normals-array" count="877" stride="3">
              <param name="X" type="float"/>
              <param name="Y" type="float"/>
              <param name="Z" type="float"/>
            </accessor>
          </technique_common>
        </source>
        <source id="trashcan_plasticShape-map1" name="map1">
          <float_array id="trashcan_plasticShape-map1-array" count="580">0.436848 0.013117 0.436848 0.041993 0.294733 0.041993 0.294734 0.013117 0.436848 0.5709 0.436848 0.600156 0.294734 0.600156 0.294734 0.5709 0.436848 0.55567 0.294734 0.55567 0.436848 0.621455 0.294734 0.621455 0.436848 0.663497 0.294734 0.663497 0.320739 0.983153 0.216035 0.983153 0.216035 0.678612 0.320739 0.678612 0.294733 0.205752 0.294733 0.15978 0.436848 0.048351 0.294734 0.048351 0.011751 0.013117 0.143995 0.013117 0.143995 0.041993 0.011751 0.041993 0.011751 0.5709 0.143995 0.5709 0.143995 0.600156 0.011751 0.600156 0.011751 0.55567 0.143995 0.55567 0.143995 0.621455 0.016897 0.621455 0.143995 0.201025 0.011751 0.663497 0.143995 0.663497 0.007545 0.983153 0.007545 0.678612 0.104977 0.678612 0.104977 0.983153 0.011751 0.048351 0.143995 0.156208 0.143995 0.048351 0.435965 0.678612 0.435965 0.983153 0.588098 0.621455 0.593244 0.663497 0.593244 0.600156 0.593244 0.5709 0.593244 0.55567 0.593244 0.048351 0.593244 0.013117 0.593244 0.041993 0.439438 0.67636 0.59447 0.67636 0.59447 0.986676 0.439438 0.986676 0.893931 0.087355 0.866918 0.105458 0.878817 0.02391 0.901994 0.023076 0.756199 0.107178 0.721112 0.097685 0.733726 0.024151 0.773176 0.030904 0.790744 0.110412 0.809285 0.031282 0.827234 0.107445 0.845418 0.023492 0.639178 0.448004 0.620054 0.406638 0.63369 0.328838 0.65057 0.372902 0.687035 0.141159 0.658371 0.115187 0.659421 0.052446 0.69638 0.08614 0.67425 0.21474 0.647319 0.180875 0.709603 0.150888 0.703291 0.191423 0.680938 0.018488 0.700775 0.012746 0.738853 0.177904 0.737679 0.212697 0.821799 0.166135 0.787881 0.18184 0.777462 0.233996 0.786066 0.229171 0.804156 0.224454 0.895345 0.146306 0.929322 0.083377 0.920133 0.147883 0.855514 0.154083 0.615531 0.171776 0.63624 0.173386 0.635335 0.183948 0.615156 0.176159 0.631909 0.608416 0.629761 0.608677 0.630798 0.592039 0.636737 0.167588 0.616784 0.157162 0.965774 0.397858 0.964856 0.384746 0.966544 0.384125 0.604386 0.679948 0.655916 0.681692 0.632249 0.219957 0.612225 0.210361 0.644055 0.707375 0.876823 0.861259 0.877321 0.703949 0.92426 0.705497 0.92443 0.862284 0.719415 0.500488 0.708902 0.503315 0.712241 0.477575 0.720483 0.487358 0.73011 0.51838 0.724457 0.517753 0.720607 0.510263 0.724369 0.477084 0.714355 0.463429 0.721324 0.458771 0.702148 0.476518 0.729761 0.475056 0.739746 0.496004 0.736006 0.484799 0.735782 0.509586 0.742623 0.516926 0.744332 0.535192 0.737747 0.539998 0.925362 0.475613 0.933275 0.394741 0.957703 0.406094 0.968596 0.429645 0.640274 0.126323 0.619249 0.128392 0.942967 0.313152 0.990164 0.313152 0.942967 0.010468 0.976464 0.010468 0.933968 0.558749 0.980129 0.462817 0.75401 0.792564 0.763841 0.852527 0.746559 0.875248 0.737386 0.835374 0.752713 0.78602 0.736737 0.807515 0.995302 0.508941 0.968665 0.534838 0.801215 0.755223 0.798803 0.817851 0.719273 0.742904 0.761948 0.77534 0.940079 0.355454 0.908637 0.353855 0.870799 0.414005 0.889711 0.310228 0.884335 0.2651 0.923717 0.267722 0.925795 0.292447 0.869734 0.413259 0.870471 0.415005 0.868587 0.408161 0.868743 0.302965 0.855191 0.195874 0.843251 0.205861 0.821848 0.221449 0.783227 0.240726 0.803237 0.231717 0.78104 0.255736 0.769395 0.31532 0.778266 0.375791 0.759989 0.373365 0.863126 0.340564 0.856615 0.313529 0.640406 0.822573 0.602429 0.324667 0.622681 0.331609 0.603501 0.977981 0.674897 0.977981 0.774093 0.870516 0.835697 0.782115 0.808951 0.865036 0.635999 0.505139 0.673554 0.46337 0.665986 0.506587 0.651069 0.534211 0.660884 0.549335 0.608357 0.515395 0.611566 0.54515 0.62019 0.564303 0.652339 0.595369 0.785454 0.262991 0.785973 0.378402 0.792457 0.267808 0.800073 0.37956 0.811776 0.372862 0.799046 0.266873 0.804285 0.259126 0.823508 0.363929 0.847959 0.427131 0.828095 0.404318 0.832285 0.357323 0.80781 0.249268 0.81737 0.251197 0.841718 0.356915 0.84122 0.272144 0.85028 0.274133 0.936091 0.704399 0.971142 0.682186 0.991327 0.733529 0.977094 0.759809 0.750066 0.50084 0.750255 0.548323 0.925533 0.682067 0.88323 0.668057 0.926403 0.606722 0.642897 0.095714 0.624746 0.027337 0.636346 0.017702 0.628661 0.071492 0.656798 0.725554 0.876504 0.695176 0.693709 0.534187 0.702624 0.500994 0.700833 0.576171 0.679277 0.622629 0.711819 0.523379 0.718065 0.539589 0.817076 0.736293 0.792935 0.736225 0.887884 0.205166 0.922195 0.244999 0.868479 0.200609 0.864786 0.286972 0.857934 0.27768 0.900814 0.974449 0.885207 0.976299 0.876889 0.953158 0.925231 0.907075 0.812471 0.392182 0.831298 0.862146 0.873098 0.701044 0.947015 0.862393 0.640075 0.240693 0.660505 0.305965 0.69118 0.288838 0.725546 0.302063 0.710344 0.369709 0.672605 0.363498 0.733211 0.439496 0.925538 0.97292 0.903316 0.9919 0.979873 0.861884 0.726509 0.547076 0.718488 0.59246 0.733966 0.544957 0.760276 0.573059 0.697411 0.655037 0.76316 0.571092 0.787665 0.632681 0.769167 0.690649 0.683696 0.980006 0.673295 0.848623 0.731679 0.848623 0.764805 0.973838 0.653959 0.045537 0.829217 0.598036 0.802454 0.628741 0.7055 0.694245 0.731669 0.643778 0.767276 0.736814 0.990164 0.010469 0.609859 0.017338 0.849872 0.475873 0.849563 0.446654 0.87351 0.462265 0.878969 0.495068 0.875004 0.563091 0.852994 0.537255 0.895665 0.580776 0.837482 0.642233 0.818521 0.680848 0.987196 0.699024 0.994425 0.709032</float_array>
          <technique_common>
            <accessor source="#trashcan_plasticShape-map1-array" count="290" stride="2">
              <param name="S" type="float"/>
              <param name="T" type="float"/>
            </accessor>
          </technique_common>
        </source>
        <vertices id="trashcan_plasticShape-vertices">
          <input semantic="POSITION" source="#trashcan_plasticShape-positions"/>
        </vertices>
        <triangles material="blinn1SG" count="391">
          <input semantic="VERTEX" source="#trashcan_plasticShape-vertices" offset="0"/>
          <input semantic="NORMAL" source="#trashcan_plasticShape-normals" offset="1"/>
          <input semantic="TEXCOORD" source="#trashcan_plasticShape-map1" offset="2" set="0"/>
          <p>3 0 0 39 1 1 0 3 3 0 3 3 39 1 1 36 2 2 10 4 4 11 5 5 8 7 7 8 7 7 11 5 5 9 6 6 7 8 8 10 9 4 6 11 9 6 11 9 10 9 4 8 10 7 11 12 5 2 13 10 9 15 6 9 15 6 2 13 10 1 14 11 16 16 12 17 17 13 2 19 10 2 19 10 17 17 13 1 18 11 15 20 14 14 21 15 16 23 17 16 23 17 14 21 15 17 22 16 4 24 18 5 25 19 13 26 20 13 27 20 5 28 19 12 29 21 4 30 18 7 31 8 6 32 9 21 33 22 18 34 23 38 36 25 38 36 25 18 34 23 37 35 24 28 37 26 26 38 27 29 40 29 29 40 29 26 38 27 27 39 28 25 41 30 24 42 31 28 44 26 28 44 26 24 42 31 26 43 27 29 45 29 27 46 28 20 48 33 20 48 33 27 46 28 19 47 32 22 49 34 24 50 31 25 51 30 34 52 35 20 53 33 35 55 36 35 55 36 20 53 33 19 54 32 33 56 37 34 57 38 32 59 40 32 59 40 34 57 38 35 58 39 22 60 34 31 61 41 23 62 42 31 63 41 30 64 43 23 65 42 16 66 17 34 67 44 15 69 14 15 69 14 34 67 44 33 68 45 2 70 10 20 71 46 16 73 12 16 73 12 20 71 46 34 72 47 11 74 5 29 75 48 2 77 10 2 77 10 29 75 48 20 76 46 10 78 4 28 79 49 11 81 5 11 81 5 28 79 49 29 80 48 7 82 8 25 83 50 10 85 4 10 85 4 25 83 50 28 84 49 13 86 20 31 87 51 7 89 8 7 89 8 31 87 51 25 88 50 3 90 0 21 91 52 39 93 1 39 93 1 21 91 52 38 92 53 0 94 54 18 95 55 3 97 57 3 97 57 18 95 55 21 96 56 36 98 2 37 99 24 0 101 3 0 101 3 37 99 24 18 100 23 5 102 19 23 103 42 12 105 21 12 105 21 23 103 42 30 104 43 4 106 18 22 107 34 5 109 19 5 109 19 22 107 34 23 108 42 6 110 9 24 111 31 4 113 18 4 113 18 24 111 31 22 112 34 8 114 7 26 115 27 6 117 9 6 117 9 26 115 27 24 116 31 1 118 11 19 119 32 9 121 6 9 121 6 19 119 32 27 120 28 17 122 13 35 123 36 1 125 11 1 125 11 35 123 36 19 124 32 9 126 6 27 127 28 8 129 7 8 129 7 27 127 28 26 128 27 17 130 16 14 131 15 35 133 39 35 133 39 14 131 15 32 132 40 12 134 21 30 135 43 36 137 2 36 137 2 30 135 43 37 136 24 38 138 25 37 139 24 31 141 41 31 141 41 37 139 24 30 140 43 39 142 1 38 143 53 13 145 20 13 145 20 38 143 53 31 144 51 36 146 2 39 147 1 12 149 21 12 149 21 39 147 1 13 148 20 4 150 18 13 151 20 7 152 8 22 153 34 25 154 30 31 155 41 86 157 59 68 158 60 85 156 58 85 156 58 68 158 60 69 159 61 90 161 63 64 162 64 89 160 62 89 160 62 64 162 64 65 163 65 89 165 62 65 166 65 88 164 66 88 164 66 65 166 65 66 167 67 88 169 66 66 170 67 87 168 68 87 168 68 66 170 67 67 171 69 87 173 68 67 174 69 86 172 59 86 172 59 67 174 69 68 175 60 50 176 70 49 177 71 47 179 73 47 179 73 49 177 71 48 178 72 42 180 74 41 181 75 62 183 77 62 183 77 41 181 75 40 182 76 43 184 78 44 185 79 42 187 74 42 187 74 44 185 79 41 186 75 96 188 80 98 189 81 42 191 74 42 191 74 98 189 81 43 190 78 90 193 63 96 194 80 62 192 77 62 192 77 96 194 80 42 195 74 62 196 77 40 197 82 63 198 83 63 200 83 64 201 64 62 199 77 62 199 77 64 201 64 90 202 63 89 204 62 95 205 84 90 203 63 90 203 63 95 205 84 96 206 80 97 207 85 98 208 81 95 210 84 95 210 84 98 208 81 96 209 80 87 212 68 93 213 86 88 211 66 88 211 66 93 213 86 94 214 87 95 216 84 89 217 62 94 215 87 94 215 87 89 217 62 88 218 66 107 219 88 94 220 87 119 221 89 119 222 89 94 223 87 114 224 90 84 225 91 85 226 58 70 228 93 70 228 93 85 226 58 69 227 92 93 230 86 87 231 68 92 229 94 92 229 94 87 231 68 86 232 59 85 234 58 84 235 91 86 233 59 86 233 59 84 235 91 92 236 94 148 237 95 147 238 96 143 240 98 143 240 98 147 238 96 144 239 97 146 241 99 144 242 100 147 243 101 146 244 102 147 245 96 150 247 103 150 247 103 147 245 96 148 246 95 148 248 104 143 249 105 150 250 106 146 253 99 145 254 108 144 252 100 139 251 107 144 252 100 145 254 108 142 256 110 143 257 98 139 255 109 139 255 109 143 257 98 144 258 97 139 259 107 145 260 108 160 261 111 158 263 113 157 264 114 162 262 112 162 262 112 157 264 114 165 265 115 169 266 116 173 267 117 168 269 119 168 269 119 173 267 117 174 268 118 179 270 120 176 271 121 169 273 116 169 273 116 176 271 121 171 272 122 168 275 119 174 276 118 167 274 123 167 274 123 174 276 118 175 277 124 175 278 124 174 279 118 113 280 125 113 281 125 174 282 118 103 283 126 113 284 125 167 285 123 175 286 124 189 287 127 167 288 123 113 289 125 167 291 123 189 292 127 185 290 128 185 290 128 189 292 127 188 293 129 184 294 130 179 295 120 168 297 119 168 297 119 179 295 120 169 296 116 168 298 119 167 299 123 184 301 130 184 301 130 167 299 123 185 300 128 184 302 130 185 303 128 190 304 131 186 306 132 183 307 133 190 305 131 190 305 131 183 307 133 184 308 130 91 312 137 79 309 134 74 311 136 79 309 134 80 310 135 74 311 136 145 313 138 146 314 102 149 316 139 149 316 139 146 314 102 150 315 103 143 318 105 142 319 140 150 317 106 150 317 106 142 319 140 149 320 141 149 321 141 142 322 140 197 324 143 197 324 143 142 322 140 152 323 142 78 325 144 79 326 134 75 328 145 75 328 145 79 326 134 91 327 137 199 329 146 77 330 147 200 332 149 200 332 149 77 330 147 76 331 148 201 333 150 199 334 146 61 336 151 61 336 151 199 334 146 200 335 149 76 338 152 77 339 153 75 337 145 75 337 145 77 339 153 78 340 144 198 341 154 78 342 155 199 344 146 199 344 146 78 342 155 77 343 147 58 345 156 201 346 150 61 347 151 198 348 154 199 349 146 60 351 157 60 351 157 199 349 146 201 350 150 74 353 136 80 354 135 73 352 158 73 352 158 80 354 135 81 355 159 81 356 159 80 357 135 195 358 160 137 360 162 138 361 163 82 359 161 82 359 161 138 361 163 72 362 164 73 364 158 81 365 159 72 363 164 72 363 164 81 365 159 82 366 161 82 367 161 81 368 159 141 369 165 152 370 166 142 371 167 195 372 160 141 373 165 195 374 160 142 375 167 141 376 165 81 377 159 195 378 160 137 379 162 82 380 161 136 381 168 133 382 169 109 383 170 92 384 94 114 385 90 94 386 87 108 388 171 108 388 171 94 386 87 93 387 86 126 389 172 119 390 89 125 392 173 125 392 173 119 390 89 114 391 90 97 394 85 95 395 84 107 393 88 107 393 88 95 395 84 94 396 87 119 397 89 126 398 172 107 399 88 107 400 88 126 401 172 118 402 174 110 403 175 130 404 176 112 405 177 108 406 171 93 407 86 109 409 170 109 409 170 93 407 86 92 408 94 141 410 165 136 411 168 82 412 161 136 413 168 140 414 178 210 415 179 153 416 180 139 417 107 160 418 111 141 419 181 142 420 110 140 422 182 140 422 182 142 420 110 139 421 109 140 423 183 139 424 107 153 425 180 140 426 178 136 427 168 141 428 165 140 429 183 153 430 180 164 431 184 164 432 185 153 433 186 211 434 187 51 435 188 50 436 70 105 438 190 105 438 190 50 436 70 104 437 189 51 440 188 105 441 190 212 439 191 212 439 191 105 441 190 54 442 192 49 443 71 50 444 70 52 446 193 52 446 193 50 444 70 51 445 188 52 447 194 51 448 188 213 450 195 213 450 195 51 448 188 212 449 191 213 451 195 212 452 191 53 454 196 53 454 196 212 452 191 54 453 192 118 455 174 120 456 197 130 458 176 130 458 176 120 456 197 129 457 198 120 459 197 117 460 199 129 462 198 129 462 198 117 460 199 128 461 200 127 463 201 128 464 200 116 466 202 116 466 202 128 464 200 117 465 199 116 468 202 117 469 199 121 467 203 121 467 203 117 469 199 120 470 197 122 471 204 127 472 201 121 474 203 121 474 203 127 472 201 116 473 202 164 475 205 211 476 206 123 478 207 123 478 207 211 476 206 122 477 204 126 480 172 125 481 173 118 479 174 118 479 174 125 481 173 115 482 208 115 483 208 125 484 173 209 485 209 120 487 197 118 488 174 121 486 203 121 486 203 118 488 174 115 489 208 122 491 204 121 492 203 123 490 207 123 490 207 121 492 203 115 493 208 115 494 208 209 495 209 123 497 207 123 497 207 209 495 209 124 496 210 210 498 179 140 499 178 124 500 210 124 501 210 140 502 178 164 503 205 209 504 209 208 505 211 124 507 210 124 507 210 208 505 211 210 506 179 164 508 205 123 509 207 124 510 210 208 511 211 132 512 212 210 514 179 210 514 179 132 512 212 136 513 168 108 515 171 109 516 170 208 517 211 208 518 211 109 519 170 133 520 169 209 521 209 108 522 171 208 523 211 125 525 173 114 526 90 209 524 209 209 524 209 114 526 90 108 527 171 161 528 213 154 529 214 111 531 216 111 531 216 154 529 214 113 530 215 190 532 131 185 533 128 154 534 217 154 535 217 186 536 132 190 537 131 187 538 218 186 539 132 154 540 217 161 541 219 159 542 220 154 543 221 159 544 222 206 545 223 207 546 224 149 547 139 153 548 225 159 549 222 160 550 111 145 551 108 159 552 226 159 553 222 145 554 138 149 555 139 161 556 219 160 557 227 159 558 220 161 559 219 157 560 114 160 562 227 160 562 227 157 560 114 158 561 113 105 564 190 104 565 189 106 563 228 106 563 228 104 565 189 170 566 229 104 567 189 103 568 126 170 569 229 170 570 229 103 571 126 173 573 117 103 571 126 174 572 118 173 573 117 105 575 190 106 576 228 54 574 192 54 574 192 106 576 228 55 577 230 55 578 230 56 579 231 54 581 192 54 581 192 56 579 231 53 580 196 173 582 117 169 583 116 172 585 232 172 585 232 169 583 116 171 584 122 170 586 229 173 587 117 172 588 232 106 589 228 170 590 229 172 591 232 171 593 122 176 594 121 172 592 232 172 592 232 176 594 121 177 595 233 55 596 230 106 597 228 177 599 233 177 599 233 106 597 228 172 598 232 78 600 155 198 601 154 203 602 234 203 603 234 198 604 154 204 606 235 204 606 235 198 604 154 60 605 157 84 608 91 70 609 93 83 607 236 83 607 236 70 609 93 71 610 237 131 611 238 84 612 91 83 613 236 83 614 236 134 615 239 135 616 240 136 618 168 134 619 239 137 617 162 137 617 162 134 619 239 83 620 236 83 621 236 71 622 237 137 624 162 137 624 162 71 622 237 138 623 163 132 626 212 131 627 238 135 625 240 135 625 240 131 627 238 83 628 236 133 629 169 92 630 94 131 632 238 131 632 238 92 630 94 84 631 91 131 633 238 132 634 212 133 636 169 133 636 169 132 634 212 208 635 211 135 637 240 134 638 239 132 640 212 132 640 212 134 638 239 136 639 168 129 641 241 128 642 242 163 643 243 163 644 243 166 645 244 129 646 241 163 647 245 128 648 200 127 649 201 127 651 201 122 652 204 163 650 245 163 650 245 122 652 204 211 653 206 160 655 247 158 656 113 163 654 246 163 654 246 158 656 113 162 657 112 153 658 186 160 659 247 163 660 246 163 661 243 162 662 112 166 664 244 166 664 244 162 662 112 165 663 115 211 665 187 153 666 186 163 667 246 166 668 248 165 669 115 161 671 213 161 671 213 165 669 115 157 670 114 47 672 73 48 673 72 46 675 250 46 675 250 48 673 72 45 674 249 46 676 250 45 677 249 43 679 78 43 679 78 45 677 249 44 678 79 46 680 250 43 681 78 99 683 251 99 683 251 43 681 78 98 682 81 100 684 252 99 685 251 97 687 85 97 687 85 99 685 251 98 686 81 101 689 254 99 690 251 102 688 253 102 688 253 99 690 251 100 691 252 100 692 252 97 693 85 110 695 175 110 695 175 97 693 85 107 694 88 110 697 175 112 698 177 100 696 252 100 696 252 112 698 177 102 699 253 101 700 254 47 701 73 46 702 250 50 704 70 47 705 73 104 703 189 104 703 189 47 705 73 101 706 254 101 707 254 102 708 253 104 710 189 104 710 189 102 708 253 103 709 126 101 711 254 46 712 250 99 713 251 103 716 126 102 717 253 113 715 125 111 714 255 113 715 125 102 717 253 112 718 177 111 719 255 102 720 253 112 721 256 130 722 257 129 723 241 161 724 213 111 725 216 112 726 258 112 727 258 166 728 248 161 729 213 129 730 241 166 731 244 112 732 256 178 733 259 177 734 233 179 736 120 179 736 120 177 734 233 176 735 121 55 738 230 177 739 233 180 737 260 180 737 260 177 739 233 178 740 259 179 742 120 184 743 130 178 741 259 178 741 259 184 743 130 183 744 133 182 745 261 178 746 259 183 747 133 191 748 262 180 749 260 178 750 259 178 751 259 182 752 261 191 753 262 56 755 231 55 756 230 181 754 263 181 754 263 55 756 230 180 757 260 182 758 261 183 759 133 187 760 218 187 761 218 183 762 133 186 763 132 182 764 261 187 765 218 191 766 262 191 767 262 187 768 218 155 769 264 187 770 218 154 771 217 155 772 264 191 775 262 155 776 264 192 774 266 156 773 265 192 774 266 155 776 264 155 778 268 154 779 269 156 777 267 156 777 267 154 779 269 159 780 270 156 781 271 159 782 222 207 783 224 156 784 265 207 785 272 205 786 273 57 788 274 193 789 275 58 787 156 58 787 156 193 789 275 59 790 276 59 791 276 193 792 275 192 794 266 192 794 266 193 792 275 191 793 262 57 796 274 181 797 263 193 795 275 193 795 275 181 797 263 180 798 260 193 799 275 180 800 260 191 801 262 151 802 277 149 803 141 197 804 143 151 805 278 153 806 225 149 807 139 197 809 280 196 810 281 151 808 279 151 808 279 196 810 281 194 811 282 159 813 222 153 814 225 206 812 223 206 812 223 153 814 225 151 815 278 202 817 283 206 818 284 194 816 282 194 816 282 206 818 284 151 819 279 196 820 281 79 821 134 194 823 282 194 823 282 79 821 134 78 822 144 78 825 144 203 826 285 194 824 282 194 824 282 203 826 285 202 827 283 80 829 135 79 830 134 195 828 160 195 828 160 79 830 134 196 831 281 197 833 280 152 834 166 196 832 281 196 832 281 152 834 166 195 835 160 207 837 272 206 838 286 205 836 273 205 836 273 206 838 286 202 839 287 192 840 266 156 841 265 202 842 287 202 843 287 156 844 265 205 845 273 202 846 287 203 847 234 204 848 235 202 849 287 204 850 235 192 851 266 118 852 174 110 853 175 107 854 88 110 855 175 118 856 174 130 857 176 188 858 288 113 859 215 154 860 214 188 861 129 154 862 217 185 863 128 188 864 288 189 865 289 113 866 215 192 867 266 204 868 235 59 869 276 59 870 276 204 871 235 60 872 157 59 874 276 60 875 157 58 873 156 58 873 156 60 875 157 201 876 150</p>
        </triangles>
      </mesh>
      <extra>
        <technique profile="MAYA">
          <double_sided>1</double_sided>
        </technique>
      </extra>
    </geometry>
  </library_geometries>
  <library_visual_scenes>
    <visual_scene id="VisualSceneNode" name="untitled">
      <node id="trashcan_plastic" name="trashcan_plastic" type="NODE">
        <rotate sid="rotateZ">0 0 1 0</rotate>
        <rotate sid="rotateY">0 1 0 0</rotate>
        <rotate sid="rotateX">1 0 0 0</rotate>
        <instance_geometry url="#trashcan_plasticShape">
          <bind_material>
            <technique_common>
              <instance_material symbol="blinn1SG" target="#blinn1">
                <bind_vertex_input semantic="TEX0" input_semantic="TEXCOORD" input_set="0"/>
                <bind_vertex_input semantic="TEX1" input_semantic="TEXCOORD" input_set="0"/>
                <bind_vertex_input semantic="TEX2" input_semantic="TEXCOORD" input_set="0"/>
              </instance_material>
            </technique_common>
          </bind_material>
        </instance_geometry>
      </node>
      <extra>
        <technique profile="FCOLLADA">
          <start_time>0.041666</start_time>
          <end_time>2</end_time>
        </technique>
      </extra>
    </visual_scene>
  </library_visual_scenes>
  <scene>
    <instance_physics_scene url="#MayaNativePhysicsScene"/>
    <instance_visual_scene url="#VisualSceneNode"/>
  </scene>
</COLLADA>
