<?xml version="1.0" encoding="utf-8"?>
<COLLADA xmlns="http://www.collada.org/2005/11/COLLADASchema" version="1.4.1">
  <asset>
    <contributor>
      <author>Skywolf</author>
      <authoring_tool>Maya2008 | ColladaMaya v3.05B</authoring_tool>
      <comments>ColladaMaya export options: bakeTransforms=0;exportPolygonMeshes=1;bakeLighting=0;isSampling=0;
curveConstrainSampling=0;removeStaticCurves=1;exportCameraAsLookat=0;
exportLights=1;exportCameras=1;exportJointsAndSkin=1;
exportAnimations=1;exportTriangles=1;exportInvisibleNodes=0;
exportNormals=1;exportTexCoords=1;
exportVertexColors=1;exportVertexColorsAnimation=0;exportTangents=0;
exportTexTangents=0;exportConstraints=1;exportPhysics=1;exportXRefs=1;
dereferenceXRefs=0;cameraXFov=0;cameraYFov=1</comments>
      <source_data>file:///C:/Users/Skywolf/Documents/maya/projects/frictional/scenes/clock_desk3.mb</source_data>
    </contributor>
    <created>2009-12-04T17:39:33Z</created>
    <modified>2009-12-04T17:39:33Z</modified>
    <unit meter="0.01" name="centimeter"/>
    <up_axis>Y_UP</up_axis>
  </asset>
  <library_physics_scenes>
    <physics_scene id="MayaNativePhysicsScene">
      <technique_common>
        <gravity>0 -980 0</gravity>
        <time_step>0.083</time_step>
      </technique_common>
    </physics_scene>
  </library_physics_scenes>
  <library_images>
    <image id="file1" name="file1">
      <init_from>clock_blank.dds</init_from>
      <extra>
        <technique profile="MAYA">
          <dgnode_type>kFile</dgnode_type>
          <image_sequence>0</image_sequence>
        </technique>
      </extra>
    </image>
  </library_images>
  <library_materials>
    <material id="lambert1" name="lambert1">
      <instance_effect url="#lambert1-fx"/>
    </material>
  </library_materials>
  <library_effects>
    <effect id="lambert1-fx">
      <profile_COMMON>
        <newparam sid="file1-surface">
          <surface type="2D">
            <init_from>file1</init_from>
            <format>A8R8G8B8</format>
          </surface>
        </newparam>
        <newparam sid="file1-sampler">
          <sampler2D>
            <source>file1-surface</source>
            <wrap_s>WRAP</wrap_s>
            <wrap_t>WRAP</wrap_t>
            <minfilter>NONE</minfilter>
            <magfilter>NONE</magfilter>
            <mipfilter>NONE</mipfilter>
          </sampler2D>
        </newparam>
        <technique sid="common">
          <lambert>
            <emission>
              <color>0 0 0 1</color>
            </emission>
            <ambient>
              <color>0 0 0 1</color>
            </ambient>
            <diffuse>
              <texture texture="file1-sampler" texcoord="TEX0">
                <extra>
                  <technique profile="MAYA">
                    <wrapU>1</wrapU>
                    <wrapV>1</wrapV>
                    <mirrorU>0</mirrorU>
                    <mirrorV>0</mirrorV>
                    <coverageU>1</coverageU>
                    <coverageV>1</coverageV>
                    <translateFrameU>0</translateFrameU>
                    <translateFrameV>0</translateFrameV>
                    <rotateFrame>0</rotateFrame>
                    <stagger>0</stagger>
                    <fast>0</fast>
                    <repeatU>1</repeatU>
                    <repeatV>1</repeatV>
                    <offsetU>0</offsetU>
                    <offsetV>0</offsetV>
                    <rotateUV>0</rotateUV>
                    <noiseU>0</noiseU>
                    <noiseV>0</noiseV>
                    <blend_mode>NONE</blend_mode>
                  </technique>
                </extra>
              </texture>
            </diffuse>
            <transparent opaque="RGB_ZERO">
              <color>0 0 0 1</color>
            </transparent>
            <transparency>
              <float>1</float>
            </transparency>
          </lambert>
          <extra>
            <technique profile="FCOLLADA"/>
          </extra>
        </technique>
      </profile_COMMON>
    </effect>
  </library_effects>
  <library_geometries>
    <geometry id="smallhandShape" name="smallhandShape">
      <mesh>
        <source id="smallhandShape-positions" name="position">
          <float_array id="smallhandShape-positions-array" count="12">-0.022116 0.359739 0.036526 -0.022116 0.226059 0.036526 0.017812 0.359739 0.036526 0.017812 0.226059 0.036526</float_array>
          <technique_common>
            <accessor source="#smallhandShape-positions-array" count="4" stride="3">
              <param name="X" type="float"/>
              <param name="Y" type="float"/>
              <param name="Z" type="float"/>
            </accessor>
          </technique_common>
        </source>
        <source id="smallhandShape-normals" name="normal">
          <float_array id="smallhandShape-normals-array" count="12">0 0 1 0 0 1 0 0 1 0 0 1</float_array>
          <technique_common>
            <accessor source="#smallhandShape-normals-array" count="4" stride="3">
              <param name="X" type="float"/>
              <param name="Y" type="float"/>
              <param name="Z" type="float"/>
            </accessor>
          </technique_common>
        </source>
        <source id="smallhandShape-map1" name="map1">
          <float_array id="smallhandShape-map1-array" count="8">0.121122 0.924625 0.435115 0.924625 0.435115 0.96544 0.121122 0.96544</float_array>
          <technique_common>
            <accessor source="#smallhandShape-map1-array" count="4" stride="2">
              <param name="S" type="float"/>
              <param name="T" type="float"/>
            </accessor>
          </technique_common>
        </source>
        <vertices id="smallhandShape-vertices">
          <input semantic="POSITION" source="#smallhandShape-positions"/>
          <input semantic="NORMAL" source="#smallhandShape-normals"/>
        </vertices>
        <triangles material="initialShadingGroup" count="2">
          <input semantic="VERTEX" source="#smallhandShape-vertices" offset="0"/>
          <input semantic="TEXCOORD" source="#smallhandShape-map1" offset="1" set="0"/>
          <p>0 0 1 1 2 3 2 3 1 1 3 2</p>
        </triangles>
      </mesh>
      <extra>
        <technique profile="MAYA">
          <double_sided>1</double_sided>
        </technique>
      </extra>
    </geometry>
    <geometry id="bighandShape" name="bighandShape">
      <mesh>
        <source id="bighandShape-positions" name="position">
          <float_array id="bighandShape-positions-array" count="12">-0.027346 0.381204 0.031884 -0.027346 0.212499 0.031884 0.023044 0.381204 0.031884 0.023044 0.212499 0.031884</float_array>
          <technique_common>
            <accessor source="#bighandShape-positions-array" count="4" stride="3">
              <param name="X" type="float"/>
              <param name="Y" type="float"/>
              <param name="Z" type="float"/>
            </accessor>
          </technique_common>
        </source>
        <source id="bighandShape-normals" name="normal">
          <float_array id="bighandShape-normals-array" count="12">0 0 1 0 0 1 0 0 1 0 0 1</float_array>
          <technique_common>
            <accessor source="#bighandShape-normals-array" count="4" stride="3">
              <param name="X" type="float"/>
              <param name="Y" type="float"/>
              <param name="Z" type="float"/>
            </accessor>
          </technique_common>
        </source>
        <source id="bighandShape-map1" name="map1">
          <float_array id="bighandShape-map1-array" count="8">0.121122 0.924625 0.435115 0.924625 0.435115 0.96544 0.121122 0.96544</float_array>
          <technique_common>
            <accessor source="#bighandShape-map1-array" count="4" stride="2">
              <param name="S" type="float"/>
              <param name="T" type="float"/>
            </accessor>
          </technique_common>
        </source>
        <vertices id="bighandShape-vertices">
          <input semantic="POSITION" source="#bighandShape-positions"/>
          <input semantic="NORMAL" source="#bighandShape-normals"/>
        </vertices>
        <triangles material="initialShadingGroup" count="2">
          <input semantic="VERTEX" source="#bighandShape-vertices" offset="0"/>
          <input semantic="TEXCOORD" source="#bighandShape-map1" offset="1" set="0"/>
          <p>0 0 1 1 2 3 2 3 1 1 3 2</p>
        </triangles>
      </mesh>
      <extra>
        <technique profile="MAYA">
          <double_sided>1</double_sided>
        </technique>
      </extra>
    </geometry>
    <geometry id="polySurfaceShape37" name="polySurfaceShape37">
      <mesh>
        <source id="polySurfaceShape37-positions" name="position">
          <float_array id="polySurfaceShape37-positions-array" count="1026">0.350055 0.07336 0.037431 -0.349396 0.07336 0.037431 0.350055 0.07336 0.020193 -0.349396 0.07336 0.020193 0.350055 0.079588 0.020193 -0.349396 0.079588 0.020193 0.350055 0.079588 0.037431 -0.349396 0.079588 0.037431 0.350055 0.07336 -0.017892 -0.349396 0.07336 -0.017892 0.350055 0.07336 -0.035131 -0.349396 0.07336 -0.035131 0.350055 0.079588 -0.035131 -0.349396 0.079588 -0.035131 0.350055 0.079588 -0.017892 -0.349396 0.079588 -0.017892 0.366394 0.068311 -0.048186 0.400918 0.000168 -0.078435 -0.369128 0.068311 -0.048186 -0.402758 0.000168 -0.078435 -0.369128 0.068311 0.049602 -0.402758 0.000168 0.079851 0.366394 0.068311 0.049602 0.400918 0.000168 0.079851 0.376368 0.058498 -0.058204 -0.379102 0.058498 -0.058204 -0.379102 0.058498 0.05962 0.376368 0.058498 0.05962 0.390272 0.035298 -0.070488 -0.393005 0.035298 -0.070488 -0.393005 0.035298 0.071905 0.390272 0.035298 0.071905 0.380466 0.045693 -0.062415 -0.383199 0.045693 -0.062415 -0.383199 0.045693 0.063831 0.380466 0.045693 0.063831 0.388666 0.026026 -0.07035 -0.3914 0.026026 -0.07035 -0.3914 0.026026 0.071767 0.388666 0.026026 0.071767 0.400075 0.022221 -0.078453 -0.40281 0.022221 -0.078453 -0.40281 0.022221 0.079869 0.400075 0.022221 0.079869 0.366394 0.074562 0.049602 0.366394 0.074562 -0.048186 -0.369128 0.074562 -0.048186 -0.369128 0.074562 0.049602 -0.159585 0.332756 0.03988 -0.135732 0.379568 0.03988 -0.098581 0.416719 0.03988 -0.051768 0.440573 0.03988 0.000126 0.448791 0.03988 0.052018 0.440573 0.03988 0.098832 0.416718 0.03988 0.135982 0.379568 0.03988 0.159835 0.332756 0.03988 0.168054 0.280861 0.03988 0.159835 0.228969 0.03988 0.135982 0.191037 0.03988 0.098832 0.153885 0.03988 0.052018 0.121152 0.03988 0.000126 0.112932 0.03988 -0.051768 0.121152 0.03988 -0.098581 0.153885 0.03988 -0.135732 0.191037 0.03988 -0.159585 0.228969 0.03988 -0.167803 0.280861 0.03988 -0.159585 0.332756 -0.042793 -0.135732 0.379568 -0.042793 -0.098581 0.416719 -0.042793 -0.051768 0.440573 -0.042793 0.000126 0.448791 -0.042793 0.052018 0.440573 -0.042793 0.098832 0.416718 -0.042793 0.135982 0.379568 -0.042793 0.159835 0.332756 -0.042793 0.168054 0.280861 -0.042793 0.159835 0.228969 -0.042793 0.135982 0.191037 -0.042793 0.098832 0.153885 -0.042793 0.052018 0.121152 -0.042793 0.000126 0.112932 -0.042793 -0.051768 0.121152 -0.042793 -0.098581 0.153885 -0.042793 -0.135732 0.191037 -0.042793 -0.159585 0.228969 -0.042793 -0.167803 0.280861 -0.042793 -0.120476 0.320047 0.043282 -0.102463 0.355397 0.043282 -0.074409 0.383451 0.043282 -0.03906 0.401462 0.043282 0.000126 0.407669 0.043282 0.03931 0.401462 0.043282 0.074659 0.383449 0.043282 0.102714 0.355397 0.043282 0.120726 0.320047 0.043282 0.126931 0.280861 0.043282 0.120726 0.241675 0.043282 0.102714 0.215208 0.043282 0.074661 0.187154 0.043282 0.03931 0.160261 0.043282 0.000126 0.154056 0.043282 -0.03906 0.160261 0.043282 -0.074409 0.187154 0.043282 -0.102463 0.215208 0.043282 -0.120476 0.241675 0.043282 -0.126681 0.280861 0.043282 -0.115539 0.318442 0.028159 -0.098265 0.352347 0.028159 -0.071359 0.379251 0.028159 -0.037456 0.396527 0.028159 0.000126 0.402479 0.028159 0.037707 0.396527 0.028159 0.07161 0.379251 0.028159 0.098515 0.352345 0.028159 0.11579 0.318442 0.028159 0.121743 0.280861 0.028159 0.11579 0.243281 0.028159 0.098515 0.218257 0.028159 0.07161 0.191352 0.028159 0.037707 0.165197 0.028159 0.000126 0.159245 0.028159 -0.037456 0.165197 0.028159 -0.071359 0.191352 0.028159 -0.098265 0.218257 0.028159 -0.115539 0.243281 0.028159 -0.121493 0.280861 0.028159 0.000126 0.280861 0.028159 -0.093609 0.409875 0.047434 -0.049153 0.432526 0.047434 0.000126 0.440332 0.047434 0.049404 0.432526 0.047434 0.093859 0.409875 0.047434 0.129139 0.374595 0.047434 0.15179 0.330141 0.047434 0.159596 0.280861 0.047434 0.15179 0.231582 0.047434 0.129139 0.19601 0.047434 0.093859 0.160728 0.047434 0.049404 0.129196 0.047434 0.000126 0.121392 0.047434 -0.049153 0.129196 0.047434 -0.093609 0.160728 0.047434 -0.128889 0.19601 0.047434 -0.151539 0.231582 0.047434 -0.159345 0.280861 0.047434 -0.151539 0.330141 0.047434 -0.128889 0.374595 0.047434 -0.078016 0.388415 0.039964 -0.040956 0.407295 0.039964 0.000126 0.413802 0.039964 0.041206 0.407295 0.039964 0.078267 0.388413 0.039964 0.107678 0.359003 0.039964 0.126559 0.321942 0.039964 0.133067 0.280861 0.039964 0.126559 0.239781 0.039964 0.107678 0.211602 0.039964 0.078265 0.18219 0.039964 0.041206 0.154427 0.039964 0.000126 0.14792 0.039964 -0.040956 0.154427 0.039964 -0.078016 0.182191 0.039964 -0.107427 0.211602 0.039964 -0.126309 0.239781 0.039964 -0.132816 0.280861 0.039964 -0.126309 0.321942 0.039964 -0.107427 0.359003 0.039964 -0.079551 0.390525 0.044394 -0.041763 0.409781 0.044394 0.000126 0.416413 0.044394 0.042013 0.409781 0.044394 0.079801 0.390525 0.044394 0.109789 0.360537 0.044394 0.129044 0.322749 0.044394 0.135678 0.280861 0.044394 0.129044 0.238974 0.044394 0.109789 0.210068 0.044394 0.079801 0.180078 0.044394 0.042013 0.151944 0.044394 0.000126 0.14531 0.044394 -0.041763 0.151944 0.044394 -0.079551 0.180078 0.044394 -0.109539 0.210068 0.044394 -0.128793 0.238974 0.044394 -0.135428 0.280861 0.044394 -0.128793 0.322749 0.044394 -0.109539 0.360537 0.044394 -0.15159 0.330156 -0.051834 -0.128931 0.374627 -0.051834 -0.093639 0.409917 -0.051834 -0.04917 0.432577 -0.051834 0.000126 0.440383 -0.051834 0.04942 0.432577 -0.051834 0.093889 0.409917 -0.051834 0.129182 0.374627 -0.051834 0.151841 0.330156 -0.051834 0.159648 0.280861 -0.051834 0.151841 0.231567 -0.051834 0.129182 0.195978 -0.051834 0.093889 0.160688 -0.051834 0.04942 0.129147 -0.051834 0.000126 0.121339 -0.051834 -0.04917 0.129147 -0.051834 -0.093639 0.160688 -0.051834 -0.128931 0.195978 -0.051834 -0.15159 0.231567 -0.051834 -0.159397 0.280861 -0.051834 0.000126 0.280861 -0.051834 0.241636 0.061158 -0.02253 0.241636 0.366033 -0.02253 -0.000992 0.140679 -0.02253 -0.000993 0.366033 -0.02253 0.241636 0.061158 -0.025944 0.241636 0.366033 -0.025944 -0.000992 0.140679 -0.025944 -0.000993 0.366033 -0.025944 0.241636 0.061158 -0.02253 0.241636 0.366033 -0.02253 -0.000992 0.140679 -0.02253 -0.000993 0.366033 -0.02253 0.241636 0.061158 -0.025944 0.241636 0.366033 -0.025944 -0.000992 0.140679 -0.025944 -0.000993 0.366033 -0.025944 0.241636 0.061158 -0.024454 0.241636 0.366033 -0.024454 -0.000992 0.140679 -0.024454 -0.000993 0.366033 -0.024454 0.241636 0.061158 -0.027868 0.241636 0.366033 -0.027868 -0.000992 0.140679 -0.027868 -0.000993 0.366033 -0.027868 -0.243623 0.061158 -0.02253 -0.243623 0.366033 -0.02253 -0.000992 0.140679 -0.02253 -0.000993 0.366033 -0.02253 -0.243623 0.061158 -0.025944 -0.243623 0.366033 -0.025944 -0.000992 0.140679 -0.025944 -0.000993 0.366033 -0.025944 -0.243623 0.061158 -0.02253 -0.243623 0.366033 -0.02253 -0.000992 0.140679 -0.02253 -0.000993 0.366033 -0.02253 -0.243623 0.061158 -0.025944 -0.243623 0.366033 -0.025944 -0.000992 0.140679 -0.025944 -0.000993 0.366033 -0.025944 -0.243623 0.061158 -0.024454 -0.243623 0.366033 -0.024454 -0.000992 0.140679 -0.024454 -0.000993 0.366033 -0.024454 -0.243623 0.061158 -0.027868 -0.243623 0.366033 -0.027868 -0.000992 0.140679 -0.027868 -0.000993 0.366033 -0.027868 0.343967 0.078619 0.031222 0.343967 0.395197 0.031222 -0.000993 0.078619 0.031222 -0.000993 0.395197 0.031222 0.343967 0.078619 0.028296 0.343967 0.395197 0.028296 -0.000993 0.078619 0.028296 -0.000993 0.395197 0.028296 0.343967 0.078619 0.031222 0.343967 0.395197 0.031222 -0.000993 0.078619 0.031222 -0.000993 0.395197 0.031222 0.343967 0.078619 0.028296 0.343967 0.395197 0.028296 -0.000993 0.078619 0.028296 -0.000993 0.395197 0.028296 0.343967 0.078619 0.029299 0.343967 0.395197 0.029299 -0.000993 0.078619 0.029299 -0.000993 0.395197 0.029299 0.343967 0.078619 0.026373 0.343967 0.395197 0.026373 -0.000993 0.078619 0.026373 -0.000993 0.395197 0.026373 -0.345954 0.078619 0.031222 -0.345954 0.395197 0.031222 -0.000993 0.078619 0.031222 -0.000993 0.395197 0.031222 -0.345954 0.078619 0.028296 -0.345954 0.395197 0.028296 -0.000993 0.078619 0.028296 -0.000993 0.395197 0.028296 -0.345954 0.078619 0.031222 -0.345954 0.395197 0.031222 -0.000993 0.078619 0.031222 -0.000993 0.395197 0.031222 -0.345954 0.078619 0.028296 -0.345954 0.395197 0.028296 -0.000993 0.078619 0.028296 -0.000993 0.395197 0.028296 -0.345954 0.078619 0.029299 -0.345954 0.395197 0.029299 -0.000993 0.078619 0.029299 -0.000993 0.395197 0.029299 -0.345954 0.078619 0.026373 -0.345954 0.395197 0.026373 -0.000993 0.078619 0.026373 -0.000993 0.395197 0.026373 0.153201 0.349335 0.022971 -0.141326 0.349335 0.022971 0.153201 0.508843 0.022971 -0.141326 0.508843 0.022971 0.006021 0.399309 0.022971 0.006021 0.508852 0.022971 0.153201 0.349335 0.019335 -0.141326 0.349335 0.019335 0.153201 0.508843 0.019335 -0.141326 0.508843 0.019335 0.006021 0.399309 0.019335 0.006021 0.508852 0.019335 0.153201 0.349335 0.022971 -0.141326 0.349335 0.022971 0.153201 0.508843 0.022971 -0.141326 0.508843 0.022971 0.006021 0.399309 0.022971 0.006021 0.508852 0.022971 0.153201 0.349335 0.019335 -0.141326 0.349335 0.019335 0.153201 0.508843 0.019335 -0.141326 0.508843 0.019335 0.006021 0.399309 0.019335 0.006021 0.508852 0.019335 0.153201 0.349335 0.021048 -0.141326 0.349335 0.021048 0.153201 0.508843 0.021048 -0.141326 0.508843 0.021048 0.006021 0.399309 0.021048 0.006021 0.508852 0.021048 0.153201 0.349335 0.01741 -0.141326 0.349335 0.01741 0.153201 0.508843 0.01741 -0.141326 0.508843 0.01741 0.006021 0.399309 0.01741 0.006021 0.508852 0.01741</float_array>
          <technique_common>
            <accessor source="#polySurfaceShape37-positions-array" count="342" stride="3">
              <param name="X" type="float"/>
              <param name="Y" type="float"/>
              <param name="Z" type="float"/>
            </accessor>
          </technique_common>
        </source>
        <source id="polySurfaceShape37-normals" name="normal">
          <float_array id="polySurfaceShape37-normals-array" count="1596">0 0 -1 0 0 -1 0 0 -1 0 0 -1 0 1 0 0 1 0 0 1 0 0 1 0 0 0 1 0 0 1 0 0 1 0 0 1 -1 0 0 -1 0 0 -1 0 0 -1 0 0 1 0 0 1 0 0 1 0 0 1 0 0 0 0 -1 0 0 -1 0 0 -1 0 0 -1 0 1 0 0 1 0 0 1 0 0 1 0 0 0 1 0 0 1 0 0 1 0 0 1 -1 0 0 -1 0 0 -1 0 0 -1 0 0 1 0 0 1 0 0 1 0 0 1 0 0 0 0.714396 -0.699742 0 0.528399 -0.848996 0 0.528399 -0.848996 0 0.714396 -0.699742 -0.701296 0.71287 0 -0.851687 0.524051 0 -0.851687 0.524051 0 -0.701296 0.71287 0 0 0.714396 0.699742 0 0.5284 0.848996 0 0.5284 0.848996 0 0.714396 0.699742 0.701347 0.71282 0 0.851679 0.524064 0 0.851679 0.524064 0 0.701347 0.71282 0 0 -1 0 0 -1 0 0 -1 0 0 -1 0 0 1 0 0 1 0 0 1 0 0 1 0 0 0.312352 -0.949966 0 0.312352 -0.949966 -0.95245 0.304696 0 -0.95245 0.304696 0 0 0.312353 0.949966 0 0.312353 0.949966 0.952419 0.304791 0 0.952419 0.304791 0 0 -0.014882 -0.999889 0 -0.014882 -0.999889 0 -0.014882 -0.999889 0 -0.014882 -0.999889 -0.985345 -0.170574 0 -0.985345 -0.170574 0 -0.985345 -0.170574 0 -0.985345 -0.170574 0 0 -0.014882 0.999889 0 -0.014882 0.999889 0 -0.014882 0.999889 0 -0.014882 0.999889 0.985344 -0.170578 0 0.985344 -0.170578 0 0.985344 -0.170578 0 0.985344 -0.170578 0 0 0.613372 -0.789794 0 0.613372 -0.789794 0 0.613372 -0.789794 0 0.613372 -0.789794 -0.727433 0.686179 0 -0.727433 0.686179 0 -0.727433 0.686179 0 -0.727433 0.686179 0 0 0.613443 0.789739 0 0.613443 0.789739 0 0.613443 0.789739 0 0.613443 0.789739 0.727431 0.686181 0 0.727431 0.686181 0 0.727431 0.686181 0 0.727431 0.686181 0 0 0.905149 -0.425095 0 0.905149 -0.425095 0 0.905149 -0.425095 0 0.905149 -0.425095 -0.316378 0.948633 0 -0.316378 0.948633 0 -0.316378 0.948633 0 -0.316378 0.948633 0 0 0.905119 0.425159 0 0.905119 0.425159 0 0.905119 0.425159 0 0.905119 0.425159 0.316415 0.948621 0 0.316415 0.948621 0 0.316415 0.948621 0 0.316415 0.948621 0 0 -0.000815 -1 0 -0.000815 -1 0 -0.000815 -1 0 -0.000815 -1 -0.999997 -0.002379 0 -0.999997 -0.002379 0 -0.999997 -0.002379 0 -0.999997 -0.002379 0 0 -0.000816 1 0 -0.000816 1 0 -0.000816 1 0 -0.000816 1 0.99927 0.038197 0 0.99927 0.038197 0 0.99927 0.038197 0 0.99927 0.038197 0 1 0 0 1 0 0 1 0 0 1 0 0 0 0 -1 0 0 -1 0 0 -1 0 0 -1 -1 0 0 -1 0 0 -1 0 0 -1 0 0 0 0 1 0 0 1 0 0 1 0 0 1 -0.951056 0.30902 0 -0.809017 0.587785 0 -0.809017 0.587785 0 -0.951056 0.30902 0 -0.587796 0.80901 0 -0.587796 0.80901 0 -0.309014 0.951058 0 -0.309014 0.951058 0 0.000002 1 0 0.000002 1 0 0.309028 0.951053 0 0.309028 0.951053 0 0.587798 0.809008 0 0.587798 0.809008 0 0.809012 0.587793 0 0.809012 0.587793 0 0.951056 0.30902 0 0.951056 0.30902 0 1 -0.000002 0 1 -0.000002 0 0.936174 -0.351536 0 0.936174 -0.351536 0 0.781727 -0.62362 0 0.781727 -0.62362 0 0.642542 -0.766251 0 0.642542 -0.766251 0 0.374309 -0.927304 0 0.374309 -0.927304 0 0.000002 -1 0 0.000002 -1 0 -0.374307 -0.927305 0 -0.374307 -0.927305 0 -0.642542 -0.766251 0 -0.642542 -0.766251 0 -0.781727 -0.62362 0 -0.781727 -0.62362 0 -0.936174 -0.351537 0 -0.936174 -0.351537 0 -1 -0.000002 0 -1 -0.000002 0 -0.538855 0.3915 0.745897 -0.633464 0.205827 0.745895 -0.281074 0.091327 0.955331 -0.239096 0.173713 0.955331 -0.391498 0.538837 0.745911 -0.17371 0.239085 0.955334 -0.20582 0.63345 0.745909 -0.091323 0.281066 0.955333 0.000001 0.666066 0.745893 0.000000 0.295542 0.95533 0.205832 0.633461 0.745896 0.09133 0.281073 0.955331 0.391514 0.538859 0.745887 0.17372 0.239099 0.955329 0.538862 0.39151 0.745887 0.2391 0.173719 0.955329 0.633464 0.205827 0.745895 0.281074 0.091327 0.95533 0.66607 -0.000001 0.745889 0.295543 -0.000000 0.955329 0.620995 -0.234333 0.747966 0.274937 -0.103272 0.9559 0.522611 -0.417968 0.743089 0.232629 -0.185515 0.954708 0.431978 -0.513681 0.741301 0.191878 -0.228918 0.954348 0.249499 -0.614059 0.748787 0.109696 -0.271419 0.95619 0.000001 -0.666068 0.745891 0.000000 -0.295543 0.955329 -0.249498 -0.614059 0.748787 -0.109695 -0.271419 0.95619 -0.431977 -0.513681 0.741301 -0.191877 -0.228918 0.954348 -0.52261 -0.417967 0.743089 -0.232629 -0.185515 0.954708 -0.620994 -0.234332 0.747967 -0.274937 -0.103272 0.9559 -0.66607 -0.000001 0.745889 -0.295543 -0.000000 0.955329 0.290535 -0.211102 0.933288 0.341533 -0.110972 0.933296 0.89956 -0.292283 0.324595 0.765209 -0.555963 0.324593 0.211106 -0.290555 0.93328 0.555958 -0.765217 0.324582 0.110983 -0.341535 0.933293 0.292288 -0.899564 0.324581 -0.000001 -0.359102 0.933298 -0.000002 -0.945861 0.324572 -0.110988 -0.341544 0.93329 -0.292301 -0.899566 0.324563 -0.211114 -0.29056 0.933277 -0.555967 -0.765218 0.324564 -0.290533 -0.211098 0.933289 -0.765203 -0.555965 0.324603 -0.341527 -0.110973 0.933298 -0.899556 -0.292286 0.324605 -0.359116 0 0.933293 -0.945858 0 0.324581 -0.32926 0.132299 0.934925 -0.877953 0.349679 0.32699 -0.277311 0.232102 0.932324 -0.728584 0.605067 0.321029 -0.239707 0.271368 0.932148 -0.624514 0.712797 0.319221 -0.139919 0.323766 0.935734 -0.372776 0.868172 0.32759 -0.000001 0.359194 0.933263 -0.000002 0.945875 0.324531 0.139926 0.323774 0.93573 0.372781 0.868175 0.327577 0.239724 0.271389 0.932138 0.624519 0.712805 0.319194 0.277321 0.232115 0.932317 0.728583 0.605075 0.321015 0.32926 0.132299 0.934925 0.877953 0.349679 0.32699 0.359116 0 0.933293 0.945858 0 0.324581 0 0 1 0 0 1 0 0 1 0 0 1 0 0 1 0 0 1 0 0 1 0 0 1 0 0 1 0 0 1 0 0 1 0 0 1 0 0 1 0 0 1 0 0 1 0 0 1 0 0 1 0 0 1 0 0 1 0 0 1 0 0 1 0.322185 -0.443442 0.836394 0.169354 -0.521223 0.836448 -0.000001 -0.548003 0.836476 -0.16935 -0.521201 0.836463 -0.322163 -0.443409 0.836421 -0.443431 -0.32217 0.836406 -0.521249 -0.169365 0.83643 -0.548057 0 0.836441 -0.507313 0.198201 0.83866 -0.426837 0.349597 0.834022 -0.36176 0.418871 0.832872 -0.211024 0.500584 0.839574 -0.000001 0.54816 0.836374 0.211021 0.500579 0.839578 0.361758 0.418867 0.832876 0.426837 0.349597 0.834022 0.507313 0.198201 0.83866 0.548057 0 0.836441 0.521249 -0.169365 0.83643 0.443446 -0.32218 0.836394 -0.147006 0.452478 0.879575 -0.279601 0.384854 0.879608 0.000001 0.475794 0.879557 0.147014 0.452474 0.879576 0.279603 0.384853 0.879608 0.384868 0.279617 0.879597 0.452476 0.147016 0.879575 0.475759 0 0.879576 0.439814 -0.173683 0.881134 0.370416 -0.305304 0.877258 0.3164 -0.363979 0.87602 0.185239 -0.434104 0.881612 0.000001 -0.47566 0.879629 -0.185234 -0.434095 0.881617 -0.316383 -0.36396 0.876034 -0.370402 -0.305294 0.877267 -0.439814 -0.173683 0.881135 -0.475758 0 0.879576 -0.452476 0.147016 0.879575 -0.384873 0.279613 0.879596 0.506386 -0.696969 0.507748 0.266185 -0.819246 0.507919 -0.000002 -0.861353 0.508007 -0.266181 -0.819218 0.507965 -0.506359 -0.696927 0.507832 -0.696955 -0.506366 0.507786 -0.819276 -0.2662 0.507863 -0.861417 0 0.507898 -0.800547 0.313473 0.510743 -0.667874 0.547958 0.503673 -0.566145 0.654281 0.501395 -0.334396 0.791547 0.511501 -0.000002 0.861546 0.50768 0.334391 0.791542 0.511512 0.566142 0.654275 0.501405 0.667875 0.547958 0.503672 0.800548 0.313473 0.510742 0.861418 0 0.507897 0.819276 -0.2662 0.507863 0.696975 -0.506378 0.507748 -0.696473 0.226298 -0.680966 -0.592438 0.430434 -0.680987 -0.322027 0.233968 -0.917365 -0.378578 0.123008 -0.917359 -0.430432 0.592423 -0.681002 -0.233965 0.322017 -0.917368 -0.226288 0.696447 -0.680996 -0.123001 0.378561 -0.917367 0.000001 0.732299 -0.680983 0.000000 0.398051 -0.917364 0.2263 0.696456 -0.680983 0.123008 0.378567 -0.917364 0.430446 0.592443 -0.680976 0.233975 0.322031 -0.917361 0.592443 0.430444 -0.680976 0.322031 0.233974 -0.917362 0.696473 0.226298 -0.680966 0.378579 0.123008 -0.917359 0.732327 -0.000001 -0.680953 0.398069 -0.000000 -0.917355 0.683174 -0.257753 -0.683255 0.37025 -0.139691 -0.918369 0.57411 -0.459177 -0.677905 0.312877 -0.250241 -0.916236 0.474318 -0.563998 -0.675965 0.258812 -0.307746 -0.915592 0.274445 -0.67568 -0.684205 0.148477 -0.365548 -0.918874 0.000001 -0.732299 -0.680984 0.000000 -0.39805 -0.917364 -0.274444 -0.675681 -0.684205 -0.148476 -0.365548 -0.918874 -0.474318 -0.563998 -0.675965 -0.258812 -0.307746 -0.915592 -0.57411 -0.459176 -0.677905 -0.312877 -0.250241 -0.916236 -0.683173 -0.257753 -0.683255 -0.37025 -0.139691 -0.918369 -0.732327 -0.000001 -0.680953 -0.398069 -0.000000 -0.917355 0 0 -1 0 0 1 0 0 1 0 0 1 0 0 1 0 0 -1 0 0 -1 0 0 -1 0 0 -1 0 0 1 0 0 1 0 0 1 0 0 1 0 0 -1 0 0 -1 0 0 -1 0 0 -1 0 0 1 0 0 1 0 0 1 0 0 1 0 0 -1 0 0 -1 0 0 -1 0 0 -1 0 0 1 0 0 1 0 0 1 0 0 1 0 0 -1 0 0 -1 0 0 -1 0 0 -1 0 0 1 0 0 1 0 0 1 0 0 1 0 0 -1 0 0 -1 0 0 -1 0 0 -1 0 0 1 0 0 1 0 0 1 0 0 1 0 0 -1 0 0 -1 0 0 -1 0 0 -1 0 0 1 0 0 1 0 0 1 0 0 1 0 0 -1 0 0 -1 0 0 -1 0 0 -1 0 0 1 0 0 1 0 0 1 0 0 1 0 0 -1 0 0 -1 0 0 -1 0 0 -1 0 0 1 0 0 1 0 0 1 0 0 1 0 0 -1 0 0 -1 0 0 -1 0 0 -1 0 0 1 0 0 1 0 0 1 0 0 1 0 0 -1 0 0 -1 0 0 -1 0 0 -1 0 0 1 0 0 1 0 0 1 0 0 1 0 0 -1 0 0 -1 0 0 -1 0 0 -1 0 0 1 0 0 1 0 0 1 0 0 1 0 0 -1 0 0 -1 0 0 -1 0 0 -1 0 0 1 0 0 1 0 0 1 0 0 1 0 0 1 0 0 1 0 0 -1 0 0 -1 0 0 -1 0 0 -1 0 0 -1 0 0 -1 0 0 -1 0 0 -1 0 0 1 0 0 1 0 0 1 0 0 1 0 0 1 0 0 1 0 0 -1 0 0 -1 0 0 -1 0 0 -1 0 0 -1 0 0 -1 0 0 -1 0 0 -1 0 0 1 0 0 1 0 0 1 0 0 1 0 0 1 0 0 1 0 0 -1 0 0 -1 0 0 -1 0 0 -1 0 0 -1 0 0 -1 0 0 -1 0 0 -1</float_array>
          <technique_common>
            <accessor source="#polySurfaceShape37-normals-array" count="532" stride="3">
              <param name="X" type="float"/>
              <param name="Y" type="float"/>
              <param name="Z" type="float"/>
            </accessor>
          </technique_common>
        </source>
        <source id="polySurfaceShape37-map1" name="map1">
          <float_array id="polySurfaceShape37-map1-array" count="976">0.17998 0.386463 0.17998 0.007837 0.172972 0.007837 0.172972 0.386463 0.168416 0.386463 0.168416 0.007837 0.149018 0.007837 0.149017 0.386463 0.144145 0.386463 0.144145 0.007837 0.137137 0.007837 0.137137 0.386463 0.144858 0.391314 0.135989 0.391314 0.135989 0.403123 0.144858 0.403123 0.087209 0.403123 0.096078 0.403123 0.096078 0.391314 0.087209 0.391314 0.131296 0.386463 0.131296 0.007837 0.124288 0.007838 0.124288 0.386463 0.118447 0.386463 0.118447 0.007837 0.099049 0.007837 0.099049 0.386463 0.094177 0.386463 0.094177 0.007837 0.087168 0.007837 0.087168 0.386463 0.128598 0.391314 0.119729 0.391314 0.119729 0.403123 0.128598 0.403123 0.103469 0.403123 0.112338 0.403123 0.112338 0.391314 0.103469 0.391314 0.683711 0.037493 0.702686 0.028216 0.702686 0.730909 0.683711 0.721632 0.50798 0.204688 0.528436 0.194642 0.528436 0.312789 0.50798 0.302743 0.857792 0.721632 0.876767 0.730909 0.876767 0.028216 0.857792 0.037493 0.508461 0.132793 0.528815 0.142789 0.528815 0.025231 0.508461 0.035227 0.192969 0.009255 0.326887 0.009255 0.326887 0.33635 0.192969 0.33635 0.42429 0.020868 0.341556 0.020868 0.341556 0.320225 0.42429 0.320225 0.727445 0.024404 0.727445 0.73472 0.555128 0.190419 0.555128 0.317012 0.901526 0.73472 0.901526 0.024404 0.555374 0.146991 0.555374 0.02103 0.747545 0.74384 0.747545 0.015284 0.7595 0.015042 0.7595 0.744083 0.576797 0.325108 0.576797 0.182323 0.589684 0.18212 0.589684 0.32531 0.921626 0.015284 0.921626 0.74384 0.933581 0.744083 0.93358 0.015042 0.576934 0.012974 0.576934 0.155046 0.589757 0.155248 0.589757 0.012773 0.772832 0.006164 0.772832 0.75296 0.604057 0.174337 0.604057 0.333094 0.946912 0.75296 0.946912 0.006164 0.604058 0.162992 0.604058 0.005028 0.815471 0.005381 0.815471 0.752911 0.650025 0.174356 0.650025 0.333075 0.989552 0.752911 0.989552 0.005381 0.650025 0.162974 0.650025 0.005047 0.495497 0.035227 0.495497 0.132793 0.671625 0.721632 0.671625 0.037493 0.494951 0.302744 0.494951 0.204688 0.845706 0.037493 0.845706 0.721632 0.008761 0.4088 0.008765 0.435022 0.074428 0.435021 0.074424 0.408799 0.008771 0.461244 0.074434 0.461242 0.008779 0.487466 0.074442 0.487464 0.008787 0.513689 0.07445 0.513686 0.008795 0.539911 0.074459 0.539908 0.008795 0.015472 0.008803 0.041694 0.074466 0.041691 0.074459 0.015469 0.008809 0.067916 0.074472 0.067914 0.008813 0.094137 0.074477 0.094136 0.008814 0.120358 0.074478 0.120358 0.008813 0.14658 0.074476 0.146581 0.008809 0.172802 0.074473 0.172803 0.008803 0.199023 0.074466 0.199025 0.008795 0.225245 0.074459 0.225247 0.008787 0.251467 0.07445 0.251469 0.008779 0.277689 0.074442 0.277691 0.008771 0.303911 0.074435 0.303913 0.008765 0.330133 0.074428 0.330135 0.008761 0.356355 0.074425 0.356356 0.00876 0.382577 0.074423 0.382577 0.434927 0.547669 0.367733 0.531199 0.363981 0.536754 0.42779 0.552394 0.488253 0.573321 0.47843 0.576754 0.52249 0.605645 0.510942 0.60745 0.534288 0.641477 0.522145 0.641477 0.52249 0.677308 0.510942 0.675503 0.488253 0.709632 0.478429 0.706199 0.434927 0.735285 0.42779 0.730559 0.367733 0.751755 0.363981 0.746199 0.293247 0.75743 0.293248 0.751589 0.218762 0.751755 0.222514 0.746199 0.151568 0.735285 0.158705 0.730559 0.098243 0.709632 0.108066 0.706199 0.064005 0.677308 0.075553 0.675503 0.052208 0.641477 0.06435 0.641477 0.064005 0.605645 0.075553 0.60745 0.098243 0.573321 0.108066 0.576754 0.151568 0.547669 0.158705 0.552394 0.218762 0.531199 0.222514 0.536754 0.293248 0.525524 0.293247 0.531365 0.452158 0.53542 0.37635 0.516839 0.372912 0.521931 0.445617 0.539751 0.512319 0.564361 0.503316 0.567508 0.550945 0.600828 0.540361 0.602483 0.564254 0.641253 0.553126 0.641253 0.550945 0.681677 0.540361 0.680023 0.512319 0.718144 0.503316 0.714998 0.452158 0.747085 0.445617 0.742754 0.376351 0.765666 0.372912 0.760575 0.292318 0.772069 0.292318 0.766715 0.208285 0.765666 0.211724 0.760575 0.132478 0.747085 0.139019 0.742754 0.072317 0.718144 0.08132 0.714998 0.033691 0.681677 0.044275 0.680023 0.020382 0.641253 0.03151 0.641253 0.033691 0.600828 0.044275 0.602483 0.072317 0.564361 0.08132 0.567508 0.132478 0.53542 0.139019 0.539752 0.208285 0.516839 0.211724 0.521931 0.292318 0.510437 0.292318 0.51579 0.157257 0.688733 0.133345 0.666158 0.29345 0.641133 0.1945 0.70665 0.241429 0.718152 0.29345 0.722116 0.345471 0.718152 0.3924 0.706649 0.429643 0.688733 0.453554 0.666158 0.461794 0.641133 0.453554 0.616108 0.429643 0.593533 0.3924 0.575617 0.345471 0.564114 0.29345 0.560151 0.241429 0.564114 0.1945 0.575617 0.157257 0.593533 0.133346 0.616108 0.125106 0.641133 0.450656 0.586461 0.478292 0.612554 0.487815 0.641477 0.478292 0.6704 0.450656 0.696492 0.407611 0.717198 0.353372 0.730493 0.293248 0.735074 0.233123 0.730493 0.178884 0.717198 0.135839 0.696492 0.108203 0.6704 0.098681 0.641477 0.108203 0.612554 0.135839 0.586461 0.178883 0.565755 0.233123 0.55246 0.293248 0.547879 0.353372 0.55246 0.407611 0.565755 0.563457 0.598873 0.522963 0.560641 0.57741 0.641253 0.563457 0.683633 0.522963 0.721864 0.459891 0.752205 0.380416 0.771685 0.292318 0.778397 0.20422 0.771685 0.124745 0.752205 0.061674 0.721864 0.021179 0.683633 0.007226 0.641253 0.021179 0.598873 0.061674 0.560641 0.124745 0.5303 0.20422 0.510821 0.292318 0.504108 0.380416 0.510821 0.459891 0.5303 0.447624 0.587521 0.474728 0.613111 0.484067 0.641477 0.474728 0.669843 0.447624 0.695432 0.405408 0.71574 0.352214 0.728778 0.293248 0.733271 0.234281 0.728778 0.181087 0.71574 0.138871 0.695432 0.111767 0.669843 0.102428 0.641477 0.111767 0.613111 0.138871 0.587521 0.181086 0.567213 0.234281 0.554175 0.293248 0.549682 0.352214 0.554175 0.405408 0.567213 0.523615 0.335891 0.574978 0.34848 0.569557 0.35207 0.520764 0.340111 0.615741 0.368089 0.608279 0.370697 0.641912 0.392798 0.63314 0.394169 0.65093 0.420188 0.641706 0.420188 0.641912 0.447578 0.63314 0.446206 0.615741 0.472286 0.608279 0.469678 0.574978 0.491895 0.569557 0.488305 0.523615 0.504485 0.520764 0.500265 0.466677 0.508823 0.466677 0.504386 0.40974 0.504485 0.41259 0.500265 0.358376 0.491895 0.363798 0.488305 0.317614 0.472286 0.325076 0.469678 0.291442 0.447578 0.300215 0.446206 0.282425 0.420188 0.291648 0.420188 0.291442 0.392798 0.300215 0.394169 0.317614 0.368089 0.325076 0.370697 0.358376 0.34848 0.363798 0.35207 0.40974 0.335891 0.41259 0.340111 0.466677 0.331553 0.466677 0.33599 0.466677 0.420188 0.482964 0.991278 0.482964 0.766435 0.984557 0.766435 0.984557 0.991278 0.482964 0.991278 0.984557 0.991278 0.984557 0.766435 0.482964 0.766435 0.482964 0.991278 0.482964 0.766435 0.984557 0.766435 0.984557 0.991278 0.482964 0.991278 0.984557 0.991278 0.984557 0.766435 0.482964 0.766435 0.482964 0.991278 0.482964 0.766435 0.984557 0.766435 0.984557 0.991278 0.482964 0.991278 0.984557 0.991278 0.984557 0.766435 0.482964 0.766435 0.482964 0.991278 0.984557 0.991278 0.984557 0.766435 0.482964 0.766435 0.482964 0.991278 0.482964 0.766435 0.984557 0.766435 0.984557 0.991278 0.482964 0.991278 0.984557 0.991278 0.984557 0.766435 0.482964 0.766435 0.482964 0.991278 0.482964 0.766435 0.984557 0.766435 0.984557 0.991278 0.482964 0.991278 0.984557 0.991278 0.984557 0.766435 0.482964 0.766435 0.482964 0.991278 0.482964 0.766435 0.984557 0.766435 0.984557 0.991278 0.469956 0.991278 0.469956 0.764989 0.984557 0.770771 0.984557 0.991278 0.482964 0.991278 0.984557 0.991278 0.984557 0.766435 0.482964 0.766435 0.469956 0.991278 0.469956 0.764989 0.984557 0.770771 0.984557 0.991278 0.482964 0.991278 0.984557 0.991278 0.984557 0.766435 0.482964 0.766435 0.469956 0.991278 0.469956 0.764989 0.984557 0.770771 0.984557 0.991278 0.482964 0.991278 0.984557 0.991278 0.984557 0.766435 0.482964 0.766435 0.469956 0.991278 0.984557 0.991278 0.984557 0.770771 0.469956 0.764989 0.482964 0.991278 0.482964 0.766435 0.984557 0.766435 0.984557 0.991278 0.469956 0.991278 0.984557 0.991278 0.984557 0.770771 0.469956 0.764989 0.482964 0.991278 0.482964 0.766435 0.984557 0.766435 0.984557 0.991278 0.469956 0.991278 0.984557 0.991278 0.984557 0.770771 0.469956 0.764989 0.482964 0.991278 0.482964 0.766435 0.984557 0.766435 0.984557 0.991278 0.015454 0.790206 0.015454 0.88871 0.236327 0.88871 0.236327 0.790206 0.457451 0.88871 0.457451 0.790206 0.015454 0.790206 0.236327 0.790206 0.236327 0.88871 0.015454 0.88871 0.457451 0.790206 0.457451 0.88871 0.015454 0.790206 0.015454 0.88871 0.236327 0.88871 0.236327 0.790206 0.457451 0.88871 0.457451 0.790206 0.015454 0.790206 0.236327 0.790206 0.236327 0.88871 0.015454 0.88871 0.457451 0.790206 0.457451 0.88871 0.015454 0.790206 0.015454 0.88871 0.236327 0.88871 0.236327 0.790206 0.457451 0.88871 0.457451 0.790206 0.015454 0.790206 0.236327 0.790206 0.236327 0.88871 0.015454 0.88871 0.457451 0.790206 0.457451 0.88871</float_array>
          <technique_common>
            <accessor source="#polySurfaceShape37-map1-array" count="488" stride="2">
              <param name="S" type="float"/>
              <param name="T" type="float"/>
            </accessor>
          </technique_common>
        </source>
        <vertices id="polySurfaceShape37-vertices">
          <input semantic="POSITION" source="#polySurfaceShape37-positions"/>
        </vertices>
        <triangles material="initialShadingGroup" count="472">
          <input semantic="VERTEX" source="#polySurfaceShape37-vertices" offset="0"/>
          <input semantic="NORMAL" source="#polySurfaceShape37-normals" offset="1"/>
          <input semantic="TEXCOORD" source="#polySurfaceShape37-map1" offset="2" set="0"/>
          <p>2 0 0 3 1 1 4 3 3 4 3 3 3 1 1 5 2 2 4 4 4 5 5 5 6 7 7 6 7 7 5 5 5 7 6 6 6 8 8 7 9 9 0 11 11 0 11 11 7 9 9 1 10 10 1 12 12 7 13 13 3 15 15 3 15 15 7 13 13 5 14 14 6 16 16 0 17 17 4 19 19 4 19 19 0 17 17 2 18 18 10 20 20 11 21 21 12 23 23 12 23 23 11 21 21 13 22 22 12 24 24 13 25 25 14 27 27 14 27 27 13 25 25 15 26 26 14 28 28 15 29 29 8 31 31 8 31 31 15 29 29 9 30 30 9 32 32 15 33 33 11 35 35 11 35 35 15 33 33 13 34 34 14 36 36 8 37 37 12 39 39 12 39 39 8 37 37 10 38 38 16 40 40 24 41 41 18 43 43 18 43 43 24 41 41 25 42 42 18 44 44 25 45 45 20 47 47 20 47 47 25 45 45 26 46 46 20 48 48 26 49 49 22 51 51 22 51 51 26 49 49 27 50 50 22 52 52 27 53 53 16 55 55 16 55 55 27 53 53 24 54 54 17 56 56 23 57 57 19 59 59 19 59 59 23 57 57 21 58 58 44 60 60 45 61 61 47 63 63 47 63 63 45 61 61 46 62 62 25 42 42 24 41 41 33 65 65 33 65 65 24 41 41 32 64 64 26 46 46 25 45 45 34 67 67 34 67 67 25 45 45 33 66 66 27 50 50 26 49 49 35 69 69 35 69 69 26 49 49 34 68 68 24 54 54 27 53 53 32 71 71 32 71 71 27 53 53 35 70 70 29 72 72 28 73 73 37 75 75 37 75 75 28 73 73 36 74 74 30 76 76 29 77 77 38 79 79 38 79 79 29 77 77 37 78 78 31 80 80 30 81 81 39 83 83 39 83 83 30 81 81 38 82 82 28 84 84 31 85 85 36 87 87 36 87 87 31 85 85 39 86 86 33 88 65 32 89 64 29 91 72 29 91 72 32 89 64 28 90 73 34 92 67 33 93 66 30 95 76 30 95 76 33 93 66 29 94 77 35 96 69 34 97 68 31 99 80 31 99 80 34 97 68 30 98 81 32 100 71 35 101 70 28 103 84 28 103 84 35 101 70 31 102 85 37 104 75 36 105 74 41 107 89 41 107 89 36 105 74 40 106 88 38 108 79 37 109 78 42 111 91 42 111 91 37 109 78 41 110 90 39 112 83 38 113 82 43 115 93 43 115 93 38 113 82 42 114 92 36 116 87 39 117 86 40 119 95 40 119 95 39 117 86 43 118 94 41 120 89 40 121 88 19 123 97 19 123 97 40 121 88 17 122 96 42 124 91 41 125 90 21 127 99 21 127 99 41 125 90 19 126 98 42 129 92 21 130 100 43 128 93 43 128 93 21 130 100 23 131 101 40 132 95 43 133 94 17 135 103 17 135 103 43 133 94 23 134 102 22 136 52 16 137 55 44 139 105 44 139 105 16 137 55 45 138 104 16 140 40 18 141 43 45 143 107 45 143 107 18 141 43 46 142 106 18 144 44 20 145 47 46 147 109 46 147 109 20 145 47 47 146 108 20 148 48 22 149 51 47 151 111 47 151 111 22 149 51 44 150 110 48 152 112 49 153 113 68 155 115 68 155 115 49 153 113 69 154 114 49 153 113 50 156 116 69 154 114 69 154 114 50 156 116 70 157 117 50 156 116 51 158 118 70 157 117 70 157 117 51 158 118 71 159 119 51 158 118 52 160 120 71 159 119 71 159 119 52 160 120 72 161 121 52 160 120 53 162 122 72 161 121 72 161 121 53 162 122 73 163 123 53 162 124 54 164 125 73 163 127 73 163 127 54 164 125 74 165 126 54 164 125 55 166 128 74 165 126 74 165 126 55 166 128 75 167 129 55 166 128 56 168 130 75 167 129 75 167 129 56 168 130 76 169 131 56 168 130 57 170 132 76 169 131 76 169 131 57 170 132 77 171 133 57 170 132 58 172 134 77 171 133 77 171 133 58 172 134 78 173 135 58 172 134 59 174 136 78 173 135 78 173 135 59 174 136 79 175 137 59 174 136 60 176 138 79 175 137 79 175 137 60 176 138 80 177 139 60 176 138 61 178 140 80 177 139 80 177 139 61 178 140 81 179 141 61 178 140 62 180 142 81 179 141 81 179 141 62 180 142 82 181 143 62 180 142 63 182 144 82 181 143 82 181 143 63 182 144 83 183 145 63 182 144 64 184 146 83 183 145 83 183 145 64 184 146 84 185 147 64 184 146 65 186 148 84 185 147 84 185 147 65 186 148 85 187 149 65 186 148 66 188 150 85 187 149 85 187 149 66 188 150 86 189 151 66 188 150 67 190 152 86 189 151 86 189 151 67 190 152 87 191 153 67 190 152 48 152 112 87 191 153 87 191 153 48 152 112 68 155 115 49 192 154 48 193 155 148 195 157 148 195 157 48 193 155 147 194 156 50 196 158 49 192 154 129 197 159 129 197 159 49 192 154 148 195 157 51 198 160 50 196 158 130 199 161 130 199 161 50 196 158 129 197 159 52 200 162 51 198 160 131 201 163 131 201 163 51 198 160 130 199 161 53 202 164 52 200 162 132 203 165 132 203 165 52 200 162 131 201 163 54 204 166 53 202 164 133 205 167 133 205 167 53 202 164 132 203 165 55 206 168 54 204 166 134 207 169 134 207 169 54 204 166 133 205 167 56 208 170 55 206 168 135 209 171 135 209 171 55 206 168 134 207 169 57 210 172 56 208 170 136 211 173 136 211 173 56 208 170 135 209 171 58 212 174 57 210 172 137 213 175 137 213 175 57 210 172 136 211 173 58 212 174 137 213 175 59 214 176 59 214 176 137 213 175 138 215 177 60 216 178 59 214 176 139 217 179 139 217 179 59 214 176 138 215 177 61 218 180 60 216 178 140 219 181 140 219 181 60 216 178 139 217 179 62 220 182 61 218 180 141 221 183 141 221 183 61 218 180 140 219 181 63 222 184 62 220 182 142 223 185 142 223 185 62 220 182 141 221 183 63 222 184 142 223 185 64 224 186 64 224 186 142 223 185 143 225 187 65 226 188 64 224 186 144 227 189 144 227 189 64 224 186 143 225 187 66 228 190 65 226 188 145 229 191 145 229 191 65 226 188 144 227 189 67 230 192 66 228 190 146 231 193 146 231 193 66 228 190 145 229 191 48 193 155 67 230 192 147 194 156 147 194 156 67 230 192 146 231 193 89 232 194 88 233 195 109 235 197 109 235 197 88 233 195 108 234 196 90 236 198 89 232 194 110 237 199 110 237 199 89 232 194 109 235 197 91 238 200 90 236 198 111 239 201 111 239 201 90 236 198 110 237 199 92 240 202 91 238 200 112 241 203 112 241 203 91 238 200 111 239 201 93 242 204 92 240 202 113 243 205 113 243 205 92 240 202 112 241 203 94 244 206 93 242 204 114 245 207 114 245 207 93 242 204 113 243 205 95 246 208 94 244 206 115 247 209 115 247 209 94 244 206 114 245 207 96 248 210 95 246 208 116 249 211 116 249 211 95 246 208 115 247 209 97 250 212 96 248 210 117 251 213 117 251 213 96 248 210 116 249 211 98 252 214 97 250 212 118 253 215 118 253 215 97 250 212 117 251 213 98 252 214 118 253 215 99 254 216 99 254 216 118 253 215 119 255 217 100 256 218 99 254 216 120 257 219 120 257 219 99 254 216 119 255 217 101 258 220 100 256 218 121 259 221 121 259 221 100 256 218 120 257 219 102 260 222 101 258 220 122 261 223 122 261 223 101 258 220 121 259 221 103 262 224 102 260 222 123 263 225 123 263 225 102 260 222 122 261 223 103 262 224 123 263 225 104 264 226 104 264 226 123 263 225 124 265 227 105 266 228 104 264 226 125 267 229 125 267 229 104 264 226 124 265 227 106 268 230 105 266 228 126 269 231 126 269 231 105 266 228 125 267 229 107 270 232 106 268 230 127 271 233 127 271 233 106 268 230 126 269 231 88 233 195 107 270 232 108 234 196 108 234 196 107 270 232 127 271 233 109 272 234 108 273 235 128 274 236 110 275 237 109 272 234 128 274 236 111 276 238 110 275 237 128 274 236 112 277 239 111 276 238 128 274 236 113 278 240 112 277 239 128 274 236 114 279 241 113 278 240 128 274 236 115 280 242 114 279 241 128 274 236 116 281 243 115 280 242 128 274 236 117 282 244 116 281 243 128 274 236 118 283 245 117 282 244 128 274 236 119 284 246 118 283 245 128 274 236 120 285 247 119 284 246 128 274 236 121 286 248 120 285 247 128 274 236 122 287 249 121 286 248 128 274 236 123 288 250 122 287 249 128 274 236 124 289 251 123 288 250 128 274 236 125 290 252 124 289 251 128 274 236 126 291 253 125 290 252 128 274 236 127 292 254 126 291 253 128 274 236 108 273 235 127 292 254 128 274 236 130 199 161 129 197 159 170 294 256 170 294 256 129 197 159 169 293 255 131 201 163 130 199 161 171 295 257 171 295 257 130 199 161 170 294 256 132 203 165 131 201 163 172 296 258 172 296 258 131 201 163 171 295 257 133 205 167 132 203 165 173 297 259 173 297 259 132 203 165 172 296 258 134 207 169 133 205 167 174 298 260 174 298 260 133 205 167 173 297 259 135 209 171 134 207 169 175 299 261 175 299 261 134 207 169 174 298 260 136 211 173 135 209 171 176 300 262 176 300 262 135 209 171 175 299 261 137 213 175 136 211 173 177 301 263 177 301 263 136 211 173 176 300 262 137 213 175 177 301 263 138 215 177 138 215 177 177 301 263 178 302 264 139 217 179 138 215 177 179 303 265 179 303 265 138 215 177 178 302 264 140 219 181 139 217 179 180 304 266 180 304 266 139 217 179 179 303 265 141 221 183 140 219 181 181 305 267 181 305 267 140 219 181 180 304 266 142 223 185 141 221 183 182 306 268 182 306 268 141 221 183 181 305 267 142 223 185 182 306 268 143 225 187 143 225 187 182 306 268 183 307 269 144 227 189 143 225 187 184 308 270 184 308 270 143 225 187 183 307 269 145 229 191 144 227 189 185 309 271 185 309 271 144 227 189 184 308 270 146 231 193 145 229 191 186 310 272 186 310 272 145 229 191 185 309 271 147 194 156 146 231 193 187 311 273 187 311 273 146 231 193 186 310 272 148 195 157 147 194 156 188 312 274 188 312 274 147 194 156 187 311 273 129 197 159 148 195 157 169 293 255 169 293 255 148 195 157 188 312 274 150 313 275 149 314 276 91 238 200 91 238 200 149 314 276 90 236 198 151 315 277 150 313 275 92 240 202 92 240 202 150 313 275 91 238 200 152 316 278 151 315 277 93 242 204 93 242 204 151 315 277 92 240 202 153 317 279 152 316 278 94 244 206 94 244 206 152 316 278 93 242 204 154 318 280 153 317 279 95 246 208 95 246 208 153 317 279 94 244 206 155 319 281 154 318 280 96 248 210 96 248 210 154 318 280 95 246 208 156 320 282 155 319 281 97 250 212 97 250 212 155 319 281 96 248 210 157 321 283 156 320 282 98 252 214 98 252 214 156 320 282 97 250 212 157 321 283 98 252 214 158 322 284 158 322 284 98 252 214 99 254 216 159 323 285 158 322 284 100 256 218 100 256 218 158 322 284 99 254 216 160 324 286 159 323 285 101 258 220 101 258 220 159 323 285 100 256 218 161 325 287 160 324 286 102 260 222 102 260 222 160 324 286 101 258 220 162 326 288 161 325 287 103 262 224 103 262 224 161 325 287 102 260 222 162 326 288 103 262 224 163 327 289 163 327 289 103 262 224 104 264 226 164 328 290 163 327 289 105 266 228 105 266 228 163 327 289 104 264 226 165 329 291 164 328 290 106 268 230 106 268 230 164 328 290 105 266 228 166 330 292 165 329 291 107 270 232 107 270 232 165 329 291 106 268 230 167 331 293 166 330 292 88 233 195 88 233 195 166 330 292 107 270 232 168 332 294 167 331 293 89 232 194 89 232 194 167 331 293 88 233 195 149 314 276 168 332 294 90 236 198 90 236 198 168 332 294 89 232 194 170 294 256 169 293 255 150 334 296 150 334 296 169 293 255 149 333 295 171 295 257 170 294 256 151 335 297 151 335 297 170 294 256 150 334 296 172 296 258 171 295 257 152 336 298 152 336 298 171 295 257 151 335 297 173 297 259 172 296 258 153 337 299 153 337 299 172 296 258 152 336 298 174 298 260 173 297 259 154 338 300 154 338 300 173 297 259 153 337 299 175 299 261 174 298 260 155 339 301 155 339 301 174 298 260 154 338 300 176 300 262 175 299 261 156 340 302 156 340 302 175 299 261 155 339 301 177 301 263 176 300 262 157 341 303 157 341 303 176 300 262 156 340 302 177 301 263 157 341 303 178 302 264 178 302 264 157 341 303 158 342 304 179 303 265 178 302 264 159 343 305 159 343 305 178 302 264 158 342 304 180 304 266 179 303 265 160 344 306 160 344 306 179 303 265 159 343 305 181 305 267 180 304 266 161 345 307 161 345 307 180 304 266 160 344 306 182 306 268 181 305 267 162 346 308 162 346 308 181 305 267 161 345 307 182 306 268 162 346 308 183 307 269 183 307 269 162 346 308 163 347 309 184 308 270 183 307 269 164 348 310 164 348 310 183 307 269 163 347 309 185 309 271 184 308 270 165 349 311 165 349 311 184 308 270 164 348 310 186 310 272 185 309 271 166 350 312 166 350 312 185 309 271 165 349 311 187 311 273 186 310 272 167 351 313 167 351 313 186 310 272 166 350 312 188 312 274 187 311 273 168 352 314 168 352 314 187 311 273 167 351 313 169 293 255 188 312 274 149 333 295 149 333 295 188 312 274 168 352 314 68 353 315 69 354 316 189 356 318 189 356 318 69 354 316 190 355 317 69 354 316 70 357 319 190 355 317 190 355 317 70 357 319 191 358 320 70 357 319 71 359 321 191 358 320 191 358 320 71 359 321 192 360 322 71 359 321 72 361 323 192 360 322 192 360 322 72 361 323 193 362 324 72 361 323 73 363 325 193 362 324 193 362 324 73 363 325 194 364 326 73 363 325 74 365 327 194 364 326 194 364 326 74 365 327 195 366 328 74 365 327 75 367 329 195 366 328 195 366 328 75 367 329 196 368 330 75 367 329 76 369 331 196 368 330 196 368 330 76 369 331 197 370 332 76 369 331 77 371 333 197 370 332 197 370 332 77 371 333 198 372 334 77 371 333 78 373 335 198 372 334 198 372 334 78 373 335 199 374 336 78 373 335 79 375 337 199 374 336 199 374 336 79 375 337 200 376 338 79 375 337 80 377 339 200 376 338 200 376 338 80 377 339 201 378 340 81 379 341 202 380 342 80 377 339 80 377 339 202 380 342 201 378 340 81 379 341 82 381 343 202 380 342 202 380 342 82 381 343 203 382 344 82 381 343 83 383 345 203 382 344 203 382 344 83 383 345 204 384 346 83 383 345 84 385 347 204 384 346 204 384 346 84 385 347 205 386 348 84 385 347 85 387 349 205 386 348 205 386 348 85 387 349 206 388 350 86 389 351 207 390 352 85 387 349 85 387 349 207 390 352 206 388 350 86 389 351 87 391 353 207 390 352 207 390 352 87 391 353 208 392 354 87 391 353 68 353 315 208 392 354 208 392 354 68 353 315 189 356 318 189 356 318 190 355 317 209 393 355 190 355 317 191 358 320 209 393 355 191 358 320 192 360 322 209 393 355 192 360 322 193 362 324 209 393 355 193 362 324 194 364 326 209 393 355 194 364 326 195 366 328 209 393 355 195 366 328 196 368 330 209 393 355 196 368 330 197 370 332 209 393 355 197 370 332 198 372 334 209 393 355 198 372 334 199 374 336 209 393 355 199 374 336 200 376 338 209 393 355 200 376 338 201 378 340 209 393 355 201 378 340 202 380 342 209 393 355 202 380 342 203 382 344 209 393 355 203 382 344 204 384 346 209 393 355 204 384 346 205 386 348 209 393 355 205 386 348 206 388 350 209 393 355 206 388 350 207 390 352 209 393 355 207 390 352 208 392 354 209 393 355 208 392 354 189 356 318 209 393 355 213 394 356 212 395 357 211 397 359 211 397 359 212 395 357 210 396 358 217 398 360 215 399 361 216 401 363 216 401 363 215 399 361 214 400 362 221 402 364 220 403 365 219 405 367 219 405 367 220 403 365 218 404 366 225 406 368 223 407 369 224 409 371 224 409 371 223 407 369 222 408 370 229 410 372 228 411 373 227 413 375 227 413 375 228 411 373 226 412 374 233 414 376 231 415 377 232 417 379 232 417 379 231 415 377 230 416 378 237 418 380 235 419 381 236 421 383 236 421 383 235 419 381 234 420 382 241 422 384 240 423 385 239 425 387 239 425 387 240 423 385 238 424 386 245 426 388 243 427 389 244 429 391 244 429 391 243 427 389 242 428 390 249 430 392 248 431 393 247 433 395 247 433 395 248 431 393 246 432 394 253 434 396 251 435 397 252 437 399 252 437 399 251 435 397 250 436 398 257 438 400 256 439 401 255 441 403 255 441 403 256 439 401 254 440 402 261 442 404 260 443 405 259 445 407 259 445 407 260 443 405 258 444 406 265 446 408 263 447 409 264 449 411 264 449 411 263 447 409 262 448 410 269 450 412 268 451 413 267 453 415 267 453 415 268 451 413 266 452 414 273 454 416 271 455 417 272 457 419 272 457 419 271 455 417 270 456 418 277 458 420 276 459 421 275 461 423 275 461 423 276 459 421 274 460 422 281 462 424 279 463 425 280 465 427 280 465 427 279 463 425 278 464 426 285 466 428 283 467 429 284 469 431 284 469 431 283 467 429 282 468 430 289 470 432 288 471 433 287 473 435 287 473 435 288 471 433 286 472 434 293 474 436 291 475 437 292 477 439 292 477 439 291 475 437 290 476 438 297 478 440 296 479 441 295 481 443 295 481 443 296 479 441 294 480 442 301 482 444 299 483 445 300 485 447 300 485 447 299 483 445 298 484 446 305 486 448 304 487 449 303 489 451 303 489 451 304 487 449 302 488 450 306 490 452 308 491 453 310 493 455 310 493 455 308 491 453 311 492 454 311 492 454 309 494 456 310 493 455 310 493 455 309 494 456 307 495 457 312 496 458 316 497 459 314 499 461 314 499 461 316 497 459 317 498 460 317 500 460 316 501 459 315 503 463 315 503 463 316 501 459 313 502 462 318 504 464 320 505 465 322 507 467 322 507 467 320 505 465 323 506 466 323 506 466 321 508 468 322 507 467 322 507 467 321 508 468 319 509 469 324 510 470 328 511 471 326 513 473 326 513 473 328 511 471 329 512 472 329 514 472 328 515 471 327 517 475 327 517 475 328 515 471 325 516 474 330 518 476 332 519 477 334 521 479 334 521 479 332 519 477 335 520 478 335 520 478 333 522 480 334 521 479 334 521 479 333 522 480 331 523 481 336 524 482 340 525 483 338 527 485 338 527 485 340 525 483 341 526 484 341 528 484 340 529 483 339 531 487 339 531 487 340 529 483 337 530 486</p>
        </triangles>
      </mesh>
      <extra>
        <technique profile="MAYA">
          <double_sided>1</double_sided>
        </technique>
      </extra>
    </geometry>
  </library_geometries>
  <library_visual_scenes>
    <visual_scene id="VisualSceneNode" name="clock_desk3">
      <node id="smallhand" name="smallhand" type="NODE">
        <rotate sid="rotateZ">0 0 1 0</rotate>
        <rotate sid="rotateY">0 1 0 0</rotate>
        <rotate sid="rotateX">1 0 0 0</rotate>
        <instance_geometry url="#smallhandShape">
          <bind_material>
            <technique_common>
              <instance_material symbol="initialShadingGroup" target="#lambert1">
                <bind_vertex_input semantic="TEX0" input_semantic="TEXCOORD" input_set="0"/>
              </instance_material>
            </technique_common>
          </bind_material>
        </instance_geometry>
      </node>
      <node id="bighand" name="bighand" type="NODE">
        <rotate sid="rotateZ">0 0 1 0</rotate>
        <rotate sid="rotateY">0 1 0 0</rotate>
        <rotate sid="rotateX">1 0 0 0</rotate>
        <instance_geometry url="#bighandShape">
          <bind_material>
            <technique_common>
              <instance_material symbol="initialShadingGroup" target="#lambert1">
                <bind_vertex_input semantic="TEX0" input_semantic="TEXCOORD" input_set="0"/>
              </instance_material>
            </technique_common>
          </bind_material>
        </instance_geometry>
      </node>
      <node id="polySurface37" name="polySurface37" type="NODE">
        <rotate sid="rotateZ">0 0 1 0</rotate>
        <rotate sid="rotateY">0 1 0 0</rotate>
        <rotate sid="rotateX">1 0 0 0</rotate>
        <instance_geometry url="#polySurfaceShape37">
          <bind_material>
            <technique_common>
              <instance_material symbol="initialShadingGroup" target="#lambert1">
                <bind_vertex_input semantic="TEX0" input_semantic="TEXCOORD" input_set="0"/>
              </instance_material>
            </technique_common>
          </bind_material>
        </instance_geometry>
      </node>
      <extra>
        <technique profile="FCOLLADA">
          <start_time>0.041666</start_time>
          <end_time>2</end_time>
        </technique>
      </extra>
    </visual_scene>
  </library_visual_scenes>
  <scene>
    <instance_physics_scene url="#MayaNativePhysicsScene"/>
    <instance_visual_scene url="#VisualSceneNode"/>
  </scene>
</COLLADA>
