<?xml version="1.0" encoding="utf-8"?>
<COLLADA xmlns="http://www.collada.org/2005/11/COLLADASchema" version="1.4.1">
  <asset>
    <contributor>
      <author>Mudbill</author>
      <authoring_tool>OpenCOLLADA2011 x64</authoring_tool>
      <comments>
			ColladaMaya export options: 
			bakeTransforms=0;relativePaths=0;copyTextures=0;exportTriangles=1;exportCgfxFileReferences=1;
			isSampling=0;curveConstrainSampling=0;removeStaticCurves=1;exportPolygonMeshes=1;exportLights=0;
			exportCameras=0;exportJointsAndSkin=1;exportAnimations=0;exportInvisibleNodes=0;exportDefaultCameras=0;
			exportTexCoords=1;exportNormals=1;exportNormalsPerVertex=1;exportVertexColors=1;exportVertexColorsPerVertex=1;
			exportTexTangents=0;exportTangents=0;exportReferencedMaterials=0;exportMaterialsOnly=0;
			exportXRefs=1;dereferenceXRefs=1;exportCameraAsLookat=0;cameraXFov=0;cameraYFov=1;doublePrecision=0
		</comments>
      <source_data>file:///Users/Mudbill/Documents/maya/projects/default/untitled</source_data>
    </contributor>
    <created>2020-04-08T17:38:11</created>
    <modified>2020-04-08T17:38:11</modified>
    <unit name="centimeter" meter="0.01"/>
    <up_axis>Y_UP</up_axis>
  </asset>
  <library_materials>
    <material id="lambert1" name="lambert1">
      <instance_effect url="#lambert1-fx"/>
    </material>
    <material id="fine01" name="fine01">
      <instance_effect url="#fine01-fx"/>
    </material>
  </library_materials>
  <library_effects>
    <effect id="fine01-fx">
      <profile_COMMON>
        <newparam sid="fine_wall1_dds-img-surface">
          <surface type="2D">
            <init_from>fine_wall1_dds-img</init_from>
          </surface>
        </newparam>
        <newparam sid="fine_wall1_dds-img-sampler">
          <sampler2D>
            <source>fine_wall1_dds-img-surface</source>
          </sampler2D>
        </newparam>
        <technique sid="common">
          <phong>
            <emission>
              <color>0 0 0 1</color>
            </emission>
            <ambient>
              <color>0.4 0.4 0.4 1</color>
            </ambient>
            <diffuse>
              <texture texture="fine_wall1_dds-img-sampler" texcoord="TEX0">
                <extra>
                  <technique profile="OpenCOLLADAMaya">
                    <blend_mode>NONE</blend_mode>
                    <coverageU>1</coverageU>
                    <coverageV>1</coverageV>
                    <fast>0</fast>
                    <mirrorU>0</mirrorU>
                    <mirrorV>0</mirrorV>
                    <noiseU>0</noiseU>
                    <noiseV>0</noiseV>
                    <offsetU>0</offsetU>
                    <offsetV>0</offsetV>
                    <repeatU>1</repeatU>
                    <repeatV>1</repeatV>
                    <rotateFrame>0</rotateFrame>
                    <rotateUV>0</rotateUV>
                    <stagger>0</stagger>
                    <translateFrameU>0</translateFrameU>
                    <translateFrameV>0</translateFrameV>
                    <wrapU>1</wrapU>
                    <wrapV>1</wrapV>
                  </technique>
                </extra>
              </texture>
            </diffuse>
            <specular>
              <color>0.5 0.5 0.5 1</color>
            </specular>
            <shininess>
              <float>12.5</float>
            </shininess>
            <reflective>
              <color>1 1 1 1</color>
            </reflective>
            <reflectivity>
              <float>0</float>
            </reflectivity>
            <transparent opaque="RGB_ZERO">
              <color>1 1 1 1</color>
            </transparent>
            <transparency>
              <float>1</float>
            </transparency>
          </phong>
        </technique>
      </profile_COMMON>
    </effect>
    <effect id="lambert1-fx">
      <profile_COMMON>
        <technique sid="common">
          <lambert>
            <emission>
              <color>0 0 0 1</color>
            </emission>
            <ambient>
              <color>0 0 0 1</color>
            </ambient>
            <diffuse>
              <color>0.4 0.4 0.4 1</color>
            </diffuse>
            <transparent opaque="RGB_ZERO">
              <color>0 0 0 1</color>
            </transparent>
            <transparency>
              <float>1</float>
            </transparency>
          </lambert>
        </technique>
      </profile_COMMON>
    </effect>
  </library_effects>
  <library_images>
    <image id="fine_wall1_dds-img" name="fine_wall1_dds_img">
      <init_from>fine_wall1.dds</init_from>
      <extra>
        <technique profile="OpenCOLLADAMaya">
          <dgnode_type>kFile</dgnode_type>
          <image_sequence>0</image_sequence>
          <originalMayaNodeId>fine_wall1_dds_img</originalMayaNodeId>
        </technique>
      </extra>
    </image>
  </library_images>
  <library_geometries>
    <geometry id="Plane_007" name="Plane_006">
      <mesh>
        <source id="Plane_007-positions" name="Plane_007-positions">
          <float_array id="Plane_007-positions-array" count="54">1 2.00017 2.9e-4 1 1.97517 0.00971 1 1.98767 0.0079 -1 1.98767 0.0079 -1 1.97517 0.00971 1 1.95017 -0.00903 -1 1.95017 -0.00903 -1 2.00017 2.9e-4 1 -1.7e-4 -0.00971 -1 -1.7e-4 -0.00971 1 0.06283 -0.00971 -1 0.06283 -0.00971 1 0.04981 2.9e-4 -1 0.04981 2.9e-4 -1 -1.7e-4 2.9e-4 1 -1.7e-4 2.9e-4 1 1.93757 -0.00971 -1 1.93757 -0.00971</float_array>
          <technique_common>
            <accessor source="#Plane_007-positions-array" count="18" stride="3">
              <param name="X" type="float"/>
              <param name="Y" type="float"/>
              <param name="Z" type="float"/>
            </accessor>
          </technique_common>
        </source>
        <source id="Plane_007-normals" name="Plane_007-normals">
          <float_array id="Plane_007-normals-array" count="144">0 0.1433307 0.9896748 0 0.1433307 0.9896748 0 0.1433307 0.9896748 0 0.1433307 0.9896748 0 0.1433307 0.9896748 0 0.1433307 0.9896748 0 0.5196804 0.8543607 0 0.5196804 0.8543607 0 0.5196804 0.8543607 0 0.5196804 0.8543607 0 0.5196804 0.8543607 0 0.5196804 0.8543607 0 -0.5996575 0.8002567 0 -0.5996575 0.8002567 0 -0.5996575 0.8002567 0 -0.5996575 0.8002567 0 -0.5996575 0.8002567 0 -0.5996575 0.8002567 0 -0.05390977 0.9985458 0 -0.05390977 0.9985458 0 -0.05390977 0.9985458 0 -0.05390977 0.9985458 0 -0.05390977 0.9985458 0 -0.05390977 0.9985458 0 0.6090794 0.7931092 0 0.6090794 0.7931092 0 0.6090794 0.7931092 0 0.6090794 0.7931092 0 0.6090794 0.7931092 0 0.6090794 0.7931092 0 -0.9999999 0 0 -0.9999999 0 0 -0.9999999 0 0 -0.9999999 0 0 -0.9999999 0 0 -0.9999999 0 0 0 0.9999999 0 0 0.9999999 0 0 0.9999999 0 0 0.9999999 0 0 0.9999999 0 0 0.9999999 0 0 0.9999999 0 0 0.9999999 0 0 0.9999999 0 0 0.9999999 0 0 0.9999999 0 0 0.9999999</float_array>
          <technique_common>
            <accessor source="#Plane_007-normals-array" count="48" stride="3">
              <param name="X" type="float"/>
              <param name="Y" type="float"/>
              <param name="Z" type="float"/>
            </accessor>
          </technique_common>
        </source>
        <source id="Plane_007-Plane_007-UV" name="Plane_007-Plane_007-UV">
          <float_array id="Plane_007-Plane_007-UV-array" count="96">0.75358 0.00575 0.75358 0.012 0.25358 0.012 0.25358 0.012 0.25358 0.00575 0.75358 0.00575 0.25358 0.00575 0.25358 -5e-4 0.75358 -5e-4 0.75358 -5e-4 0.75358 0.00575 0.25358 0.00575 0.75358 0.012 0.75358 0.02449 0.25358 0.02449 0.25358 0.02449 0.25358 0.012 0.75358 0.012 0.25358 0.02449 0.75358 0.02449 0.75358 0.03099 0.75358 0.03099 0.25358 0.03099 0.25358 0.02449 0.75119 0.03151 0.25119 0.03151 0.25119 0.025 0.25119 0.025 0.75119 0.025 0.75119 0.03151 0.25119 0 0.75119 0 0.75119 0 0.75119 0 0.25119 0 0.25119 0 0.25119 0.025 0.25119 0 0.75119 0 0.75119 0 0.75119 0.025 0.25119 0.025 0.75119 0.03151 0.75119 1.0005 0.25119 1.0005 0.25119 1.0005 0.25119 0.03151 0.75119 0.03151</float_array>
          <technique_common>
            <accessor source="#Plane_007-Plane_007-UV-array" count="48" stride="2">
              <param name="S" type="float"/>
              <param name="T" type="float"/>
            </accessor>
          </technique_common>
        </source>
        <vertices id="Plane_007-vertices" name="Plane_007-vertices">
          <input semantic="POSITION" source="#Plane_007-positions"/>
        </vertices>
        <triangles material="fine01SG" count="16">
          <input semantic="VERTEX" source="#Plane_007-vertices" offset="0"/>
          <input semantic="NORMAL" source="#Plane_007-normals" offset="1"/>
          <input semantic="TEXCOORD" source="#Plane_007-Plane_007-UV" offset="2" set="0"/>
          <p>3 0 0 4 1 1 1 2 2 1 3 3 2 4 4 3 5 5 2 6 6 0 7 7 7 8 8 7 9 9 3 10 10 2 11 11 4 12 12 6 13 13 5 14 14 5 15 15 1 16 16 4 17 17 5 18 18 6 19 19 17 20 20 17 21 21 16 22 22 5 23 23 10 24 24 11 25 25 13 26 26 13 27 27 12 28 28 10 29 29 9 30 30 8 31 31 15 32 32 15 33 33 14 34 34 9 35 35 13 36 36 14 37 37 15 38 38 15 39 39 12 40 40 13 41 41 10 42 42 16 43 43 17 44 44 17 45 45 11 46 46 10 47 47</p>
        </triangles>
      </mesh>
      <extra>
        <technique profile="OpenCOLLADAMaya">
          <originalMayaNodeId>Plane_006</originalMayaNodeId>
          <double_sided>1</double_sided>
        </technique>
      </extra>
    </geometry>
  </library_geometries>
  <library_visual_scenes>
    <visual_scene id="VisualSceneNode" name="untitled">
      <node id="Plane_006" name="Plane_006" type="NODE">
        <translate sid="translate">0.00059 0.00000 -0.00039</translate>
        <rotate sid="rotateZ">0 0 1 0</rotate>
        <rotate sid="rotateY">0 1 0 -90</rotate>
        <rotate sid="rotateX">1 0 0 0</rotate>
        <scale sid="scale">1 2 2</scale>
        <instance_geometry url="#Plane_007">
          <bind_material>
            <technique_common>
              <instance_material symbol="fine01SG" target="#fine01">
                <bind_vertex_input semantic="TEX0" input_semantic="TEXCOORD" input_set="0"/>
              </instance_material>
            </technique_common>
          </bind_material>
        </instance_geometry>
        <extra>
          <technique profile="OpenCOLLADAMaya">
            <originalMayaNodeId>Plane_006</originalMayaNodeId>
          </technique>
        </extra>
      </node>
    </visual_scene>
  </library_visual_scenes>
  <scene>
    <instance_visual_scene url="#VisualSceneNode"/>
  </scene>
</COLLADA>