<?xml version="1.0"?>
<font>
  <info face="Palatino Linotype" size="32" bold="0" italic="0" charset="" unicode="1" stretchH="100" smooth="1" aa="1" padding="0,0,0,0" spacing="1,1" outline="0"/>
  <common lineHeight="32" base="25" scaleW="256" scaleH="256" pages="1" packed="0" alphaChnl="0" redChnl="4" greenChnl="4" blueChnl="4"/>
  <pages>
    <page id="0" file="palatino_0.dds" />
  </pages>
  <chars count="191">
    <char id="32" x="153" y="84" width="3" height="1" xoffset="-1" yoffset="31" xadvance="6" page="0" chnl="15" />
    <char id="33" x="91" y="142" width="5" height="17" xoffset="1" yoffset="8" xadvance="7" page="0" chnl="15" />
    <char id="34" x="223" y="166" width="8" height="6" xoffset="0" yoffset="8" xadvance="8" page="0" chnl="15" />
    <char id="35" x="244" y="83" width="11" height="17" xoffset="0" yoffset="8" xadvance="12" page="0" chnl="15" />
    <char id="36" x="118" y="47" width="12" height="20" xoffset="0" yoffset="7" xadvance="12" page="0" chnl="15" />
    <char id="37" x="48" y="71" width="20" height="17" xoffset="0" yoffset="8" xadvance="20" page="0" chnl="15" />
    <char id="38" x="80" y="88" width="19" height="17" xoffset="0" yoffset="8" xadvance="19" page="0" chnl="15" />
    <char id="39" x="239" y="166" width="3" height="6" xoffset="1" yoffset="8" xadvance="4" page="0" chnl="15" />
    <char id="40" x="60" y="24" width="7" height="23" xoffset="1" yoffset="8" xadvance="8" page="0" chnl="15" />
    <char id="41" x="52" y="24" width="7" height="23" xoffset="0" yoffset="8" xadvance="8" page="0" chnl="15" />
    <char id="42" x="170" y="169" width="9" height="8" xoffset="0" yoffset="8" xadvance="9" page="0" chnl="15" />
    <char id="43" x="13" y="177" width="12" height="11" xoffset="0" yoffset="12" xadvance="12" page="0" chnl="15" />
    <char id="44" x="193" y="167" width="6" height="7" xoffset="-1" yoffset="22" xadvance="6" page="0" chnl="15" />
    <char id="45" x="55" y="186" width="8" height="2" xoffset="0" yoffset="18" xadvance="8" page="0" chnl="15" />
    <char id="46" x="19" y="189" width="4" height="3" xoffset="1" yoffset="22" xadvance="6" page="0" chnl="15" />
    <char id="47" x="141" y="47" width="9" height="20" xoffset="-1" yoffset="8" xadvance="8" page="0" chnl="15" />
    <char id="48" x="205" y="120" width="12" height="17" xoffset="0" yoffset="8" xadvance="12" page="0" chnl="15" />
    <char id="49" x="26" y="143" width="10" height="17" xoffset="1" yoffset="8" xadvance="12" page="0" chnl="15" />
    <char id="50" x="0" y="143" width="12" height="17" xoffset="0" yoffset="8" xadvance="12" page="0" chnl="15" />
    <char id="51" x="231" y="119" width="12" height="17" xoffset="0" yoffset="8" xadvance="12" page="0" chnl="15" />
    <char id="52" x="242" y="101" width="13" height="17" xoffset="-1" yoffset="8" xadvance="12" page="0" chnl="15" />
    <char id="53" x="13" y="143" width="12" height="17" xoffset="0" yoffset="8" xadvance="12" page="0" chnl="15" />
    <char id="54" x="218" y="120" width="12" height="17" xoffset="0" yoffset="8" xadvance="12" page="0" chnl="15" />
    <char id="55" x="28" y="125" width="13" height="17" xoffset="0" yoffset="8" xadvance="12" page="0" chnl="15" />
    <char id="56" x="192" y="120" width="12" height="17" xoffset="0" yoffset="8" xadvance="12" page="0" chnl="15" />
    <char id="57" x="179" y="120" width="12" height="17" xoffset="0" yoffset="8" xadvance="12" page="0" chnl="15" />
    <char id="58" x="60" y="173" width="4" height="11" xoffset="1" yoffset="14" xadvance="6" page="0" chnl="15" />
    <char id="59" x="18" y="161" width="6" height="15" xoffset="0" yoffset="14" xadvance="6" page="0" chnl="15" />
    <char id="60" x="242" y="153" width="12" height="11" xoffset="0" yoffset="12" xadvance="12" page="0" chnl="15" />
    <char id="61" x="243" y="165" width="12" height="5" xoffset="0" yoffset="15" xadvance="12" page="0" chnl="15" />
    <char id="62" x="229" y="154" width="12" height="11" xoffset="0" yoffset="12" xadvance="12" page="0" chnl="15" />
    <char id="63" x="244" y="119" width="10" height="17" xoffset="0" yoffset="8" xadvance="11" page="0" chnl="15" />
    <char id="64" x="25" y="161" width="16" height="14" xoffset="0" yoffset="11" xadvance="16" page="0" chnl="15" />
    <char id="65" x="0" y="89" width="19" height="17" xoffset="0" yoffset="8" xadvance="19" page="0" chnl="15" />
    <char id="66" x="64" y="107" width="15" height="17" xoffset="-1" yoffset="8" xadvance="14" page="0" chnl="15" />
    <char id="67" x="157" y="84" width="17" height="17" xoffset="0" yoffset="8" xadvance="17" page="0" chnl="15" />
    <char id="68" x="215" y="65" width="19" height="17" xoffset="0" yoffset="8" xadvance="19" page="0" chnl="15" />
    <char id="69" x="0" y="107" width="15" height="17" xoffset="0" yoffset="8" xadvance="15" page="0" chnl="15" />
    <char id="70" x="0" y="125" width="13" height="17" xoffset="0" yoffset="8" xadvance="13" page="0" chnl="15" />
    <char id="71" x="235" y="65" width="19" height="17" xoffset="0" yoffset="8" xadvance="19" page="0" chnl="15" />
    <char id="72" x="90" y="69" width="20" height="17" xoffset="0" yoffset="8" xadvance="20" page="0" chnl="15" />
    <char id="73" x="48" y="143" width="9" height="17" xoffset="0" yoffset="8" xadvance="8" page="0" chnl="15" />
    <char id="74" x="202" y="24" width="10" height="22" xoffset="-1" yoffset="8" xadvance="8" page="0" chnl="15" />
    <char id="75" x="120" y="86" width="18" height="17" xoffset="0" yoffset="8" xadvance="17" page="0" chnl="15" />
    <char id="76" x="16" y="107" width="15" height="17" xoffset="0" yoffset="8" xadvance="15" page="0" chnl="15" />
    <char id="77" x="0" y="71" width="23" height="17" xoffset="0" yoffset="8" xadvance="23" page="0" chnl="15" />
    <char id="78" x="69" y="70" width="20" height="17" xoffset="0" yoffset="8" xadvance="20" page="0" chnl="15" />
    <char id="79" x="20" y="89" width="19" height="17" xoffset="0" yoffset="8" xadvance="19" page="0" chnl="15" />
    <char id="80" x="48" y="107" width="15" height="17" xoffset="0" yoffset="8" xadvance="15" page="0" chnl="15" />
    <char id="81" x="20" y="49" width="19" height="21" xoffset="0" yoffset="8" xadvance="19" page="0" chnl="15" />
    <char id="82" x="175" y="84" width="17" height="17" xoffset="0" yoffset="8" xadvance="16" page="0" chnl="15" />
    <char id="83" x="14" y="125" width="13" height="17" xoffset="0" yoffset="8" xadvance="13" page="0" chnl="15" />
    <char id="84" x="227" y="83" width="16" height="17" xoffset="-1" yoffset="8" xadvance="14" page="0" chnl="15" />
    <char id="85" x="40" y="89" width="19" height="17" xoffset="0" yoffset="8" xadvance="19" page="0" chnl="15" />
    <char id="86" x="60" y="89" width="19" height="17" xoffset="-1" yoffset="8" xadvance="17" page="0" chnl="15" />
    <char id="87" x="210" y="47" width="25" height="17" xoffset="0" yoffset="8" xadvance="24" page="0" chnl="15" />
    <char id="88" x="193" y="84" width="16" height="17" xoffset="0" yoffset="8" xadvance="16" page="0" chnl="15" />
    <char id="89" x="139" y="86" width="17" height="17" xoffset="-1" yoffset="8" xadvance="16" page="0" chnl="15" />
    <char id="90" x="210" y="84" width="16" height="17" xoffset="0" yoffset="8" xadvance="16" page="0" chnl="15" />
    <char id="91" x="221" y="24" width="7" height="22" xoffset="1" yoffset="8" xadvance="8" page="0" chnl="15" />
    <char id="92" x="131" y="47" width="9" height="20" xoffset="3" yoffset="8" xadvance="15" page="0" chnl="15" />
    <char id="93" x="213" y="24" width="7" height="22" xoffset="0" yoffset="8" xadvance="8" page="0" chnl="15" />
    <char id="94" x="106" y="172" width="12" height="9" xoffset="0" yoffset="8" xadvance="12" page="0" chnl="15" />
    <char id="95" x="64" y="185" width="14" height="1" xoffset="-1" yoffset="27" xadvance="12" page="0" chnl="15" />
    <char id="96" x="7" y="189" width="6" height="5" xoffset="1" yoffset="7" xadvance="8" page="0" chnl="15" />
    <char id="97" x="160" y="157" width="13" height="11" xoffset="0" yoffset="14" xadvance="12" page="0" chnl="15" />
    <char id="98" x="185" y="102" width="14" height="17" xoffset="-1" yoffset="8" xadvance="13" page="0" chnl="15" />
    <char id="99" x="26" y="176" width="11" height="11" xoffset="0" yoffset="14" xadvance="11" page="0" chnl="15" />
    <char id="100" x="170" y="102" width="14" height="17" xoffset="0" yoffset="8" xadvance="14" page="0" chnl="15" />
    <char id="101" x="216" y="154" width="12" height="11" xoffset="0" yoffset="14" xadvance="12" page="0" chnl="15" />
    <char id="102" x="58" y="143" width="9" height="17" xoffset="0" yoffset="8" xadvance="8" page="0" chnl="15" />
    <char id="103" x="196" y="47" width="13" height="18" xoffset="0" yoffset="14" xadvance="12" page="0" chnl="15" />
    <char id="104" x="80" y="106" width="14" height="17" xoffset="0" yoffset="8" xadvance="14" page="0" chnl="15" />
    <char id="105" x="182" y="138" width="6" height="16" xoffset="0" yoffset="9" xadvance="6" page="0" chnl="15" />
    <char id="106" x="68" y="24" width="6" height="23" xoffset="-1" yoffset="9" xadvance="6" page="0" chnl="15" />
    <char id="107" x="95" y="106" width="14" height="17" xoffset="0" yoffset="8" xadvance="12" page="0" chnl="15" />
    <char id="108" x="84" y="142" width="6" height="17" xoffset="0" yoffset="8" xadvance="6" page="0" chnl="15" />
    <char id="109" x="55" y="161" width="20" height="11" xoffset="0" yoffset="14" xadvance="20" page="0" chnl="15" />
    <char id="110" x="115" y="159" width="14" height="11" xoffset="0" yoffset="14" xadvance="14" page="0" chnl="15" />
    <char id="111" x="174" y="157" width="13" height="11" xoffset="0" yoffset="14" xadvance="13" page="0" chnl="15" />
    <char id="112" x="166" y="47" width="14" height="18" xoffset="0" yoffset="14" xadvance="14" page="0" chnl="15" />
    <char id="113" x="181" y="47" width="14" height="18" xoffset="0" yoffset="14" xadvance="13" page="0" chnl="15" />
    <char id="114" x="38" y="176" width="10" height="11" xoffset="0" yoffset="14" xadvance="9" page="0" chnl="15" />
    <char id="115" x="49" y="174" width="10" height="11" xoffset="0" yoffset="14" xadvance="10" page="0" chnl="15" />
    <char id="116" x="0" y="161" width="8" height="15" xoffset="0" yoffset="10" xadvance="8" page="0" chnl="15" />
    <char id="117" x="130" y="158" width="14" height="11" xoffset="0" yoffset="14" xadvance="14" page="0" chnl="15" />
    <char id="118" x="145" y="157" width="14" height="11" xoffset="-1" yoffset="14" xadvance="12" page="0" chnl="15" />
    <char id="119" x="76" y="161" width="19" height="11" xoffset="0" yoffset="14" xadvance="19" page="0" chnl="15" />
    <char id="120" x="202" y="154" width="13" height="11" xoffset="0" yoffset="14" xadvance="12" page="0" chnl="15" />
    <char id="121" x="151" y="47" width="14" height="18" xoffset="-1" yoffset="14" xadvance="12" page="0" chnl="15" />
    <char id="122" x="0" y="177" width="12" height="11" xoffset="0" yoffset="14" xadvance="12" page="0" chnl="15" />
    <char id="123" x="86" y="47" width="7" height="21" xoffset="1" yoffset="8" xadvance="8" page="0" chnl="15" />
    <char id="124" x="249" y="24" width="2" height="18" xoffset="5" yoffset="7" xadvance="12" page="0" chnl="15" />
    <char id="125" x="94" y="47" width="7" height="21" xoffset="0" yoffset="8" xadvance="8" page="0" chnl="15" />
    <char id="126" x="24" y="189" width="12" height="2" xoffset="0" yoffset="17" xadvance="12" page="0" chnl="15" />
    <char id="160" x="249" y="43" width="3" height="1" xoffset="-1" yoffset="31" xadvance="6" page="0" chnl="15" />
    <char id="161" x="97" y="142" width="5" height="17" xoffset="1" yoffset="14" xadvance="7" page="0" chnl="15" />
    <char id="162" x="245" y="137" width="10" height="15" xoffset="1" yoffset="12" xadvance="12" page="0" chnl="15" />
    <char id="163" x="42" y="125" width="13" height="17" xoffset="-1" yoffset="8" xadvance="12" page="0" chnl="15" />
    <char id="164" x="65" y="173" width="12" height="10" xoffset="0" yoffset="15" xadvance="12" page="0" chnl="15" />
    <char id="165" x="56" y="125" width="13" height="17" xoffset="-1" yoffset="8" xadvance="12" page="0" chnl="15" />
    <char id="166" x="252" y="24" width="2" height="18" xoffset="5" yoffset="7" xadvance="12" page="0" chnl="15" />
    <char id="167" x="189" y="24" width="12" height="22" xoffset="0" yoffset="8" xadvance="12" page="0" chnl="15" />
    <char id="168" x="46" y="188" width="8" height="2" xoffset="0" yoffset="9" xadvance="8" page="0" chnl="15" />
    <char id="169" x="236" y="46" width="19" height="17" xoffset="-1" yoffset="8" xadvance="17" page="0" chnl="15" />
    <char id="170" x="139" y="170" width="8" height="9" xoffset="0" yoffset="8" xadvance="8" page="0" chnl="15" />
    <char id="171" x="148" y="169" width="10" height="8" xoffset="1" yoffset="16" xadvance="12" page="0" chnl="15" />
    <char id="172" x="200" y="167" width="12" height="6" xoffset="0" yoffset="15" xadvance="12" page="0" chnl="15" />
    <char id="173" x="37" y="188" width="8" height="2" xoffset="0" yoffset="18" xadvance="8" page="0" chnl="15" />
    <char id="174" x="174" y="66" width="20" height="17" xoffset="-1" yoffset="8" xadvance="18" page="0" chnl="15" />
    <char id="175" x="157" y="102" width="8" height="1" xoffset="0" yoffset="10" xadvance="8" page="0" chnl="15" />
    <char id="176" x="213" y="166" width="9" height="6" xoffset="0" yoffset="8" xadvance="9" page="0" chnl="15" />
    <char id="177" x="42" y="161" width="12" height="12" xoffset="0" yoffset="13" xadvance="12" page="0" chnl="15" />
    <char id="178" x="78" y="173" width="9" height="10" xoffset="0" yoffset="8" xadvance="8" page="0" chnl="15" />
    <char id="179" x="97" y="172" width="8" height="10" xoffset="0" yoffset="8" xadvance="8" page="0" chnl="15" />
    <char id="180" x="0" y="189" width="6" height="5" xoffset="1" yoffset="7" xadvance="8" page="0" chnl="15" />
    <char id="181" x="155" y="104" width="14" height="17" xoffset="1" yoffset="14" xadvance="15" page="0" chnl="15" />
    <char id="182" x="102" y="47" width="15" height="20" xoffset="0" yoffset="8" xadvance="15" page="0" chnl="15" />
    <char id="183" x="14" y="189" width="4" height="3" xoffset="1" yoffset="16" xadvance="6" page="0" chnl="15" />
    <char id="184" x="232" y="166" width="6" height="6" xoffset="1" yoffset="25" xadvance="8" page="0" chnl="15" />
    <char id="185" x="88" y="173" width="8" height="10" xoffset="0" yoffset="8" xadvance="8" page="0" chnl="15" />
    <char id="186" x="130" y="170" width="8" height="9" xoffset="0" yoffset="8" xadvance="8" page="0" chnl="15" />
    <char id="187" x="159" y="169" width="10" height="8" xoffset="1" yoffset="16" xadvance="12" page="0" chnl="15" />
    <char id="188" x="153" y="66" width="20" height="17" xoffset="0" yoffset="8" xadvance="19" page="0" chnl="15" />
    <char id="189" x="132" y="68" width="20" height="17" xoffset="0" yoffset="8" xadvance="19" page="0" chnl="15" />
    <char id="190" x="111" y="68" width="20" height="17" xoffset="0" yoffset="8" xadvance="19" page="0" chnl="15" />
    <char id="191" x="37" y="143" width="10" height="17" xoffset="1" yoffset="14" xadvance="11" page="0" chnl="15" />
    <char id="192" x="130" y="0" width="19" height="23" xoffset="0" yoffset="2" xadvance="19" page="0" chnl="15" />
    <char id="193" x="110" y="0" width="19" height="23" xoffset="0" yoffset="2" xadvance="19" page="0" chnl="15" />
    <char id="194" x="116" y="24" width="19" height="22" xoffset="0" yoffset="3" xadvance="19" page="0" chnl="15" />
    <char id="195" x="136" y="24" width="19" height="22" xoffset="0" yoffset="3" xadvance="19" page="0" chnl="15" />
    <char id="196" x="40" y="49" width="19" height="21" xoffset="0" yoffset="4" xadvance="19" page="0" chnl="15" />
    <char id="197" x="0" y="0" width="19" height="24" xoffset="0" yoffset="1" xadvance="19" page="0" chnl="15" />
    <char id="198" x="24" y="71" width="23" height="17" xoffset="-1" yoffset="8" xadvance="22" page="0" chnl="15" />
    <char id="199" x="156" y="24" width="17" height="22" xoffset="0" yoffset="8" xadvance="17" page="0" chnl="15" />
    <char id="200" x="228" y="0" width="15" height="23" xoffset="0" yoffset="2" xadvance="15" page="0" chnl="15" />
    <char id="201" x="0" y="25" width="15" height="23" xoffset="0" yoffset="2" xadvance="15" page="0" chnl="15" />
    <char id="202" x="16" y="25" width="15" height="23" xoffset="0" yoffset="2" xadvance="15" page="0" chnl="15" />
    <char id="203" x="60" y="48" width="15" height="21" xoffset="0" yoffset="4" xadvance="15" page="0" chnl="15" />
    <char id="204" x="244" y="0" width="9" height="23" xoffset="0" yoffset="2" xadvance="8" page="0" chnl="15" />
    <char id="205" x="32" y="25" width="9" height="23" xoffset="0" yoffset="2" xadvance="8" page="0" chnl="15" />
    <char id="206" x="42" y="25" width="9" height="23" xoffset="0" yoffset="2" xadvance="8" page="0" chnl="15" />
    <char id="207" x="76" y="47" width="9" height="21" xoffset="0" yoffset="4" xadvance="8" page="0" chnl="15" />
    <char id="208" x="195" y="66" width="19" height="17" xoffset="0" yoffset="8" xadvance="19" page="0" chnl="15" />
    <char id="209" x="75" y="24" width="20" height="22" xoffset="0" yoffset="3" xadvance="20" page="0" chnl="15" />
    <char id="210" x="50" y="0" width="19" height="23" xoffset="0" yoffset="2" xadvance="19" page="0" chnl="15" />
    <char id="211" x="170" y="0" width="19" height="23" xoffset="0" yoffset="2" xadvance="19" page="0" chnl="15" />
    <char id="212" x="190" y="0" width="19" height="23" xoffset="0" yoffset="2" xadvance="19" page="0" chnl="15" />
    <char id="213" x="96" y="24" width="19" height="22" xoffset="0" yoffset="3" xadvance="19" page="0" chnl="15" />
    <char id="214" x="0" y="49" width="19" height="21" xoffset="0" yoffset="4" xadvance="19" page="0" chnl="15" />
    <char id="215" x="119" y="171" width="10" height="9" xoffset="1" yoffset="13" xadvance="12" page="0" chnl="15" />
    <char id="216" x="100" y="87" width="19" height="17" xoffset="0" yoffset="8" xadvance="19" page="0" chnl="15" />
    <char id="217" x="70" y="0" width="19" height="23" xoffset="0" yoffset="2" xadvance="19" page="0" chnl="15" />
    <char id="218" x="150" y="0" width="19" height="23" xoffset="0" yoffset="2" xadvance="19" page="0" chnl="15" />
    <char id="219" x="90" y="0" width="19" height="23" xoffset="0" yoffset="2" xadvance="19" page="0" chnl="15" />
    <char id="220" x="229" y="24" width="19" height="21" xoffset="0" yoffset="4" xadvance="19" page="0" chnl="15" />
    <char id="221" x="210" y="0" width="17" height="23" xoffset="-1" yoffset="2" xadvance="16" page="0" chnl="15" />
    <char id="222" x="32" y="107" width="15" height="17" xoffset="0" yoffset="8" xadvance="15" page="0" chnl="15" />
    <char id="223" x="125" y="104" width="14" height="17" xoffset="-1" yoffset="8" xadvance="13" page="0" chnl="15" />
    <char id="224" x="70" y="125" width="13" height="17" xoffset="0" yoffset="8" xadvance="12" page="0" chnl="15" />
    <char id="225" x="84" y="124" width="13" height="17" xoffset="0" yoffset="8" xadvance="12" page="0" chnl="15" />
    <char id="226" x="98" y="124" width="13" height="17" xoffset="0" yoffset="8" xadvance="12" page="0" chnl="15" />
    <char id="227" x="147" y="140" width="13" height="16" xoffset="0" yoffset="9" xadvance="12" page="0" chnl="15" />
    <char id="228" x="204" y="138" width="13" height="15" xoffset="0" yoffset="10" xadvance="12" page="0" chnl="15" />
    <char id="229" x="112" y="123" width="13" height="17" xoffset="0" yoffset="8" xadvance="12" page="0" chnl="15" />
    <char id="230" x="96" y="160" width="18" height="11" xoffset="0" yoffset="14" xadvance="18" page="0" chnl="15" />
    <char id="231" x="161" y="140" width="11" height="16" xoffset="0" yoffset="14" xadvance="11" page="0" chnl="15" />
    <char id="232" x="166" y="122" width="12" height="17" xoffset="0" yoffset="8" xadvance="12" page="0" chnl="15" />
    <char id="233" x="153" y="122" width="12" height="17" xoffset="0" yoffset="8" xadvance="12" page="0" chnl="15" />
    <char id="234" x="140" y="122" width="12" height="17" xoffset="0" yoffset="8" xadvance="12" page="0" chnl="15" />
    <char id="235" x="232" y="137" width="12" height="15" xoffset="0" yoffset="10" xadvance="12" page="0" chnl="15" />
    <char id="236" x="76" y="143" width="7" height="17" xoffset="-1" yoffset="8" xadvance="6" page="0" chnl="15" />
    <char id="237" x="68" y="143" width="7" height="17" xoffset="0" yoffset="8" xadvance="6" page="0" chnl="15" />
    <char id="238" x="173" y="140" width="8" height="16" xoffset="-2" yoffset="9" xadvance="6" page="0" chnl="15" />
    <char id="239" x="9" y="161" width="8" height="15" xoffset="-2" yoffset="10" xadvance="6" page="0" chnl="15" />
    <char id="240" x="126" y="122" width="13" height="17" xoffset="0" yoffset="8" xadvance="13" page="0" chnl="15" />
    <char id="241" x="103" y="142" width="14" height="16" xoffset="0" yoffset="9" xadvance="14" page="0" chnl="15" />
    <char id="242" x="200" y="102" width="13" height="17" xoffset="0" yoffset="8" xadvance="13" page="0" chnl="15" />
    <char id="243" x="214" y="102" width="13" height="17" xoffset="0" yoffset="8" xadvance="13" page="0" chnl="15" />
    <char id="244" x="228" y="101" width="13" height="17" xoffset="0" yoffset="8" xadvance="13" page="0" chnl="15" />
    <char id="245" x="133" y="140" width="13" height="16" xoffset="0" yoffset="9" xadvance="13" page="0" chnl="15" />
    <char id="246" x="218" y="138" width="13" height="15" xoffset="0" yoffset="10" xadvance="13" page="0" chnl="15" />
    <char id="247" x="180" y="169" width="12" height="7" xoffset="0" yoffset="14" xadvance="12" page="0" chnl="15" />
    <char id="248" x="188" y="155" width="13" height="11" xoffset="0" yoffset="14" xadvance="13" page="0" chnl="15" />
    <char id="249" x="140" y="104" width="14" height="17" xoffset="0" yoffset="8" xadvance="14" page="0" chnl="15" />
    <char id="250" x="110" y="105" width="14" height="17" xoffset="0" yoffset="8" xadvance="14" page="0" chnl="15" />
    <char id="251" x="118" y="141" width="14" height="16" xoffset="0" yoffset="9" xadvance="14" page="0" chnl="15" />
    <char id="252" x="189" y="138" width="14" height="15" xoffset="0" yoffset="10" xadvance="14" page="0" chnl="15" />
    <char id="253" x="35" y="0" width="14" height="24" xoffset="-1" yoffset="8" xadvance="12" page="0" chnl="15" />
    <char id="254" x="20" y="0" width="14" height="24" xoffset="0" yoffset="8" xadvance="14" page="0" chnl="15" />
    <char id="255" x="174" y="24" width="14" height="22" xoffset="-1" yoffset="10" xadvance="12" page="0" chnl="15" />
  </chars>
  <kernings count="101">
    <kerning first="65" second="84" amount="-2" />
    <kerning first="65" second="86" amount="-2" />
    <kerning first="65" second="87" amount="-2" />
    <kerning first="65" second="89" amount="-3" />
    <kerning first="65" second="118" amount="-2" />
    <kerning first="65" second="119" amount="-2" />
    <kerning first="65" second="121" amount="-2" />
    <kerning first="32" second="65" amount="-1" />
    <kerning first="65" second="32" amount="-1" />
    <kerning first="70" second="65" amount="-1" />
    <kerning first="70" second="46" amount="-2" />
    <kerning first="70" second="44" amount="-2" />
    <kerning first="76" second="84" amount="-1" />
    <kerning first="76" second="86" amount="-2" />
    <kerning first="76" second="87" amount="-2" />
    <kerning first="76" second="89" amount="-2" />
    <kerning first="76" second="121" amount="-1" />
    <kerning first="91" second="74" amount="1" />
    <kerning first="76" second="32" amount="-1" />
    <kerning first="80" second="65" amount="-2" />
    <kerning first="80" second="97" amount="-1" />
    <kerning first="80" second="101" amount="-1" />
    <kerning first="80" second="111" amount="-1" />
    <kerning first="80" second="46" amount="-3" />
    <kerning first="80" second="44" amount="-3" />
    <kerning first="80" second="32" amount="-1" />
    <kerning first="82" second="86" amount="-1" />
    <kerning first="40" second="74" amount="1" />
    <kerning first="121" second="44" amount="-3" />
    <kerning first="121" second="46" amount="-3" />
    <kerning first="82" second="32" amount="-1" />
    <kerning first="84" second="65" amount="-2" />
    <kerning first="84" second="97" amount="-2" />
    <kerning first="84" second="99" amount="-2" />
    <kerning first="84" second="100" amount="-2" />
    <kerning first="84" second="101" amount="-2" />
    <kerning first="84" second="109" amount="-1" />
    <kerning first="84" second="111" amount="-2" />
    <kerning first="84" second="114" amount="-2" />
    <kerning first="84" second="115" amount="-2" />
    <kerning first="84" second="117" amount="-2" />
    <kerning first="84" second="118" amount="-2" />
    <kerning first="84" second="119" amount="-2" />
    <kerning first="84" second="121" amount="-2" />
    <kerning first="84" second="122" amount="-2" />
    <kerning first="84" second="46" amount="-2" />
    <kerning first="84" second="44" amount="-2" />
    <kerning first="84" second="58" amount="-1" />
    <kerning first="84" second="59" amount="-1" />
    <kerning first="121" second="97" amount="-1" />
    <kerning first="86" second="65" amount="-2" />
    <kerning first="86" second="97" amount="-2" />
    <kerning first="86" second="101" amount="-2" />
    <kerning first="86" second="105" amount="-1" />
    <kerning first="86" second="111" amount="-2" />
    <kerning first="86" second="114" amount="-2" />
    <kerning first="86" second="117" amount="-2" />
    <kerning first="86" second="121" amount="-2" />
    <kerning first="86" second="46" amount="-3" />
    <kerning first="86" second="44" amount="-3" />
    <kerning first="86" second="58" amount="-1" />
    <kerning first="86" second="59" amount="-1" />
    <kerning first="119" second="44" amount="-2" />
    <kerning first="87" second="65" amount="-2" />
    <kerning first="87" second="97" amount="-2" />
    <kerning first="87" second="100" amount="-2" />
    <kerning first="87" second="101" amount="-2" />
    <kerning first="87" second="105" amount="-1" />
    <kerning first="87" second="111" amount="-2" />
    <kerning first="87" second="114" amount="-2" />
    <kerning first="87" second="117" amount="-1" />
    <kerning first="87" second="121" amount="-1" />
    <kerning first="87" second="46" amount="-2" />
    <kerning first="87" second="44" amount="-2" />
    <kerning first="119" second="46" amount="-2" />
    <kerning first="119" second="97" amount="-1" />
    <kerning first="118" second="44" amount="-3" />
    <kerning first="89" second="65" amount="-2" />
    <kerning first="89" second="97" amount="-2" />
    <kerning first="89" second="100" amount="-2" />
    <kerning first="89" second="101" amount="-2" />
    <kerning first="89" second="105" amount="-1" />
    <kerning first="89" second="111" amount="-2" />
    <kerning first="89" second="112" amount="-2" />
    <kerning first="89" second="113" amount="-2" />
    <kerning first="89" second="114" amount="-2" />
    <kerning first="89" second="115" amount="-2" />
    <kerning first="89" second="117" amount="-2" />
    <kerning first="89" second="118" amount="-2" />
    <kerning first="89" second="46" amount="-2" />
    <kerning first="89" second="44" amount="-2" />
    <kerning first="89" second="58" amount="-1" />
    <kerning first="89" second="59" amount="-1" />
    <kerning first="118" second="46" amount="-3" />
    <kerning first="118" second="97" amount="-1" />
    <kerning first="102" second="63" amount="1" />
    <kerning first="102" second="33" amount="1" />
    <kerning first="102" second="41" amount="1" />
    <kerning first="102" second="93" amount="1" />
    <kerning first="114" second="44" amount="-1" />
    <kerning first="114" second="46" amount="-1" />
  </kernings>
</font>
