<?xml version="1.0" encoding="utf-8"?>
<COLLADA xmlns="http://www.collada.org/2005/11/COLLADASchema" version="1.4.1" xmlns:xsi="http://www.w3.org/2001/XMLSchema-instance">
  <asset>
    <contributor>
      <author>Blender User</author>
      <authoring_tool>Blender 2.79.0 commit date:2018-03-22, commit time:14:10, hash:f4dc9f9d68b</authoring_tool>
    </contributor>
    <created>2018-09-11T12:42:36</created>
    <modified>2018-09-11T12:42:36</modified>
    <unit name="meter" meter="1"/>
    <up_axis>Z_UP</up_axis>
  </asset>
  <library_images>
    <image id="ladle_dds" name="ladle_dds">
      <init_from>ladle.dds</init_from>
    </image>
  </library_images>
  <library_effects>
    <effect id="Material-effect">
      <profile_COMMON>
        <newparam sid="ladle_dds-surface">
          <surface type="2D">
            <init_from>ladle_dds</init_from>
          </surface>
        </newparam>
        <newparam sid="ladle_dds-sampler">
          <sampler2D>
            <source>ladle_dds-surface</source>
          </sampler2D>
        </newparam>
        <technique sid="common">
          <phong>
            <emission>
              <color sid="emission">0 0 0 1</color>
            </emission>
            <ambient>
              <color sid="ambient">0 0 0 1</color>
            </ambient>
            <diffuse>
              <texture texture="ladle_dds-sampler"/>
            </diffuse>
            <specular>
              <color sid="specular">0.5 0.5 0.5 1</color>
            </specular>
            <shininess>
              <float sid="shininess">50</float>
            </shininess>
            <index_of_refraction>
              <float sid="index_of_refraction">1</float>
            </index_of_refraction>
          </phong>
        </technique>
        <extra>
          <technique profile="GOOGLEEARTH">
            <double_sided sid="double_sided" type="int">1</double_sided>
          </technique>
        </extra>
      </profile_COMMON>
      <extra><technique profile="MAX3D"><double_sided>1</double_sided></technique></extra>
    </effect>
  </library_effects>
  <library_materials>
    <material id="Material-material" name="Material">
      <instance_effect url="#Material-effect"/>
    </material>
  </library_materials>
  <library_geometries>
    <geometry id="Sphere-mesh" name="Sphere">
      <mesh>
        <source id="Sphere-mesh-positions">
          <float_array id="Sphere-mesh-positions-array" count="456">-2.291025 0.7204334 1.173329 -2.088596 0.5508201 1.411885 -1.824891 0.4352677 1.613062 -1.846566 0.4010503 1.641979 -2.123891 0.4501439 1.505715 -2.347674 0.56371 1.31887 -2.496009 0.7306321 1.099734 -2.554378 0.9345706 0.8697577 -2.517065 1.155563 0.6514523 -2.479403 1.068012 0.9819459 -2.331021 0.9833393 1.321164 -2.143646 0.9126787 1.615362 -1.889606 0.8606581 1.852265 -1.914611 0.8483323 1.893491 -2.188606 0.8755343 1.744917 -2.402723 0.9255687 1.522348 -2.536005 0.9935378 1.247569 -2.575405 1.072788 0.9474791 -2.472469 1.227796 0.9847738 -2.31783 1.287266 1.326542 -2.125491 1.330998 1.622766 -1.868263 1.352422 1.860968 -1.892171 1.365403 1.902642 -2.167263 1.367298 1.75362 -2.384568 1.343888 1.529751 -2.522815 1.297464 1.252948 -2.56847 1.232572 0.9503068 -2.439431 1.366331 0.9119504 -2.254988 1.550776 1.188024 -2.038996 1.693689 1.432111 -1.766583 1.77879 1.63684 -1.785258 1.813714 1.66698 -2.065583 1.793666 1.529492 -2.298074 1.706579 1.339096 -2.459973 1.560975 1.114429 -2.535432 1.371108 0.8774835 -2.389142 1.446499 0.7829884 -2.159333 1.703263 0.9427236 -1.907339 1.903569 1.094485 -1.61181 2.025519 1.239936 -1.622519 2.07314 1.24965 -1.91081 2.040395 1.132588 -2.166416 1.916459 1.00147 -2.364318 1.713462 0.8691294 -2.485143 1.451275 0.7485216 -2.335077 1.446816 0.6324432 -2.056496 1.703868 0.6563701 -1.765795 1.904401 0.700353 -1.445415 2.026498 0.7766066 -1.447562 2.074168 0.7624768 -1.744415 2.041374 0.6692588 -2.024872 1.917291 0.6073382 -2.261481 1.714066 0.5827758 -2.431079 1.451593 0.5979766 -2.291723 1.3672 0.5006536 -1.974031 1.552428 0.4056915 -1.652292 1.695962 0.3553233 -1.311984 1.781463 0.3709998 -1.307264 1.816524 0.3359966 -1.610984 1.796339 0.263652 -1.911369 1.708852 0.2623085 -2.179015 1.562627 0.3320971 -2.387724 1.371976 0.466187 -2.270695 1.228982 0.4229322 -1.934035 1.289522 0.2578566 -1.597242 1.334104 0.1518461 -1.24727 1.356073 0.1317981 -1.239219 1.369242 0.08448505 -1.54627 1.370949 0.02445018 -1.85632 1.346994 0.05883127 -2.13902 1.299721 0.1842622 -2.366697 1.233758 0.3884656 -2.27763 1.069198 0.4201043 -1.947225 0.9855958 0.2524778 -1.615397 0.9157847 0.1444428 -1.268612 0.8643096 0.1230949 -1.26166 0.8521715 0.07533407 -1.567612 0.8791857 0.01574718 -1.874475 0.9286747 0.05142807 -2.15221 0.9957945 0.1788835 -2.373632 1.073975 0.3856377 -2.310668 0.9306626 0.4929278 -2.010067 0.7220855 0.3909965 -1.701891 0.5530939 0.3350974 -1.370292 0.4379407 0.3472228 -1.368573 0.4038609 0.3109961 -1.669292 0.4528169 0.2398749 -1.960969 0.5659838 0.2420825 -2.215052 0.7322841 0.3174023 -2.40667 0.9354392 0.4584612 -2.42305 1.150885 0.6852056 -2.360957 0.8504955 0.6218897 -2.105722 0.5695987 0.6362965 -1.833549 0.3432138 0.6727237 -1.525066 0.1912117 0.7441264 -1.531311 0.1444348 0.7283253 -1.824065 0.2060879 0.6367788 -2.092627 0.3561037 0.579709 -2.310707 0.5797973 0.5627022 -2.456959 0.8552721 0.5874232 -2.415022 0.8501775 0.772435 -2.20856 0.5689941 0.9226498 -1.975093 0.3423816 1.066855 -1.69146 0.1902332 1.207456 -1.706269 0.143406 1.215499 -1.99046 0.2051093 1.100108 -2.234171 0.3552716 0.9738407 -2.413545 0.5791927 0.8490555 -2.511023 0.8549542 0.7379681 -2.458376 0.9297941 0.9042246 -1.174764 0.546476 0.2543078 -1.179328 0.5259413 0.2151767 -1.225797 0.4067767 0.3731151 -1.232772 0.3748237 0.3356033 -1.277346 0.2772371 0.5027205 -1.287188 0.2428467 0.4763734 3.49133 -1.054806 0.445631 3.48712 -1.079705 0.4019144 3.440171 -1.189433 0.5698833 3.433196 -1.221385 0.5323716 3.388749 -1.324045 0.6940432 3.379259 -1.3628 0.6631112 3.619361 -1.117728 0.4303027 3.597375 -1.134494 0.3880613 3.568203 -1.252393 0.554514 3.543379 -1.276151 0.5185135 3.51678 -1.386968 0.6787153 3.489514 -1.417589 0.649258 3.686084 -1.200283 0.3683804 3.649605 -1.204518 0.3337362 3.634903 -1.334979 0.4925489 3.595543 -1.346131 0.464208 3.583503 -1.469522 0.616793 3.541745 -1.487612 0.5949332 3.682865 -1.300695 0.2582203 3.64365 -1.269051 0.2613325 3.631554 -1.435403 0.3823215 3.589542 -1.410521 0.3919419 3.580284 -1.569934 0.506633 3.535789 -1.552146 0.5225291 3.60868 -1.365868 0.1569486 3.579618 -1.327323 0.1717332 3.557326 -1.500557 0.2810524 3.525541 -1.46876 0.3023913 3.506099 -1.635107 0.4053609 3.471758 -1.610419 0.4329292 3.389777 -1.416798 0.01135385 3.373808 -1.375116 0.03494483 3.338388 -1.551461 0.1354712 3.319776 -1.516532 0.1656431 3.287196 -1.686037 0.2597665 3.265949 -1.658211 0.2961405</float_array>
          <technique_common>
            <accessor source="#Sphere-mesh-positions-array" count="152" stride="3">
              <param name="X" type="float"/>
              <param name="Y" type="float"/>
              <param name="Z" type="float"/>
            </accessor>
          </technique_common>
        </source>
        <source id="Sphere-mesh-normals">
          <float_array id="Sphere-mesh-normals-array" count="456">-0.9989411 -0.04239058 -0.01788401 -0.9120312 -0.3903996 0.1256469 -0.9531508 -0.1200938 0.2776348 0.8828396 0.1609907 -0.4412214 0.7099702 0.5857872 -0.390891 0.8325435 0.4916093 -0.2553268 0.7685713 0.2005433 -0.6075201 0.9722087 0.2249544 0.06485253 0.9979984 0.0554223 -0.03045785 0.2683894 -0.6253771 0.7327146 0.210645 -0.2457728 0.946163 -0.5407165 -0.6606587 0.5207262 -0.6055887 -0.2342029 0.7605336 -0.7618014 -0.551704 0.3395313 -0.8174299 -0.1860153 0.5451669 0.2296855 0.1930322 0.9539303 0.9894931 -0.1405408 -0.03393733 -0.5841919 0.2587693 0.7692583 -0.9395911 0.1923313 0.283156 -0.7990871 0.2367383 0.5526437 0.9767645 -0.1633993 -0.1386789 0.9874579 0.08298248 -0.1343162 0.7492527 -0.244766 -0.6153943 0.8662506 -0.221171 -0.447988 -0.8749923 0.463224 0.1407556 -0.7116758 0.6032719 0.3599733 0.9258099 -0.3770688 -0.02636885 -0.9559755 0.2782718 -0.09314382 0.6571693 -0.6308923 -0.4124361 0.7872223 -0.5525572 -0.2737912 0.9489686 -0.3104733 0.05536204 -0.4822692 0.6862006 0.5445595 0.3204243 0.5735225 0.7539233 -0.3270998 0.9335377 0.146673 0.4585526 0.7936851 0.3997418 -0.5786157 0.8153845 0.01876938 0.8482583 -0.5007025 0.172496 -0.9019147 0.3644648 -0.2317657 -0.7766519 0.619997 -0.1114255 0.516992 -0.8543491 -0.05298095 0.6669389 -0.7443054 0.03466993 0.8872976 -0.4087801 0.2135459 0.3662919 -0.8552408 0.3665971 0.5376034 -0.7450759 0.3947715 0.820994 -0.4091694 0.3981825 0.6070249 0.7945647 -0.01370304 -0.4355677 0.8162317 -0.3795348 -0.160286 0.9345235 -0.3177642 0.7648773 -0.5011897 0.4046872 -0.6709243 0.6206293 -0.4058078 -0.3208491 0.6055633 -0.7282508 -0.0265209 0.6888729 -0.724397 -0.5861549 0.464932 -0.6635215 0.4338982 -0.554634 0.7100096 0.6980058 -0.3784082 0.6079435 -0.7971922 0.2792202 -0.5352763 0.2454643 -0.6333304 0.7339211 0.7678084 -0.3115121 0.5598489 0.7261061 0.575892 -0.3756573 0.7420065 -0.1420045 0.6551802 0.7838491 0.196298 -0.5891076 -0.2652084 0.2398778 -0.9338754 0.0383014 0.2624337 -0.9641897 0.6655628 -0.1652309 0.727822 -0.7745803 0.1306226 -0.6188402 -0.5450192 0.1946541 -0.8155145 0.3835954 -0.2240107 0.8959207 0.1868381 -0.24809 0.9505488 -0.2835522 -0.1828699 -0.9413591 0.67628 0.08115112 0.7321611 -0.7820513 -0.04110914 -0.6218567 -0.5585978 -0.1177746 -0.8210346 0.2061879 0.1972458 0.9584261 0.4002029 0.1581523 0.9026768 0.7079616 0.2222737 0.6703616 0.01690751 -0.2305406 -0.9729158 0.7217733 -0.135321 -0.6787721 -0.08499586 -0.6579627 -0.7482385 -0.02859687 -0.6719206 -0.7400709 -0.3709944 -0.5494111 -0.7486726 0.7272259 0.2948213 0.6198572 -0.8175573 -0.1900451 -0.5435835 -0.6232038 -0.3886936 -0.6786268 0.2982672 0.5833805 0.7554495 0.4792162 0.4895317 0.7284989 0.154398 0.637552 0.7547774 0.3203241 0.2199481 0.9214202 0.7562451 0.3489916 0.5534424 -0.8716151 -0.2762251 -0.4049531 -0.7215332 -0.5454683 -0.4264438 0.4384403 0.8068083 0.3960185 0.5995157 0.6813067 0.4200028 0.2806534 -0.107122 -0.9538127 0.5142751 0.7290066 0.4517418 -0.240154 -0.9053158 -0.3503277 0.4294319 -0.9026279 0.02917605 -0.5040318 -0.7615261 -0.4074677 0.8047857 0.4184764 0.4209484 -0.406943 -0.9062981 0.1141113 -0.8272573 -0.5460826 -0.1320571 -0.6470898 -0.7623593 -0.009125113 0.8881652 0.4189654 0.1887603 -0.929735 -0.2765644 -0.2431154 0.5891203 0.8077018 -0.02356112 0.7288271 0.6820718 0.05990898 0.9190413 0.3225938 0.2264871 0.3874738 -0.8440433 0.3707492 0.9550301 0.2961561 -0.01446598 -0.940148 0.04675561 -0.3375438 -0.9763419 -0.190959 -0.101446 0.940148 -0.04675561 0.3375438 -0.9914897 0.129338 -0.01483201 -0.8437984 0.3647975 -0.3936077 0.3809764 0.9039606 0.1941963 0.09958362 0.6539621 0.7499445 0.2738848 0.5937325 0.7566167 -0.05511701 -0.9885355 -0.1405697 -0.3807856 -0.9223453 0.06543272 0.3327519 -0.08301246 0.9393537 0.04892182 0.03247213 0.9982746 -0.09915721 -0.6540897 -0.7498898 0.04965472 0.2074695 -0.9769805 -0.6232689 -0.388635 -0.6786006 -0.7108477 -0.6002165 0.3666548 -0.5539494 -0.8082638 0.1996244 0.9086764 0.4131984 -0.05978691 0.604745 0.4032549 0.6867817 0.9233739 0.00238043 0.3838948 0.6468561 0.7413744 0.1787209 -0.2768724 -0.592474 -0.756516 -0.0945785 0.3973885 -0.9127635 0.9034662 0.09448808 -0.4181159 -0.2492532 0.6113069 -0.7511171 0.5887479 -0.7314866 0.3439525 0.5977454 -0.4028509 0.6931173 -0.9159869 0.3977191 0.05279725 -0.6024768 -0.2399714 0.7612066 -0.7249284 -0.3712691 0.5802052 0.7020552 -0.07977622 -0.7076401 0.9199932 -0.3896352 -0.04239076 0.6742017 -0.6229293 -0.3967508 -0.9341254 0.0275281 -0.355882 -0.2734538 0.8136473 -0.5130312 -0.09146505 -0.1533573 -0.9839287 -0.1551877 0.9339645 -0.3219115 -0.3661103 -0.8742578 -0.3188053 0.3812122 -0.9218859 0.06930851 -0.9176871 0.3943408 0.04843419 -0.2917053 -0.5862182 -0.755815 -0.6786673 0.6207409 0.3925448 -0.8832584 -0.1807656 0.4326413 -0.5334427 0.7373406 -0.4144489</float_array>
          <technique_common>
            <accessor source="#Sphere-mesh-normals-array" count="152" stride="3">
              <param name="X" type="float"/>
              <param name="Y" type="float"/>
              <param name="Z" type="float"/>
            </accessor>
          </technique_common>
        </source>
        <source id="Sphere-mesh-map-0">
          <float_array id="Sphere-mesh-map-0-array" count="1800">0.140066 0.154046 0.1116856 0.16991 0.1158105 0.1431872 0.4310857 0.2068498 0.3785536 0.1916521 0.4156588 0.1802753 0.4042007 0.2349171 0.3279263 0.2063167 0.3785536 0.1916521 0.4146556 0.5314672 0.3606355 0.5073619 0.3646844 0.5032039 0.01006197 0.09620523 0.04631268 0.1764435 1.62217e-4 0.1831007 0.05607539 0.1164413 0.08147996 0.1724127 0.04631268 0.1764435 0.1158105 0.1431872 0.08147996 0.1724127 0.08897507 0.1300944 0.4735437 0.5370797 0.4146556 0.5314672 0.4720665 0.5314672 0.09421694 0.06834131 0.01006197 0.09620523 0.06733214 0.02891248 0.09421694 0.06834131 0.08897507 0.1300944 0.05607539 0.1164413 0.1330359 0.1220708 0.08897507 0.1300944 0.1162453 0.09724193 0.4653832 0.1883351 0.4310857 0.2068498 0.4540064 0.1817578 0.1330359 0.1220708 0.140066 0.154046 0.1158105 0.1431872 0.448412 0.2587568 0.4310857 0.2068498 0.4583439 0.2211232 0.448412 0.2587568 0.3713496 0.2723628 0.4042007 0.2349171 0.1586757 0.1121292 0.1162453 0.09724193 0.1560797 0.0826056 0.4785377 0.1882933 0.4583439 0.2211232 0.4653832 0.1883351 0.1609985 0.138942 0.1330359 0.1220708 0.1586757 0.1121292 0.4987322 0.2578591 0.4583439 0.2211232 0.488614 0.2200357 0.4987322 0.2578591 0.4390115 0.3059697 0.448412 0.2587568 0.5220373 0.5032042 0.4735437 0.5370797 0.4720665 0.5314672 0.1516752 0.04657739 0.06733214 0.02891248 0.1482345 1.62217e-4 0.1516752 0.04657739 0.1162453 0.09724193 0.09421694 0.06834131 0.2128856 0.05608403 0.1482345 1.62217e-4 0.2313455 0.01511842 0.2128856 0.05608403 0.1560797 0.0826056 0.1516752 0.04657739 0.1971855 0.0901997 0.1586757 0.1121292 0.1560797 0.0826056 0.4899799 0.1816858 0.488614 0.2200357 0.4785377 0.1882933 0.174208 0.1410287 0.1586757 0.1121292 0.1854056 0.1170893 0.5405341 0.2310447 0.488614 0.2200357 0.5139106 0.2041551 0.5758418 0.2649431 0.4987322 0.2578591 0.5405341 0.2310447 0.5516188 0.4540031 0.5260861 0.5073621 0.5220373 0.5032042 0.5657077 0.1882283 0.5139106 0.2041551 0.5280056 0.1779967 0.5657077 0.1882283 0.5758418 0.2649431 0.5405341 0.2310447 0.5531454 0.3966139 0.5571899 0.455629 0.5516188 0.4540031 0.2998235 0.06810981 0.2128856 0.05608403 0.2313455 0.01511842 0.2300319 0.1167935 0.2128856 0.05608403 0.2598085 0.09664857 0.2300319 0.1167935 0.1854056 0.1170893 0.1971855 0.0901997 0.5280056 0.1779967 0.4899799 0.1816858 0.4960266 0.1700537 0.2057443 0.1344692 0.174208 0.1410287 0.1854056 0.1170893 0.2457059 0.1565886 0.2598085 0.09664857 0.2822976 0.154044 0.2159495 0.1596904 0.2300319 0.1167935 0.2457059 0.1565886 0.5268261 0.1481884 0.4960266 0.1700537 0.4954462 0.1573162 0.1891071 0.1619293 0.2057443 0.1344692 0.2159495 0.1596904 0.5644655 0.1376515 0.5280056 0.1779967 0.5268261 0.1481884 0.6109213 0.1262061 0.5657077 0.1882283 0.5644655 0.1376515 0.5262207 0.3459089 0.5587949 0.3952865 0.5531454 0.3966139 0.2822976 0.154044 0.2998235 0.06810981 0.3276019 0.1498794 0.4778231 0.3150293 0.5304849 0.3419721 0.5262207 0.3459089 0.3152283 0.2353225 0.2822976 0.154044 0.3276019 0.1498794 0.238729 0.1989414 0.2822976 0.154044 0.2703475 0.2139238 0.238729 0.1989414 0.2159495 0.1596904 0.2457059 0.1565886 0.4892686 0.1462674 0.5268261 0.1481884 0.4954462 0.1573162 0.1869883 0.1750417 0.2159495 0.1596904 0.211001 0.1866864 0.5120301 0.1218296 0.5644655 0.1376515 0.5268261 0.1481884 0.5739912 0.06113159 0.5644655 0.1376515 0.5389003 0.09450423 0.2105704 0.2311477 0.211001 0.1866864 0.238729 0.1989414 0.4781817 0.1397953 0.5120301 0.1218296 0.4892686 0.1462674 0.1785603 0.1852605 0.211001 0.1866864 0.1932769 0.2071319 0.4954417 0.07035171 0.5120301 0.1218296 0.4852631 0.1075279 0.5085845 0.02321124 0.5389003 0.09450423 0.4954417 0.07035171 0.4204946 0.3119772 0.4795966 0.3095033 0.4778231 0.3150293 0.2313464 0.2603642 0.3152283 0.2353225 0.2565578 0.3005931 0.2313464 0.2603642 0.238729 0.1989414 0.2703475 0.2139238 0.1746447 0.2795677 0.2565578 0.3005931 0.1773727 0.3225804 0.1746447 0.2795677 0.2105704 0.2311477 0.2313464 0.2603642 0.1713348 0.244472 0.1932769 0.2071319 0.2105704 0.2311477 0.465302 0.1397928 0.4852631 0.1075279 0.4781817 0.1397953 0.1662156 0.1898708 0.1932769 0.2071319 0.1681392 0.21589 0.4459395 0.07138127 0.4852631 0.1075279 0.4552739 0.1083744 0.4355955 0.02665573 0.4954417 0.07035171 0.4459395 0.07138127 0.4023572 0.01424622 0.4355955 0.02665573 0.3690007 0.05850172 0.1532573 0.1877619 0.1681392 0.21589 0.1422526 0.2112287 0.4024369 0.09571033 0.4552739 0.1083744 0.4296694 0.1239081 0.3690007 0.05850172 0.4459395 0.07138127 0.4024369 0.09571033 0.3851559 0.5464544 0.3290295 0.5374041 0.3849892 0.5394765 0.1156624 0.2706472 0.1773727 0.3225804 0.09685552 0.3121928 0.1298723 0.2386229 0.1746447 0.2795677 0.1156624 0.2706472 0.1298723 0.2386229 0.1681392 0.21589 0.1713348 0.244472 0.4541223 0.1462372 0.4552739 0.1083744 0.465302 0.1397928 0.06799036 0.233382 0.1298723 0.2386229 0.1156624 0.2706472 0.1216021 0.194826 0.1298723 0.2386229 0.09754472 0.2115868 0.4476329 0.1574357 0.4296694 0.1239081 0.4541223 0.1462372 0.1430132 0.1795523 0.1422526 0.2112287 0.1216021 0.194826 0.3768939 0.1404163 0.4296694 0.1239081 0.4156917 0.1502637 0.3279264 0.1258231 0.4024369 0.09571033 0.3768939 0.1404163 0.3351025 0.4540023 0.3279263 0.3952855 0.333576 0.3966129 0.06799036 0.233382 0.09685552 0.3121928 0.03301846 0.2595438 0.4540064 0.1817578 0.4156588 0.1802753 0.4475567 0.1704009 0.140066 0.154046 0.163625 0.1645096 0.1381377 0.1672575 0.4717859 0.1639472 0.4540064 0.1817578 0.4475567 0.1704009 0.4717859 0.1639472 0.4653832 0.1883351 0.4540064 0.1817578 0.148625 0.1438069 0.163625 0.1645096 0.140066 0.154046 0.1609985 0.138942 0.163625 0.1645096 0.148625 0.1438069 0.4717859 0.1639472 0.4785377 0.1882933 0.4653832 0.1883351 0.4717859 0.1639472 0.4899799 0.1816858 0.4785377 0.1882933 0.174208 0.1410287 0.163625 0.1645096 0.1609985 0.138942 0.1843174 0.1496304 0.163625 0.1645096 0.174208 0.1410287 0.4717859 0.1639472 0.4960266 0.1700537 0.4899799 0.1816858 0.4717859 0.1639472 0.4954462 0.1573162 0.4960266 0.1700537 0.1891071 0.1619293 0.163625 0.1645096 0.1843174 0.1496304 0.4717859 0.1639472 0.4892686 0.1462674 0.4954462 0.1573162 0.1869883 0.1750417 0.163625 0.1645096 0.1891071 0.1619293 0.1785603 0.1852605 0.163625 0.1645096 0.1869883 0.1750417 0.4717859 0.1639472 0.4781817 0.1397953 0.4892686 0.1462674 0.4717859 0.1639472 0.465302 0.1397928 0.4781817 0.1397953 0.1662156 0.1898708 0.163625 0.1645096 0.1785603 0.1852605 0.1532573 0.1877619 0.163625 0.1645096 0.1662156 0.1898708 0.4717859 0.1639472 0.4541223 0.1462372 0.465302 0.1397928 0.4717859 0.1639472 0.4476329 0.1574357 0.4541223 0.1462372 0.1430132 0.1795523 0.163625 0.1645096 0.1532573 0.1877619 0.3279263 0.2063167 0.3768939 0.1404163 0.3785536 0.1916521 0.3646844 0.5032039 0.3295314 0.4556282 0.3351025 0.4540023 1.62217e-4 0.1831007 0.06799036 0.233382 0.03301846 0.2595438 0.08147996 0.1724127 0.06799036 0.233382 0.04631268 0.1764435 0.4717859 0.1639472 0.4475567 0.1704009 0.4476329 0.1574357 0.1116856 0.16991 0.09754472 0.2115868 0.08147996 0.1724127 0.4475567 0.1704009 0.4156917 0.1502637 0.4476329 0.1574357 0.1381377 0.1672575 0.1216021 0.194826 0.1116856 0.16991 0.4156588 0.1802753 0.3768939 0.1404163 0.4156917 0.1502637 0.1381377 0.1672575 0.163625 0.1645096 0.1430132 0.1795523 0.9036388 0.7896581 0.3281219 0.767477 0.9036518 0.7674776 0.7849009 0.5374041 0.3851559 0.5464544 0.3849892 0.5394765 0.4589127 1.62217e-4 0.4355955 0.02665573 0.4303233 0.005614995 0.2111815 0.3396035 0.1773727 0.3225804 0.2565578 0.3005931 0.3279263 0.6325063 0.3847784 0.631465 0.3836287 0.6383507 0.1773727 0.3225804 0.1464234 0.3440269 0.09685552 0.3121928 0.7804555 0.6910103 0.799001 0.696828 0.7791798 0.6978771 0.920371 0.7452974 0.9036518 0.7674776 0.9036388 0.7452966 0.3282958 0.7215784 0.9038392 0.7449026 0.3279263 0.7449544 0.9038392 0.6982553 0.3282958 0.7215784 0.3279263 0.6982015 0.9036388 0.7452966 0.3281219 0.767477 0.3279263 0.7452788 0.3847784 0.631465 0.7791798 0.6978771 0.3836287 0.6383507 0.9182946 0.721579 0.9302783 0.7449047 0.9182851 0.7449054 0.9347026 0.7896581 0.9203846 0.7674776 0.9347164 0.7674775 0.8044314 0.5410102 0.7852782 0.5443823 0.7849009 0.5374041 0.9203709 0.7896577 0.9036518 0.7674776 0.9203846 0.7674776 0.9038515 0.721579 0.9182851 0.7449054 0.9038392 0.7449026 0.9182853 0.6982525 0.9038515 0.721579 0.9038392 0.6982553 0.8210091 0.5728979 0.8120427 0.5578213 0.8167929 0.5526956 0.808717 0.6811517 0.8195518 0.6673693 0.8127621 0.6868453 0.9302784 0.6982533 0.9182946 0.721579 0.9182853 0.6982525 0.9347027 0.745297 0.9203846 0.7674776 0.920371 0.7452974 0.7975652 0.6899929 0.8127621 0.6868453 0.799001 0.696828 0.8167929 0.5526956 0.8021223 0.5476059 0.8044314 0.5410102 0.9416003 0.721579 0.9561299 0.7448975 0.9416064 0.7449022 0.968588 0.7896614 0.9521081 0.7674776 0.9686045 0.7674777 0.952091 0.7896604 0.9347164 0.7674775 0.9521081 0.7674776 0.9302874 0.721579 0.9416064 0.7449022 0.9302783 0.7449047 0.9416064 0.6982557 0.9302874 0.721579 0.9302784 0.6982533 0.9520912 0.7452948 0.9347164 0.7674775 0.9347027 0.745297 0.7888498 0.6180956 0.8087733 0.587439 0.8145451 0.5913792 0.8093056 0.6513769 0.7935233 0.61842 0.8155346 0.6482182 0.9561299 0.6982604 0.9416003 0.721579 0.9416064 0.6982557 0.9685883 0.7452939 0.9521081 0.7674776 0.9520912 0.7452948 0.8195518 0.6673693 0.8093056 0.6513769 0.8155346 0.6482182 0.8087733 0.587439 0.8210091 0.5728979 0.8145451 0.5913792 0.02348506 0.3443515 0.04566448 0.3501572 0.02348309 0.3501551 0.001301586 0.3501418 0.02348506 0.3443515 0.02348309 0.3501551 0.9998211 0.789663 0.9686045 0.7674777 0.9998378 0.7674778 0.9561251 0.721579 0.9854669 0.7448895 0.9561299 0.7448975 0.9854669 0.6982683 0.9561251 0.721579 0.9561299 0.6982604 0.9998213 0.7452925 0.9686045 0.7674777 0.9685883 0.7452939 0.140066 0.154046 0.1381377 0.1672575 0.1116856 0.16991 0.4310857 0.2068498 0.4042007 0.2349171 0.3785536 0.1916521 0.4042007 0.2349171 0.3713496 0.2723628 0.3279263 0.2063167 0.4146556 0.5314672 0.4131784 0.5370797 0.3606355 0.5073619 0.01006197 0.09620523 0.05607539 0.1164413 0.04631268 0.1764435 0.05607539 0.1164413 0.08897507 0.1300944 0.08147996 0.1724127 0.1158105 0.1431872 0.1116856 0.16991 0.08147996 0.1724127 0.4735437 0.5370797 0.4131784 0.5370797 0.4146556 0.5314672 0.09421694 0.06834131 0.05607539 0.1164413 0.01006197 0.09620523 0.09421694 0.06834131 0.1162453 0.09724193 0.08897507 0.1300944 0.1330359 0.1220708 0.1158105 0.1431872 0.08897507 0.1300944 0.4653832 0.1883351 0.4583439 0.2211232 0.4310857 0.2068498 0.1330359 0.1220708 0.148625 0.1438069 0.140066 0.154046 0.448412 0.2587568 0.4042007 0.2349171 0.4310857 0.2068498 0.448412 0.2587568 0.4390115 0.3059697 0.3713496 0.2723628 0.1586757 0.1121292 0.1330359 0.1220708 0.1162453 0.09724193 0.4785377 0.1882933 0.488614 0.2200357 0.4583439 0.2211232 0.1609985 0.138942 0.148625 0.1438069 0.1330359 0.1220708 0.4987322 0.2578591 0.448412 0.2587568 0.4583439 0.2211232 0.4987322 0.2578591 0.5121876 0.3024321 0.4390115 0.3059697 0.5220373 0.5032042 0.5260861 0.5073621 0.4735437 0.5370797 0.1516752 0.04657739 0.09421694 0.06834131 0.06733214 0.02891248 0.1516752 0.04657739 0.1560797 0.0826056 0.1162453 0.09724193 0.2128856 0.05608403 0.1516752 0.04657739 0.1482345 1.62217e-4 0.2128856 0.05608403 0.1971855 0.0901997 0.1560797 0.0826056 0.1971855 0.0901997 0.1854056 0.1170893 0.1586757 0.1121292 0.4899799 0.1816858 0.5139106 0.2041551 0.488614 0.2200357 0.174208 0.1410287 0.1609985 0.138942 0.1586757 0.1121292 0.5405341 0.2310447 0.4987322 0.2578591 0.488614 0.2200357 0.5758418 0.2649431 0.5121876 0.3024321 0.4987322 0.2578591 0.5516188 0.4540031 0.5571899 0.455629 0.5260861 0.5073621 0.5657077 0.1882283 0.5405341 0.2310447 0.5139106 0.2041551 0.5657077 0.1882283 0.6108271 0.199712 0.5758418 0.2649431 0.5531454 0.3966139 0.5587949 0.3952865 0.5571899 0.455629 0.2998235 0.06810981 0.2598085 0.09664857 0.2128856 0.05608403 0.2300319 0.1167935 0.1971855 0.0901997 0.2128856 0.05608403 0.2300319 0.1167935 0.2057443 0.1344692 0.1854056 0.1170893 0.5280056 0.1779967 0.5139106 0.2041551 0.4899799 0.1816858 0.2057443 0.1344692 0.1843174 0.1496304 0.174208 0.1410287 0.2457059 0.1565886 0.2300319 0.1167935 0.2598085 0.09664857 0.2159495 0.1596904 0.2057443 0.1344692 0.2300319 0.1167935 0.5268261 0.1481884 0.5280056 0.1779967 0.4960266 0.1700537 0.1891071 0.1619293 0.1843174 0.1496304 0.2057443 0.1344692 0.5644655 0.1376515 0.5657077 0.1882283 0.5280056 0.1779967 0.6109213 0.1262061 0.6108271 0.199712 0.5657077 0.1882283 0.5262207 0.3459089 0.5304849 0.3419721 0.5587949 0.3952865 0.2822976 0.154044 0.2598085 0.09664857 0.2998235 0.06810981 0.4778231 0.3150293 0.4795966 0.3095033 0.5304849 0.3419721 0.3152283 0.2353225 0.2703475 0.2139238 0.2822976 0.154044 0.238729 0.1989414 0.2457059 0.1565886 0.2822976 0.154044 0.238729 0.1989414 0.211001 0.1866864 0.2159495 0.1596904 0.4892686 0.1462674 0.5120301 0.1218296 0.5268261 0.1481884 0.1869883 0.1750417 0.1891071 0.1619293 0.2159495 0.1596904 0.5120301 0.1218296 0.5389003 0.09450423 0.5644655 0.1376515 0.5739912 0.06113159 0.6109213 0.1262061 0.5644655 0.1376515 0.2105704 0.2311477 0.1932769 0.2071319 0.211001 0.1866864 0.4781817 0.1397953 0.4852631 0.1075279 0.5120301 0.1218296 0.1785603 0.1852605 0.1869883 0.1750417 0.211001 0.1866864 0.4954417 0.07035171 0.5389003 0.09450423 0.5120301 0.1218296 0.5085845 0.02321124 0.5739912 0.06113159 0.5389003 0.09450423 0.4204946 0.3119772 0.4193179 0.3062942 0.4795966 0.3095033 0.2313464 0.2603642 0.2703475 0.2139238 0.3152283 0.2353225 0.2313464 0.2603642 0.2105704 0.2311477 0.238729 0.1989414 0.1746447 0.2795677 0.2313464 0.2603642 0.2565578 0.3005931 0.1746447 0.2795677 0.1713348 0.244472 0.2105704 0.2311477 0.1713348 0.244472 0.1681392 0.21589 0.1932769 0.2071319 0.465302 0.1397928 0.4552739 0.1083744 0.4852631 0.1075279 0.1662156 0.1898708 0.1785603 0.1852605 0.1932769 0.2071319 0.4459395 0.07138127 0.4954417 0.07035171 0.4852631 0.1075279 0.4355955 0.02665573 0.5085845 0.02321124 0.4954417 0.07035171 0.4023572 0.01424622 0.4303233 0.005614995 0.4355955 0.02665573 0.1532573 0.1877619 0.1662156 0.1898708 0.1681392 0.21589 0.4024369 0.09571033 0.4459395 0.07138127 0.4552739 0.1083744 0.3690007 0.05850172 0.4355955 0.02665573 0.4459395 0.07138127 0.3851559 0.5464544 0.3279263 0.5451447 0.3290295 0.5374041 0.1156624 0.2706472 0.1746447 0.2795677 0.1773727 0.3225804 0.1298723 0.2386229 0.1713348 0.244472 0.1746447 0.2795677 0.1298723 0.2386229 0.1422526 0.2112287 0.1681392 0.21589 0.4541223 0.1462372 0.4296694 0.1239081 0.4552739 0.1083744 0.06799036 0.233382 0.09754472 0.2115868 0.1298723 0.2386229 0.1216021 0.194826 0.1422526 0.2112287 0.1298723 0.2386229 0.4476329 0.1574357 0.4156917 0.1502637 0.4296694 0.1239081 0.1430132 0.1795523 0.1532573 0.1877619 0.1422526 0.2112287 0.3768939 0.1404163 0.4024369 0.09571033 0.4296694 0.1239081 0.3279264 0.1258231 0.3690007 0.05850172 0.4024369 0.09571033 0.3351025 0.4540023 0.3295314 0.4556282 0.3279263 0.3952855 0.06799036 0.233382 0.1156624 0.2706472 0.09685552 0.3121928 0.4540064 0.1817578 0.4310857 0.2068498 0.4156588 0.1802753 0.3279263 0.2063167 0.3279264 0.1258231 0.3768939 0.1404163 0.3646844 0.5032039 0.3606355 0.5073619 0.3295314 0.4556282 1.62217e-4 0.1831007 0.04631268 0.1764435 0.06799036 0.233382 0.08147996 0.1724127 0.09754472 0.2115868 0.06799036 0.233382 0.1116856 0.16991 0.1216021 0.194826 0.09754472 0.2115868 0.4475567 0.1704009 0.4156588 0.1802753 0.4156917 0.1502637 0.1381377 0.1672575 0.1430132 0.1795523 0.1216021 0.194826 0.4156588 0.1802753 0.3785536 0.1916521 0.3768939 0.1404163 0.9036388 0.7896581 0.3279263 0.7896744 0.3281219 0.767477 0.7849009 0.5374041 0.7852782 0.5443823 0.3851559 0.5464544 0.4589127 1.62217e-4 0.5085845 0.02321124 0.4355955 0.02665573 0.2111815 0.3396035 0.1788533 0.3440271 0.1773727 0.3225804 0.3279263 0.6325063 0.3279263 0.6246861 0.3847784 0.631465 0.1773727 0.3225804 0.1788533 0.3440271 0.1464234 0.3440269 0.7804555 0.6910103 0.7975652 0.6899929 0.799001 0.696828 0.920371 0.7452974 0.9203846 0.7674776 0.9036518 0.7674776 0.3282958 0.7215784 0.9038515 0.721579 0.9038392 0.7449026 0.9038392 0.6982553 0.9038515 0.721579 0.3282958 0.7215784 0.9036388 0.7452966 0.9036518 0.7674776 0.3281219 0.767477 0.3847784 0.631465 0.7804555 0.6910103 0.7791798 0.6978771 0.9182946 0.721579 0.9302874 0.721579 0.9302783 0.7449047 0.9347026 0.7896581 0.9203709 0.7896577 0.9203846 0.7674776 0.8044314 0.5410102 0.8021223 0.5476059 0.7852782 0.5443823 0.9203709 0.7896577 0.9036388 0.7896581 0.9036518 0.7674776 0.9038515 0.721579 0.9182946 0.721579 0.9182851 0.7449054 0.9182853 0.6982525 0.9182946 0.721579 0.9038515 0.721579 0.8210091 0.5728979 0.814259 0.5710881 0.8120427 0.5578213 0.808717 0.6811517 0.8126284 0.6682903 0.8195518 0.6673693 0.9302784 0.6982533 0.9302874 0.721579 0.9182946 0.721579 0.9347027 0.745297 0.9347164 0.7674775 0.9203846 0.7674776 0.7975652 0.6899929 0.808717 0.6811517 0.8127621 0.6868453 0.8167929 0.5526956 0.8120427 0.5578213 0.8021223 0.5476059 0.9416003 0.721579 0.9561251 0.721579 0.9561299 0.7448975 0.968588 0.7896614 0.952091 0.7896604 0.9521081 0.7674776 0.952091 0.7896604 0.9347026 0.7896581 0.9347164 0.7674775 0.9302874 0.721579 0.9416003 0.721579 0.9416064 0.7449022 0.9416064 0.6982557 0.9416003 0.721579 0.9302874 0.721579 0.9520912 0.7452948 0.9521081 0.7674776 0.9347164 0.7674775 0.7888498 0.6180956 0.7846108 0.6125397 0.8087733 0.587439 0.8093056 0.6513769 0.7886043 0.623378 0.7935233 0.61842 0.9561299 0.6982604 0.9561251 0.721579 0.9416003 0.721579 0.9685883 0.7452939 0.9686045 0.7674777 0.9521081 0.7674776 0.8195518 0.6673693 0.8126284 0.6682903 0.8093056 0.6513769 0.8087733 0.587439 0.814259 0.5710881 0.8210091 0.5728979 0.02348506 0.3443515 0.046808 0.3443819 0.04566448 0.3501572 0.001301586 0.3501418 1.62217e-4 0.3443658 0.02348506 0.3443515 0.9998211 0.789663 0.968588 0.7896614 0.9686045 0.7674777 0.9561251 0.721579 0.9854636 0.721579 0.9854669 0.7448895 0.9854669 0.6982683 0.9854636 0.721579 0.9561251 0.721579 0.9998213 0.7452925 0.9998378 0.7674778 0.9686045 0.7674777</float_array>
          <technique_common>
            <accessor source="#Sphere-mesh-map-0-array" count="900" stride="2">
              <param name="S" type="float"/>
              <param name="T" type="float"/>
            </accessor>
          </technique_common>
        </source>
        <vertices id="Sphere-mesh-vertices">
          <input semantic="POSITION" source="#Sphere-mesh-positions"/>
        </vertices>
        <triangles material="Material-material" count="300">
          <input semantic="VERTEX" source="#Sphere-mesh-vertices" offset="0"/>
          <input semantic="NORMAL" source="#Sphere-mesh-normals" offset="1"/>
          <input semantic="TEXCOORD" source="#Sphere-mesh-map-0" offset="2" set="0"/>
          <p>17 0 0 6 1 1 16 2 2 10 3 3 1 4 4 0 5 5 11 6 6 2 7 7 1 4 8 12 8 9 3 9 10 2 7 11 13 10 12 4 11 13 3 9 14 14 12 15 5 13 16 4 11 17 16 2 18 5 13 19 15 14 20 22 15 21 12 8 22 21 16 23 23 17 24 13 10 25 22 15 26 23 17 27 15 14 28 14 12 29 25 18 30 15 14 31 24 19 32 18 20 33 10 3 34 9 21 35 25 18 36 17 0 37 16 2 38 20 22 39 10 3 40 19 23 41 20 22 42 12 8 43 11 6 44 34 24 45 24 19 46 33 25 47 27 26 48 19 23 49 18 20 50 35 27 51 25 18 52 34 24 53 29 28 54 19 23 55 28 29 56 29 28 57 21 16 58 20 22 59 30 30 60 22 15 61 21 16 62 32 31 63 22 15 64 31 32 65 32 31 66 24 19 67 23 17 68 41 33 69 31 32 70 40 34 71 41 33 72 33 25 73 32 31 74 42 35 75 34 24 76 33 25 77 36 36 78 28 29 79 27 26 80 44 37 81 34 24 82 43 38 83 38 39 84 28 29 85 37 40 86 39 41 87 29 28 88 38 39 89 39 41 90 31 32 91 30 30 92 47 42 93 37 40 94 46 43 95 47 42 96 39 41 97 38 39 98 48 44 99 40 34 100 39 41 101 49 45 102 41 33 103 40 34 104 51 46 105 41 33 106 50 47 107 51 46 108 43 38 109 42 35 110 46 43 111 36 36 112 45 48 113 52 49 114 44 37 115 43 38 116 60 50 117 50 47 118 59 51 119 61 52 120 51 46 121 60 50 122 55 53 123 45 48 124 54 54 125 62 55 126 52 49 127 61 52 128 56 56 129 46 43 130 55 53 131 57 57 132 47 42 133 56 56 134 57 57 135 49 45 136 48 44 137 59 51 138 49 45 139 58 58 140 66 59 141 58 58 142 57 57 143 67 60 144 59 51 145 58 58 146 69 61 147 59 51 148 68 62 149 69 61 150 61 52 151 60 50 152 63 63 153 55 53 154 54 54 155 71 64 156 61 52 157 70 65 158 64 66 159 56 56 160 55 53 161 66 59 162 56 56 163 65 67 164 78 68 165 70 65 166 69 61 167 72 69 168 64 66 169 63 63 170 80 70 171 70 65 172 79 71 173 74 72 174 64 66 175 73 73 176 75 74 177 65 67 178 74 72 179 75 74 180 67 60 181 66 59 182 77 75 183 67 60 184 76 76 185 77 75 186 69 61 187 68 62 188 86 77 189 76 76 190 85 78 191 86 77 192 78 68 193 77 75 194 87 79 195 79 71 196 78 68 197 81 80 198 73 73 199 72 69 200 89 81 201 79 71 202 88 82 203 83 83 204 73 73 205 82 84 206 84 85 207 74 72 208 83 83 209 114 86 210 84 85 211 94 87 212 99 88 213 88 82 214 98 89 215 93 90 216 82 84 217 92 91 218 94 87 219 83 83 220 93 90 221 111 92 222 75 74 223 110 93 224 96 94 225 85 78 226 95 95 227 97 96 228 86 77 229 96 94 230 97 96 231 88 82 232 87 79 233 91 97 234 82 84 235 81 80 236 105 98 237 97 96 238 96 94 239 107 99 240 97 96 241 106 100 242 100 101 243 92 91 244 91 97 245 108 102 246 98 89 247 107 99 248 102 103 249 92 91 250 101 104 251 103 105 252 93 90 253 102 103 254 103 105 255 95 95 256 94 87 257 105 98 258 95 95 259 104 106 260 9 21 261 0 5 262 109 107 263 17 0 264 8 108 265 7 109 266 90 110 267 9 21 268 109 107 269 90 110 270 18 20 271 9 21 272 26 111 273 8 108 274 17 0 275 35 27 276 8 108 277 26 111 278 90 110 279 27 26 280 18 20 281 90 110 282 36 36 283 27 26 284 44 37 285 8 108 286 35 27 287 53 112 288 8 108 289 44 37 290 90 110 291 45 48 292 36 36 293 90 110 294 54 54 295 45 48 296 62 55 297 8 108 298 53 112 299 90 110 300 63 63 301 54 54 302 71 64 303 8 108 304 62 55 305 80 70 306 8 108 307 71 64 308 90 110 309 72 69 310 63 63 311 90 110 312 81 80 313 72 69 314 89 81 315 8 108 316 80 70 317 99 88 318 8 108 319 89 81 320 90 110 321 91 97 322 81 80 323 90 110 324 100 101 325 91 97 326 108 102 327 8 108 328 99 88 329 2 7 330 102 103 331 1 4 332 2 7 333 104 106 334 103 105 335 3 9 336 105 98 337 104 106 338 5 13 339 105 98 340 4 11 341 90 110 342 109 107 343 100 101 344 6 1 345 106 100 346 5 13 347 109 107 348 101 104 349 100 101 350 7 109 351 107 99 352 6 1 353 0 5 354 102 103 355 101 104 356 7 109 357 8 108 358 108 102 359 116 113 360 112 114 361 118 115 362 116 113 363 111 92 364 110 93 365 110 93 366 84 85 367 112 114 368 111 92 369 85 78 370 76 76 371 94 87 372 115 116 373 114 86 374 85 78 375 115 116 376 95 95 377 121 117 378 126 118 379 120 119 380 126 118 381 118 115 382 120 119 383 113 120 384 121 117 385 115 116 386 117 121 387 113 120 388 111 92 389 120 119 390 112 114 391 114 86 392 115 116 393 120 119 394 114 86 395 125 122 396 133 123 397 127 124 398 128 125 399 124 126 400 130 127 401 122 128 402 117 121 403 116 113 404 122 128 405 118 115 406 124 126 407 119 129 408 127 124 409 121 117 410 123 130 411 119 129 412 117 121 413 134 131 414 129 132 415 128 125 416 133 123 417 138 133 418 132 134 419 129 132 420 125 122 421 123 130 422 132 134 423 124 126 424 126 118 425 127 124 426 132 134 427 126 118 428 128 125 429 123 130 430 122 128 431 137 135 432 145 136 433 139 137 434 140 138 435 136 139 436 142 140 437 134 131 438 130 127 439 136 139 440 131 141 441 139 137 442 133 123 443 135 142 444 131 141 445 129 132 446 138 133 447 130 127 448 132 134 449 146 143 450 141 144 451 140 138 452 145 136 453 150 145 454 144 146 455 141 144 456 137 135 457 135 142 458 144 146 459 136 139 460 138 133 461 138 133 462 145 136 463 144 146 464 141 144 465 134 131 466 140 138 467 149 147 468 146 143 469 148 148 470 150 145 471 149 147 472 148 148 473 146 143 474 142 140 475 148 148 476 143 149 477 151 150 478 145 136 479 147 151 480 143 149 481 141 144 482 150 145 483 142 140 484 144 146 485 17 0 486 7 109 487 6 1 488 10 3 489 11 6 490 1 4 491 11 6 492 12 8 493 2 7 494 12 8 495 13 10 496 3 9 497 13 10 498 14 12 499 4 11 500 14 12 501 15 14 502 5 13 503 16 2 504 6 1 505 5 13 506 22 15 507 13 10 508 12 8 509 23 17 510 14 12 511 13 10 512 23 17 513 24 19 514 15 14 515 25 18 516 16 2 517 15 14 518 18 20 519 19 23 520 10 3 521 25 18 522 26 111 523 17 0 524 20 22 525 11 6 526 10 3 527 20 22 528 21 16 529 12 8 530 34 24 531 25 18 532 24 19 533 27 26 534 28 29 535 19 23 536 35 27 537 26 111 538 25 18 539 29 28 540 20 22 541 19 23 542 29 28 543 30 30 544 21 16 545 30 30 546 31 32 547 22 15 548 32 31 549 23 17 550 22 15 551 32 31 552 33 25 553 24 19 554 41 33 555 32 31 556 31 32 557 41 33 558 42 35 559 33 25 560 42 35 561 43 38 562 34 24 563 36 36 564 37 40 565 28 29 566 44 37 567 35 27 568 34 24 569 38 39 570 29 28 571 28 29 572 39 41 573 30 30 574 29 28 575 39 41 576 40 34 577 31 32 578 47 42 579 38 39 580 37 40 581 47 42 582 48 44 583 39 41 584 48 44 585 49 45 586 40 34 587 49 45 588 50 47 589 41 33 590 51 46 591 42 35 592 41 33 593 51 46 594 52 49 595 43 38 596 46 43 597 37 40 598 36 36 599 52 49 600 53 112 601 44 37 602 60 50 603 51 46 604 50 47 605 61 52 606 52 49 607 51 46 608 55 53 609 46 43 610 45 48 611 62 55 612 53 112 613 52 49 614 56 56 615 47 42 616 46 43 617 57 57 618 48 44 619 47 42 620 57 57 621 58 58 622 49 45 623 59 51 624 50 47 625 49 45 626 66 59 627 67 60 628 58 58 629 67 60 630 68 62 631 59 51 632 69 61 633 60 50 634 59 51 635 69 61 636 70 65 637 61 52 638 63 63 639 64 66 640 55 53 641 71 64 642 62 55 643 61 52 644 64 66 645 65 67 646 56 56 647 66 59 648 57 57 649 56 56 650 78 68 651 79 71 652 70 65 653 72 69 654 73 73 655 64 66 656 80 70 657 71 64 658 70 65 659 74 72 660 65 67 661 64 66 662 75 74 663 66 59 664 65 67 665 75 74 666 76 76 667 67 60 668 77 75 669 68 62 670 67 60 671 77 75 672 78 68 673 69 61 674 86 77 675 77 75 676 76 76 677 86 77 678 87 79 679 78 68 680 87 79 681 88 82 682 79 71 683 81 80 684 82 84 685 73 73 686 89 81 687 80 70 688 79 71 689 83 83 690 74 72 691 73 73 692 84 85 693 75 74 694 74 72 695 114 86 696 112 114 697 84 85 698 99 88 699 89 81 700 88 82 701 93 90 702 83 83 703 82 84 704 94 87 705 84 85 706 83 83 707 111 92 708 76 76 709 75 74 710 96 94 711 86 77 712 85 78 713 97 96 714 87 79 715 86 77 716 97 96 717 98 89 718 88 82 719 91 97 720 92 91 721 82 84 722 105 98 723 106 100 724 97 96 725 107 99 726 98 89 727 97 96 728 100 101 729 101 104 730 92 91 731 108 102 732 99 88 733 98 89 734 102 103 735 93 90 736 92 91 737 103 105 738 94 87 739 93 90 740 103 105 741 104 106 742 95 95 743 105 98 744 96 94 745 95 95 746 9 21 747 10 3 748 0 5 749 2 7 750 103 105 751 102 103 752 2 7 753 3 9 754 104 106 755 3 9 756 4 11 757 105 98 758 5 13 759 106 100 760 105 98 761 6 1 762 107 99 763 106 100 764 109 107 765 0 5 766 101 104 767 7 109 768 108 102 769 107 99 770 0 5 771 1 4 772 102 103 773 116 113 774 110 93 775 112 114 776 116 113 777 117 121 778 111 92 779 110 93 780 75 74 781 84 85 782 111 92 783 113 120 784 85 78 785 94 87 786 95 95 787 115 116 788 85 78 789 113 120 790 115 116 791 121 117 792 127 124 793 126 118 794 126 118 795 124 126 796 118 115 797 113 120 798 119 129 799 121 117 800 117 121 801 119 129 802 113 120 803 120 119 804 118 115 805 112 114 806 115 116 807 121 117 808 120 119 809 125 122 810 131 141 811 133 123 812 128 125 813 122 128 814 124 126 815 122 128 816 123 130 817 117 121 818 122 128 819 116 113 820 118 115 821 119 129 822 125 122 823 127 124 824 123 130 825 125 122 826 119 129 827 134 131 828 135 142 829 129 132 830 133 123 831 139 137 832 138 133 833 129 132 834 131 141 835 125 122 836 132 134 837 130 127 838 124 126 839 127 124 840 133 123 841 132 134 842 128 125 843 129 132 844 123 130 845 137 135 846 143 149 847 145 136 848 140 138 849 134 131 850 136 139 851 134 131 852 128 125 853 130 127 854 131 141 855 137 135 856 139 137 857 135 142 858 137 135 859 131 141 860 138 133 861 136 139 862 130 127 863 146 143 864 147 151 865 141 144 866 145 136 867 151 150 868 150 145 869 141 144 870 143 149 871 137 135 872 144 146 873 142 140 874 136 139 875 138 133 876 139 137 877 145 136 878 141 144 879 135 142 880 134 131 881 149 147 882 147 151 883 146 143 884 150 145 885 151 150 886 149 147 887 146 143 888 140 138 889 142 140 890 143 149 891 149 147 892 151 150 893 147 151 894 149 147 895 143 149 896 150 145 897 148 148 898 142 140 899</p>
        </triangles>
      </mesh>
      <extra><technique profile="MAYA"><double_sided>1</double_sided></technique></extra>
    </geometry>
  </library_geometries>
  <library_controllers/>
  <library_visual_scenes>
    <visual_scene id="Scene" name="Scene">
      <node id="Sphere" name="Sphere" type="NODE">
        <matrix sid="transform">1 0 0 0 0 1 0 0 0 0 1 0 0 0 0 1</matrix>
        <instance_geometry url="#Sphere-mesh" name="Sphere">
          <bind_material>
            <technique_common>
              <instance_material symbol="Material-material" target="#Material-material"/>
            </technique_common>
          </bind_material>
        </instance_geometry>
      </node>
    </visual_scene>
  </library_visual_scenes>
  <scene>
    <instance_visual_scene url="#Scene"/>
  </scene>
</COLLADA>