<?xml version="1.0" encoding="utf-8"?>
<COLLADA xmlns="http://www.collada.org/2005/11/COLLADASchema" version="1.4.0">
  <asset>
    <contributor>
      <author>marc</author>
      <authoring_tool>Maya 7.0 | ColladaMaya v0.88</authoring_tool>
      <comments>Collada Maya Export Options: bakeTransforms=0;exportPolygonMeshes=1;bakeLighting=0;isSampling=0;
curveConstrainSampling=0;exportCameraAsLookat=0;relativePaths=0;
exportLights=1;exportCameras=0;exportJointsAndSkin=1;
exportAnimations=1;exportTriangles=1;exportInvisibleNodes=0;
exportNormals=1;exportTexCoords=1;exportVertexColors=1;exportTangents=0;
exportTexTangents=0;exportConstraints=1;exportPhysics=1;exportXRefs=1;
dereferenceXRefs=0;cameraXFov=0;cameraYFov=1</comments>
      <source_data>file://C|/penumbra/work_models/tech/tech_speaker/tech_speaker.mb</source_data>
    </contributor>
    <created>2007-12-03T09:42:06Z</created>
    <modified>2007-12-03T09:42:06Z</modified>
    <unit name="meter" meter="1.000000"/>
    <up_axis>Y_UP</up_axis>
  </asset>
  <library_images>
    <image id="file1-image" name="file1">
      <init_from>file://C|/penumbra/redist/models/tech/tech_speaker.jpg</init_from>
    </image>
    <image id="file2-image" name="file2">
      <init_from>file://C|/penumbra/redist/models/tech/tech_speaker_bump.jpg</init_from>
    </image>
  </library_images>
  <library_materials>
    <material id="blinn1" name="blinn1">
      <instance_effect url="#blinn1-fx"/>
    </material>
    <material id="lambert1" name="lambert1">
      <instance_effect url="#lambert1-fx"/>
    </material>
  </library_materials>
  <library_effects>
    <effect id="blinn1-fx" name="blinn1">
      <profile_COMMON>
        <technique sid="standard">
          <lambert>
            <emission>
              <color sid="emission">0 0 0 1.000000</color>
            </emission>
            <ambient>
              <color sid="ambient">0 0 0 1.000000</color>
            </ambient>
            <diffuse>
              <texture texture="file1-image" texcoord="UVSET0">
                <extra>
                  <technique profile="MAYA">
                    <wrapU sid="wrapU0">true</wrapU>
                    <wrapV sid="wrapV0">true</wrapV>
                    <mirrorU sid="mirrorU0">false</mirrorU>
                    <mirrorV sid="mirrorV0">false</mirrorV>
                    <coverageU sid="coverageU0">1.000000</coverageU>
                    <coverageV sid="coverageV0">1.000000</coverageV>
                    <translateFrameU sid="translateFrameU0">0</translateFrameU>
                    <translateFrameV sid="translateFrameV0">0</translateFrameV>
                    <rotateFrame sid="rotateFrame0">0</rotateFrame>
                    <stagger sid="stagger0">false</stagger>
                    <fast sid="fast0">false</fast>
                    <repeatU sid="repeatU0">1.000000</repeatU>
                    <repeatV sid="repeatV0">1.000000</repeatV>
                    <offsetU sid="offsetU0">0</offsetU>
                    <offsetV sid="offsetV0">0</offsetV>
                    <rotateUV sid="rotateUV0">0</rotateUV>
                    <noiseU sid="noiseU0">0</noiseU>
                    <noiseV sid="noiseV0">0</noiseV>
                    <blend_mode>NONE</blend_mode>
                  </technique>
                </extra>
              </texture>
            </diffuse>
            <transparent>
              <color sid="transparent">0 0 0 1.000000</color>
            </transparent>
            <transparency>
              <float>1</float>
            </transparency>
          </lambert>
          <extra>
            <technique profile="MAYA">
              <bump>
                <texture texture="file2-image" texcoord="UVSET0">
                  <extra>
                    <technique profile="MAYA">
                      <wrapU sid="wrapU0">true</wrapU>
                      <wrapV sid="wrapV0">true</wrapV>
                      <mirrorU sid="mirrorU0">false</mirrorU>
                      <mirrorV sid="mirrorV0">false</mirrorV>
                      <coverageU sid="coverageU0">1.000000</coverageU>
                      <coverageV sid="coverageV0">1.000000</coverageV>
                      <translateFrameU sid="translateFrameU0">0</translateFrameU>
                      <translateFrameV sid="translateFrameV0">0</translateFrameV>
                      <rotateFrame sid="rotateFrame0">0</rotateFrame>
                      <stagger sid="stagger0">false</stagger>
                      <fast sid="fast0">false</fast>
                      <repeatU sid="repeatU0">1.000000</repeatU>
                      <repeatV sid="repeatV0">1.000000</repeatV>
                      <offsetU sid="offsetU0">0</offsetU>
                      <offsetV sid="offsetV0">0</offsetV>
                      <rotateUV sid="rotateUV0">0</rotateUV>
                      <noiseU sid="noiseU0">0</noiseU>
                      <noiseV sid="noiseV0">0</noiseV>
                      <blend_mode>NONE</blend_mode>
                    </technique>
                  </extra>
                </texture>
              </bump>
            </technique>
          </extra>
        </technique>
      </profile_COMMON>
    </effect>
    <effect id="lambert1-fx" name="lambert1">
      <profile_COMMON>
        <technique sid="standard">
          <lambert>
            <emission>
              <color sid="emission">0 0 0 1.000000</color>
            </emission>
            <ambient>
              <color sid="ambient">0 0 0 1.000000</color>
            </ambient>
            <diffuse>
              <color sid="diffuse">0.500000 0.500000 0.500000 1.000000</color>
            </diffuse>
            <transparent>
              <color sid="transparent">0 0 0 1.000000</color>
            </transparent>
            <transparency>
              <float>1</float>
            </transparency>
          </lambert>
        </technique>
      </profile_COMMON>
    </effect>
  </library_effects>
  <library_geometries>
    <geometry id="_collider_box_Shape1-lib" name="_collider_box_Shape1">
      <mesh>
        <source id="_collider_box_Shape1-lib-Position">
          <float_array count="24" id="_collider_box_Shape1-lib-Position-array">
-0.500000 -0.500000 0.500000
0.500000 -0.500000 0.500000
-0.500000 0.500000 0.500000
0.500000 0.500000 0.500000
-0.500000 0.500000 -0.500000
0.500000 0.500000 -0.500000
-0.500000 -0.500000 -0.500000
0.500000 -0.500000 -0.500000
</float_array>
          <technique_common>
            <accessor source="#_collider_box_Shape1-lib-Position-array" count="8" stride="3">
              <param name="X" type="float"/>
              <param name="Y" type="float"/>
              <param name="Z" type="float"/>
            </accessor>
          </technique_common>
        </source>
        <source id="_collider_box_Shape1-lib-Normal">
          <float_array count="72" id="_collider_box_Shape1-lib-Normal-array">
0 0 1.000000
0 0 1.000000
0 0 1.000000
0 0 1.000000
0 1.000000 0
0 1.000000 0
0 1.000000 0
0 1.000000 0
0 0 -1.000000
0 0 -1.000000
0 0 -1.000000
0 0 -1.000000
0 -1.000000 0
0 -1.000000 0
0 -1.000000 0
0 -1.000000 0
1.000000 0 0
1.000000 0 0
1.000000 0 0
1.000000 0 0
-1.000000 0 0
-1.000000 0 0
-1.000000 0 0
-1.000000 0 0
</float_array>
          <technique_common>
            <accessor source="#_collider_box_Shape1-lib-Normal-array" count="24" stride="3">
              <param name="X" type="float"/>
              <param name="Y" type="float"/>
              <param name="Z" type="float"/>
            </accessor>
          </technique_common>
          <technique profile="MAYA">
            <DOUBLE_SIDED>true</DOUBLE_SIDED>
          </technique>
        </source>
        <source id="_collider_box_Shape1-lib-map1" name="map1">
          <float_array count="28" id="_collider_box_Shape1-lib-map1-array">
0 0
1.000000 0
0 1.000000
1.000000 1.000000
0 2.000000
1.000000 2.000000
0 3.000000
1.000000 3.000000
0 4.000000
1.000000 4.000000
2.000000 0
2.000000 1.000000
-1.000000 0
-1.000000 1.000000
</float_array>
          <technique_common>
            <accessor source="#_collider_box_Shape1-lib-map1-array" count="14" stride="2">
              <param name="S" type="float"/>
              <param name="T" type="float"/>
            </accessor>
          </technique_common>
        </source>
        <vertices id="_collider_box_Shape1-lib-Vertex">
          <input semantic="POSITION" source="#_collider_box_Shape1-lib-Position"/>
        </vertices>
        <triangles material="blinn1" count="12">
          <input semantic="VERTEX" offset="0" source="#_collider_box_Shape1-lib-Vertex"/>
          <input semantic="NORMAL" offset="1" source="#_collider_box_Shape1-lib-Normal"/>
          <input semantic="TEXCOORD" offset="2" set="0" source="#_collider_box_Shape1-lib-map1"/>
          <p>0 0 0 1 1 1 2 3 2 1 1 1 3 2 3 2 3 2 2 4 2 3 5 3 4 7 4 3 5 3 5 6 5 4 7 4 4 8 4 5 9 5 6 11 6 5 9 5 7 10 7 6 11 6 6 12 6 7 13 7 0 15 8 7 13 7 1 14 9 0 15 8 1 16 1 7 17 10 3 19 3 7 17 10 5 18 11 3 19 3 6 20 12 0 21 0 4 23 13 0 21 0 2 22 2 4 23 13</p>
        </triangles>
      </mesh>
    </geometry>
    <geometry id="polySurfaceShape9-lib" name="polySurfaceShape9">
      <mesh>
        <source id="polySurfaceShape9-lib-Position">
          <float_array count="345" id="polySurfaceShape9-lib-Position-array">
0.133600 0.278828 -0.072608
0.133600 0.209944 -0.094734
0.133600 0.206820 -0.222128
0.133600 -0.193340 -0.223619
0.133600 -0.223666 -0.132643
0.083402 0.278828 -0.072608
0.083402 0.209944 -0.094734
0.083402 0.206820 -0.222128
0.083402 -0.193340 -0.223619
0.083402 -0.223666 -0.132643
0.132267 0.276047 -0.071884
0.132267 0.207849 -0.093789
0.132267 0.204757 -0.219913
0.132267 -0.191412 -0.221388
0.132267 -0.221435 -0.131320
0.082571 0.276047 -0.071884
0.082571 0.207849 -0.093789
0.082571 0.204757 -0.219913
0.082571 -0.191412 -0.221388
0.082571 -0.221435 -0.131320
-0.084276 0.279356 -0.072745
-0.084276 0.210341 -0.094914
-0.084276 0.207212 -0.222549
-0.084276 -0.193706 -0.224042
-0.084276 -0.224090 -0.132894
-0.134568 0.279356 -0.072745
-0.134568 0.210341 -0.094914
-0.134568 0.207212 -0.222549
-0.134568 -0.193706 -0.224042
-0.134568 -0.224090 -0.132894
-0.083278 0.276047 -0.071884
-0.083278 0.207849 -0.093789
-0.083278 0.204757 -0.219913
-0.083278 -0.191412 -0.221388
-0.083278 -0.221435 -0.131320
-0.132974 0.276047 -0.071884
-0.132974 0.207849 -0.093789
-0.132974 0.204757 -0.219913
-0.132974 -0.191412 -0.221388
-0.132974 -0.221435 -0.131320
-0.200000 -0.284117 0.065404
0.200000 -0.284117 0.065404
-0.200000 0.191412 0.219913
0.200000 0.191412 0.219913
-0.200000 0.284117 -0.065404
0.200000 0.284117 -0.065404
-0.200000 -0.191412 -0.219913
0.200000 -0.191412 -0.219913
0.156631 0.056448 0.167457
0.119880 0.108758 0.184454
0.064879 0.143710 0.195810
0.000000 0.155984 0.199798
-0.064879 0.143710 0.195810
-0.119880 0.108758 0.184454
-0.156631 0.056448 0.167457
-0.169537 -0.005255 0.147409
-0.156631 -0.066959 0.127360
-0.119880 -0.119268 0.110363
-0.064879 -0.154220 0.099007
-0.000000 -0.166494 0.095019
0.064879 -0.154220 0.099007
0.119880 -0.119268 0.110363
0.156631 -0.066959 0.127360
0.169537 -0.005255 0.147409
0.145392 0.044640 0.188732
0.111278 0.093196 0.204509
0.060223 0.125640 0.215051
0.000000 0.137033 0.218753
-0.060223 0.125640 0.215051
-0.111278 0.093196 0.204509
-0.145392 0.044640 0.188733
-0.157371 -0.012635 0.170123
-0.145392 -0.069911 0.151513
-0.111278 -0.118467 0.135736
-0.060223 -0.150911 0.125194
-0.000000 -0.162304 0.121492
0.060223 -0.150911 0.125194
0.111278 -0.118467 0.135736
0.145392 -0.069911 0.151513
0.157371 -0.012635 0.170123
0 -0.012635 0.170123
0.159876 -0.175832 0.085512
0.124199 -0.161777 0.090079
0.088522 -0.175832 0.085512
0.073744 -0.209763 0.074487
0.088522 -0.243694 0.063462
0.124199 -0.257749 0.058896
0.159876 -0.243694 0.063462
0.174654 -0.209763 0.074487
0.155466 -0.187406 0.106863
0.124199 -0.175089 0.110866
0.092931 -0.187406 0.106863
0.079980 -0.217143 0.097201
0.092931 -0.246880 0.087539
0.124199 -0.259198 0.083537
0.155466 -0.246880 0.087539
0.168417 -0.217143 0.097201
0.124199 -0.217143 0.097201
-0.090310 -0.175832 0.085512
-0.125987 -0.161777 0.090079
-0.161664 -0.175832 0.085512
-0.176442 -0.209763 0.074487
-0.161664 -0.243694 0.063462
-0.125987 -0.257749 0.058896
-0.090310 -0.243694 0.063462
-0.075532 -0.209763 0.074487
-0.094719 -0.187406 0.106863
-0.125987 -0.175089 0.110866
-0.157254 -0.187406 0.106863
-0.170205 -0.217143 0.097201
-0.157254 -0.246880 0.087539
-0.125987 -0.259198 0.083537
-0.094719 -0.246880 0.087539
-0.081768 -0.217143 0.097201
-0.125987 -0.217143 0.097201
</float_array>
          <technique_common>
            <accessor source="#polySurfaceShape9-lib-Position-array" count="115" stride="3">
              <param name="X" type="float"/>
              <param name="Y" type="float"/>
              <param name="Z" type="float"/>
            </accessor>
          </technique_common>
        </source>
        <source id="polySurfaceShape9-lib-Normal">
          <float_array count="465" id="polySurfaceShape9-lib-Normal-array">
0 0.305820 -0.952089
0 0.305820 -0.952089
0 0.305820 -0.952089
0 0.305820 -0.952089
0 0.999700 -0.024513
0 0.999700 -0.024513
0 0.999700 -0.024513
0 0.999700 -0.024513
0 0.003724 -0.999993
0 0.003724 -0.999993
0 0.003724 -0.999993
0 0.003724 -0.999993
0 -0.948681 -0.316236
0 -0.948681 -0.316236
0 -0.948681 -0.316236
0 -0.948681 -0.316236
0 -0.305820 0.952089
0 -0.305820 0.952089
0 -0.305820 0.952089
0 -0.305820 0.952089
0 -0.999700 0.024513
0 -0.999700 0.024513
0 -0.999700 0.024513
0 -0.999700 0.024513
0 -0.003724 0.999993
0 -0.003724 0.999993
0 -0.003724 0.999993
0 -0.003724 0.999993
0 0.948681 0.316236
0 0.948681 0.316236
0 0.948681 0.316236
0 0.948681 0.316236
0 0.305820 -0.952089
0 0.305820 -0.952089
0 0.305820 -0.952089
0 0.305820 -0.952089
0 0.999700 -0.024512
0 0.999700 -0.024512
0 0.999700 -0.024512
0 0.999700 -0.024512
0 0.003724 -0.999993
0 0.003724 -0.999993
0 0.003724 -0.999993
0 0.003724 -0.999993
0 -0.948681 -0.316236
0 -0.948681 -0.316236
0 -0.948681 -0.316236
0 -0.948681 -0.316236
0 -0.305820 0.952089
0 -0.305820 0.952089
0 -0.305820 0.952089
0 -0.305820 0.952089
0 -0.999700 0.024513
0 -0.999700 0.024513
0 -0.999700 0.024513
0 -0.999700 0.024513
0 -0.003724 0.999993
0 -0.003724 0.999993
0 -0.003724 0.999993
0 -0.003724 0.999993
0 0.948681 0.316236
0 0.948681 0.316236
0 0.948681 0.316236
0 0.948681 0.316236
0 -0.309017 0.951057
0 -0.309017 0.951057
0 -0.309017 0.951057
0 -0.309017 0.951057
0 0.951057 0.309017
0 0.951057 0.309017
0 0.951057 0.309017
0 0.951057 0.309017
0 0.309017 -0.951057
0 0.309017 -0.951057
0 0.309017 -0.951057
0 0.309017 -0.951057
0 -0.951057 -0.309017
0 -0.951057 -0.309017
0 -0.951057 -0.309017
0 -0.951057 -0.309017
1.000000 0 0
1.000000 0 0
1.000000 0 0
1.000000 0 0
-1.000000 0 0
-1.000000 0 0
-1.000000 0 0
-1.000000 0 0
0.823227 0.184041 0.537053
0.630071 0.458971 0.626383
0.366633 0.084455 0.926524
0.479029 -0.075525 0.874544
0.340992 0.642674 0.686072
0.198421 0.191350 0.961257
0.000001 0.707182 0.707032
0.000000 0.228886 0.973453
-0.340992 0.642674 0.686072
-0.198420 0.191350 0.961257
-0.630071 0.458972 0.626383
-0.366633 0.084455 0.926524
-0.823227 0.184041 0.537053
-0.479029 -0.075525 0.874544
-0.891055 -0.140261 0.431681
-0.518497 -0.264234 0.813229
-0.823227 -0.464564 0.326308
-0.479029 -0.452943 0.751913
-0.630071 -0.739494 0.236978
-0.366633 -0.612923 0.699933
-0.340992 -0.923197 0.177290
-0.198420 -0.719818 0.665201
0 -0.987705 0.156329
0 -0.757354 0.653004
0.340992 -0.923197 0.177289
0.198420 -0.719818 0.665200
0.630071 -0.739495 0.236978
0.366633 -0.612923 0.699933
0.823227 -0.464564 0.326308
0.479029 -0.452943 0.751913
0.891055 -0.140261 0.431681
0.518497 -0.264234 0.813229
0 -0.309017 0.951056
0.415985 0.145738 0.897618
0.684166 0.572605 0.451709
0.000000 0.842125 0.539282
0.000000 0.309611 0.950863
-0.684165 0.572605 0.451710
-0.415984 0.145738 0.897618
-0.967556 -0.078075 0.240291
-0.588291 -0.249886 0.769072
-0.684166 -0.728755 0.028872
-0.415984 -0.645511 0.640525
-0.000000 -0.998276 -0.058700
-0.000000 -0.809384 0.587279
0.684165 -0.728755 0.028872
0.415984 -0.645511 0.640525
0.967556 -0.078075 0.240291
0.588291 -0.249886 0.769071
0.000000 -0.309017 0.951056
0.415985 0.145738 0.897618
0.684166 0.572605 0.451710
0.000000 0.842125 0.539282
0.000000 0.309611 0.950863
-0.684165 0.572605 0.451710
-0.415984 0.145738 0.897618
-0.967556 -0.078075 0.240291
-0.588291 -0.249886 0.769072
-0.684166 -0.728755 0.028873
-0.415984 -0.645511 0.640525
-0.000000 -0.998276 -0.058700
0 -0.809384 0.587280
0.684165 -0.728755 0.028872
0.415984 -0.645511 0.640525
0.967556 -0.078075 0.240291
0.588291 -0.249886 0.769071
0.000000 -0.309017 0.951056
</float_array>
          <technique_common>
            <accessor source="#polySurfaceShape9-lib-Normal-array" count="155" stride="3">
              <param name="X" type="float"/>
              <param name="Y" type="float"/>
              <param name="Z" type="float"/>
            </accessor>
          </technique_common>
          <technique profile="MAYA">
            <DOUBLE_SIDED>true</DOUBLE_SIDED>
          </technique>
        </source>
        <source id="polySurfaceShape9-lib-map1" name="map1">
          <float_array count="258" id="polySurfaceShape9-lib-map1-array">
0.978396 0.021813
0.978396 0.100603
0.930867 0.100603
0.930867 0.021813
0.978396 0.202174
0.930867 0.202174
0.978396 0.548560
0.978396 0.887522
0.930867 0.887522
0.930867 0.548560
0.978396 0.978187
0.930867 0.978187
0.978396 0.021813
0.930867 0.021813
0.930867 0.100603
0.978396 0.100603
0.930867 0.202174
0.978396 0.202174
0.978396 0.548560
0.930867 0.548560
0.930867 0.887522
0.978396 0.887522
0.930867 0.978187
0.978396 0.978187
0.978396 0.021813
0.978396 0.100603
0.930867 0.100603
0.930867 0.021813
0.978396 0.202174
0.930867 0.202174
0.978396 0.548560
0.978396 0.887522
0.930867 0.887522
0.930867 0.548560
0.978396 0.978187
0.930867 0.978187
0.978396 0.021813
0.930867 0.021813
0.930867 0.100603
0.978396 0.100603
0.930867 0.202174
0.978396 0.202174
0.978396 0.548560
0.930867 0.548560
0.930867 0.887522
0.978396 0.887522
0.930867 0.978187
0.978396 0.978187
0.201892 0.499100
0.444429 0.499100
0.444645 0.802753
0.201675 0.802753
0.444668 0.985016
0.201652 0.985016
0.201699 0.013833
0.444622 0.013833
0.444429 0.317487
0.201892 0.317487
0.626621 0.498971
0.626837 0.802624
0.019700 0.498971
0.019484 0.802624
0.878956 0.334887
0.831545 0.405839
0.815049 0.389344
0.857403 0.325959
0.760588 0.453248
0.751661 0.431696
0.676889 0.469896
0.676889 0.446568
0.593190 0.453248
0.602118 0.431696
0.522234 0.405839
0.538730 0.389344
0.474822 0.334887
0.496375 0.325960
0.458173 0.251193
0.481502 0.251193
0.474822 0.167498
0.496375 0.176425
0.522234 0.096546
0.538730 0.113041
0.593190 0.049137
0.602118 0.070689
0.676889 0.032489
0.676889 0.055816
0.760588 0.049137
0.751661 0.070689
0.831545 0.096546
0.815049 0.113041
0.878956 0.167498
0.857403 0.176425
0.895605 0.251192
0.872276 0.251192
0.676889 0.251192
0.855700 0.911951
0.874821 0.931068
0.773007 0.973239
0.773004 0.946202
0.671192 0.931068
0.690308 0.911951
0.629019 0.829260
0.656055 0.829260
0.671192 0.727451
0.690308 0.746569
0.773007 0.685281
0.773004 0.712317
0.874821 0.727451
0.855700 0.746569
0.916994 0.829260
0.889953 0.829260
0.773004 0.829260
0.855185 0.911735
0.874237 0.930807
0.772653 0.972883
0.772676 0.945910
0.671068 0.930808
0.690167 0.911735
0.628990 0.829229
0.655991 0.829231
0.671068 0.727650
0.690167 0.746726
0.772653 0.685574
0.772676 0.712552
0.874237 0.727650
0.855185 0.746726
0.916315 0.829229
0.889361 0.829231
0.772676 0.829231
</float_array>
          <technique_common>
            <accessor source="#polySurfaceShape9-lib-map1-array" count="129" stride="2">
              <param name="S" type="float"/>
              <param name="T" type="float"/>
            </accessor>
          </technique_common>
        </source>
        <vertices id="polySurfaceShape9-lib-Vertex">
          <input semantic="POSITION" source="#polySurfaceShape9-lib-Position"/>
        </vertices>
        <triangles material="blinn1" count="140">
          <input semantic="VERTEX" offset="0" source="#polySurfaceShape9-lib-Vertex"/>
          <input semantic="NORMAL" offset="1" source="#polySurfaceShape9-lib-Normal"/>
          <input semantic="TEXCOORD" offset="2" set="0" source="#polySurfaceShape9-lib-map1"/>
          <p>0 0 0 1 1 1 5 3 3 1 1 1 6 2 2 5 3 3 1 4 1 2 5 4 6 7 2 2 5 4 7 6 5 6 7 2 2 8 6 3 9 7 7 11 9 3 9 7 8 10 8 7 11 9 3 12 7 4 13 10 8 15 8 4 13 10 9 14 11 8 15 8 10 16 12 15 17 13 11 19 15 15 17 13 16 18 14 11 19 15 11 20 15 16 21 14 12 23 17 16 21 14 17 22 16 12 23 17 12 24 18 17 25 19 13 27 21 17 25 19 18 26 20 13 27 21 13 28 21 18 29 20 14 31 23 18 29 20 19 30 22 14 31 23 20 32 24 21 33 25 25 35 27 21 33 25 26 34 26 25 35 27 21 36 25 22 37 28 26 39 26 22 37 28 27 38 29 26 39 26 22 40 30 23 41 31 27 43 33 23 41 31 28 42 32 27 43 33 23 44 31 24 45 34 28 47 32 24 45 34 29 46 35 28 47 32 30 48 36 35 49 37 31 51 39 35 49 37 36 50 38 31 51 39 31 52 39 36 53 38 32 55 41 36 53 38 37 54 40 32 55 41 32 56 42 37 57 43 33 59 45 37 57 43 38 58 44 33 59 45 33 60 45 38 61 44 34 63 47 38 61 44 39 62 46 34 63 47 40 64 48 41 65 49 42 67 51 41 65 49 43 66 50 42 67 51 42 68 51 43 69 50 44 71 53 43 69 50 45 70 52 44 71 53 44 72 54 45 73 55 46 75 57 45 73 55 47 74 56 46 75 57 46 76 57 47 77 56 40 79 48 47 77 56 41 78 49 40 79 48 41 80 49 47 81 58 43 83 50 47 81 58 45 82 59 43 83 50 46 84 60 40 85 48 44 87 61 40 85 48 42 86 51 44 87 61 48 88 62 49 89 63 64 91 65 49 89 63 65 90 64 64 91 65 49 89 63 50 92 66 65 90 64 50 92 66 66 93 67 65 90 64 50 92 66 51 94 68 66 93 67 51 94 68 67 95 69 66 93 67 51 94 68 52 96 70 67 95 69 52 96 70 68 97 71 67 95 69 52 96 70 53 98 72 68 97 71 53 98 72 69 99 73 68 97 71 53 98 72 54 100 74 69 99 73 54 100 74 70 101 75 69 99 73 54 100 74 55 102 76 70 101 75 55 102 76 71 103 77 70 101 75 55 102 76 56 104 78 71 103 77 56 104 78 72 105 79 71 103 77 56 104 78 57 106 80 72 105 79 57 106 80 73 107 81 72 105 79 57 106 80 58 108 82 73 107 81 58 108 82 74 109 83 73 107 81 58 108 82 59 110 84 74 109 83 59 110 84 75 111 85 74 109 83 59 110 84 60 112 86 75 111 85 60 112 86 76 113 87 75 111 85 60 112 86 61 114 88 76 113 87 61 114 88 77 115 89 76 113 87 61 114 88 62 116 90 77 115 89 62 116 90 78 117 91 77 115 89 62 116 90 63 118 92 78 117 91 63 118 92 79 119 93 78 117 91 63 118 92 48 88 62 79 119 93 48 88 62 64 91 65 79 119 93 64 91 65 65 90 64 80 120 94 65 90 64 66 93 67 80 120 94 66 93 67 67 95 69 80 120 94 67 95 69 68 97 71 80 120 94 68 97 71 69 99 73 80 120 94 69 99 73 70 101 75 80 120 94 70 101 75 71 103 77 80 120 94 71 103 77 72 105 79 80 120 94 72 105 79 73 107 81 80 120 94 73 107 81 74 109 83 80 120 94 74 109 83 75 111 85 80 120 94 75 111 85 76 113 87 80 120 94 76 113 87 77 115 89 80 120 94 77 115 89 78 117 91 80 120 94 78 117 91 79 119 93 80 120 94 79 119 93 64 91 65 80 120 94 81 122 96 82 123 97 89 121 95 89 121 95 82 123 97 90 124 98 82 123 97 83 125 99 90 124 98 90 124 98 83 125 99 91 126 100 83 125 99 84 127 101 91 126 100 91 126 100 84 127 101 92 128 102 84 127 101 85 129 103 92 128 102 92 128 102 85 129 103 93 130 104 85 129 103 86 131 105 93 130 104 93 130 104 86 131 105 94 132 106 86 131 105 87 133 107 94 132 106 94 132 106 87 133 107 95 134 108 87 133 107 88 135 109 95 134 108 95 134 108 88 135 109 96 136 110 88 135 109 81 122 96 96 136 110 89 121 95 96 136 110 81 122 96 97 137 111 89 121 95 90 124 98 97 137 111 90 124 98 91 126 100 97 137 111 91 126 100 92 128 102 97 137 111 92 128 102 93 130 104 97 137 111 93 130 104 94 132 106 97 137 111 94 132 106 95 134 108 97 137 111 95 134 108 96 136 110 97 137 111 96 136 110 89 121 95 98 139 113 99 140 114 106 138 112 106 138 112 99 140 114 107 141 115 99 140 114 100 142 116 107 141 115 107 141 115 100 142 116 108 143 117 100 142 116 101 144 118 108 143 117 108 143 117 101 144 118 109 145 119 101 144 118 102 146 120 109 145 119 109 145 119 102 146 120 110 147 121 102 146 120 103 148 122 110 147 121 110 147 121 103 148 122 111 149 123 103 148 122 104 150 124 111 149 123 111 149 123 104 150 124 112 151 125 104 150 124 105 152 126 112 151 125 112 151 125 105 152 126 113 153 127 105 152 126 98 139 113 113 153 127 106 138 112 113 153 127 98 139 113 114 154 128 106 138 112 107 141 115 114 154 128 107 141 115 108 143 117 114 154 128 108 143 117 109 145 119 114 154 128 109 145 119 110 147 121 114 154 128 110 147 121 111 149 123 114 154 128 111 149 123 112 151 125 114 154 128 112 151 125 113 153 127 114 154 128 113 153 127 106 138 112</p>
        </triangles>
      </mesh>
    </geometry>
  </library_geometries>
  <library_visual_scenes>
    <visual_scene id="DefaultScene" name="tech_speaker">
      <node id="_collider_box_1" name="_collider_box_1" sid="_collider_box_1">
        <rotate sid="rotateZ">0 0 1 0</rotate>
        <rotate sid="rotateY">0 1 0 0</rotate>
        <rotate sid="rotateX">1 0 0 17.833458</rotate>
        <scale sid="scale">0.406102 0.507969 0.309274</scale>
        <instance_geometry url="#_collider_box_Shape1-lib">
          <bind_material>
            <technique_common>
              <instance_material symbol="blinn1" target="#blinn1">
                <bind semantic="UVSET0" target="#_collider_box_Shape1-lib-map1"/>
              </instance_material>
            </technique_common>
          </bind_material>
        </instance_geometry>
      </node>
      <node id="polySurface9" name="polySurface9" sid="polySurface9">
        <rotate sid="rotateZ">0 0 1 0</rotate>
        <rotate sid="rotateY">0 1 0 0</rotate>
        <rotate sid="rotateX">1 0 0 0</rotate>
        <instance_geometry url="#polySurfaceShape9-lib">
          <bind_material>
            <technique_common>
              <instance_material symbol="blinn1" target="#blinn1">
                <bind semantic="UVSET0" target="#polySurfaceShape9-lib-map1"/>
              </instance_material>
              <instance_material symbol="lambert1" target="#lambert1"/>
            </technique_common>
          </bind_material>
        </instance_geometry>
      </node>
      <extra>
        <technique profile="MAYA">
          <start_time>0.041667</start_time>
          <end_time>2.000000</end_time>
        </technique>
      </extra>
    </visual_scene>
  </library_visual_scenes>
  <scene>
    <instance_visual_scene url="#DefaultScene"/>
  </scene>
</COLLADA>
