<?xml version="1.0" encoding="utf-8"?>
<COLLADA xmlns="http://www.collada.org/2005/11/COLLADASchema" version="1.4.0">
  <asset>
    <contributor>
      <author>jens</author>
      <authoring_tool>Maya 7.0 | ColladaMaya v0.88</authoring_tool>
      <comments>Collada Maya Export Options: bakeTransforms=0;exportPolygonMeshes=1;bakeLighting=0;isSampling=0;
curveConstrainSampling=0;exportCameraAsLookat=0;relativePaths=0;
exportLights=1;exportCameras=1;exportJointsAndSkin=1;
exportAnimations=1;exportTriangles=1;exportInvisibleNodes=0;
exportNormals=1;exportTexCoords=1;exportVertexColors=1;exportTangents=0;
exportTexTangents=0;exportConstraints=1;exportPhysics=1;exportXRefs=1;
dereferenceXRefs=0;cameraXFov=0;cameraYFov=1</comments>
      <source_data>file://C|/penumbra/episode2_work/work_models/toilet/toilet_toilet_paper/toilet_toilet_paper.mb</source_data>
    </contributor>
    <created>2007-09-12T18:26:08Z</created>
    <modified>2007-09-12T18:26:08Z</modified>
    <unit name="meter" meter="1.000000"/>
    <up_axis>Y_UP</up_axis>
  </asset>
  <library_images>
    <image id="file1-image" name="file1">
      <init_from>file://C|\Program\Penumbra\Episode 1\redist\pack3_testwip\toilet_toilet_paper.jpg</init_from>
    </image>
  </library_images>
  <library_materials>
    <material id="lambert2" name="lambert2">
      <instance_effect url="#lambert2-fx"/>
    </material>
    <material id="initialShadingGroup2" name="initialShadingGroup2">
      <instance_effect url="#initialShadingGroup2-fx"/>
    </material>
  </library_materials>
  <library_effects>
    <effect id="lambert2-fx" name="lambert2">
      <profile_COMMON>
        <technique sid="standard">
          <lambert>
            <emission>
              <color sid="emission">0 0 0 1.000000</color>
            </emission>
            <ambient>
              <color sid="ambient">0 0 0 1.000000</color>
            </ambient>
            <diffuse>
              <color sid="diffuse">0.500000 0.500000 0.500000 1.000000</color>
            </diffuse>
            <transparent>
              <color sid="transparent">0 0 0 1.000000</color>
            </transparent>
            <transparency>
              <float>1</float>
            </transparency>
          </lambert>
        </technique>
      </profile_COMMON>
    </effect>
    <effect id="initialShadingGroup2-fx" name="initialShadingGroup2">
      <profile_COMMON>
        <technique sid="standard">
          <lambert>
            <emission>
              <color sid="emission">0 0 0 1.000000</color>
            </emission>
            <ambient>
              <color sid="ambient">0 0 0 1.000000</color>
            </ambient>
            <diffuse>
              <texture texture="file1-image" texcoord="UVSET0">
                <extra>
                  <technique profile="MAYA">
                    <wrapU sid="wrapU0">true</wrapU>
                    <wrapV sid="wrapV0">true</wrapV>
                    <mirrorU sid="mirrorU0">false</mirrorU>
                    <mirrorV sid="mirrorV0">false</mirrorV>
                    <coverageU sid="coverageU0">1.000000</coverageU>
                    <coverageV sid="coverageV0">1.000000</coverageV>
                    <translateFrameU sid="translateFrameU0">0</translateFrameU>
                    <translateFrameV sid="translateFrameV0">0</translateFrameV>
                    <rotateFrame sid="rotateFrame0">0</rotateFrame>
                    <stagger sid="stagger0">false</stagger>
                    <fast sid="fast0">false</fast>
                    <repeatU sid="repeatU0">1.000000</repeatU>
                    <repeatV sid="repeatV0">1.000000</repeatV>
                    <offsetU sid="offsetU0">0</offsetU>
                    <offsetV sid="offsetV0">0</offsetV>
                    <rotateUV sid="rotateUV0">0</rotateUV>
                    <noiseU sid="noiseU0">0</noiseU>
                    <noiseV sid="noiseV0">0</noiseV>
                    <blend_mode>NONE</blend_mode>
                  </technique>
                </extra>
              </texture>
            </diffuse>
            <transparent>
              <color sid="transparent">0 0 0 1.000000</color>
            </transparent>
            <transparency>
              <float>1</float>
            </transparency>
          </lambert>
        </technique>
      </profile_COMMON>
    </effect>
  </library_effects>
  <library_geometries>
    <geometry id="_collider_cylinder_Shape1-lib" name="_collider_cylinder_Shape1">
      <mesh>
        <source id="_collider_cylinder_Shape1-lib-Position">
          <float_array count="42" id="_collider_cylinder_Shape1-lib-Position-array">
0.500000 -1.000000 -0.866025
-0.500000 -1.000000 -0.866026
-1.000000 -1.000000 0
-0.500000 -1.000000 0.866025
0.500000 -1.000000 0.866025
1.000000 -1.000000 0
0.500000 1.000000 -0.866025
-0.500000 1.000000 -0.866026
-1.000000 1.000000 0
-0.500000 1.000000 0.866025
0.500000 1.000000 0.866025
1.000000 1.000000 0
0 -1.000000 0
0 1.000000 0
</float_array>
          <technique_common>
            <accessor source="#_collider_cylinder_Shape1-lib-Position-array" count="14" stride="3">
              <param name="X" type="float"/>
              <param name="Y" type="float"/>
              <param name="Z" type="float"/>
            </accessor>
          </technique_common>
        </source>
        <source id="_collider_cylinder_Shape1-lib-Normal">
          <float_array count="216" id="_collider_cylinder_Shape1-lib-Normal-array">
0 0 -1.000000
0 0 -1.000000
0 0 -1.000000
0 0 -1.000000
0 0 -1.000000
0 0 -1.000000
-0.866025 0 -0.500000
-0.866025 0 -0.500000
-0.866025 0 -0.500000
-0.866025 0 -0.500000
-0.866025 0 -0.500000
-0.866025 0 -0.500000
-0.866025 0 0.500000
-0.866025 0 0.500000
-0.866025 0 0.500000
-0.866025 0 0.500000
-0.866025 0 0.500000
-0.866025 0 0.500000
0 0 1.000000
0 0 1.000000
0 0 1.000000
0 0 1.000000
0 0 1.000000
0 0 1.000000
0.866025 0 0.500000
0.866025 0 0.500000
0.866025 0 0.500000
0.866025 0 0.500000
0.866025 0 0.500000
0.866025 0 0.500000
0.866026 0 -0.500000
0.866026 0 -0.500000
0.866026 0 -0.500000
0.866026 0 -0.500000
0.866026 0 -0.500000
0.866026 0 -0.500000
0 -1.000000 0
0 -1.000000 0
0 -1.000000 0
0 -1.000000 0
0 -1.000000 0
0 -1.000000 0
0 -1.000000 0
0 -1.000000 0
0 -1.000000 0
0 -1.000000 0
0 -1.000000 0
0 -1.000000 0
0 -1.000000 0
0 -1.000000 0
0 -1.000000 0
0 -1.000000 0
0 -1.000000 0
0 -1.000000 0
0 1.000000 0
0 1.000000 0
0 1.000000 0
0 1.000000 0
0 1.000000 0
0 1.000000 0
0 1.000000 0
0 1.000000 0
0 1.000000 0
0 1.000000 0
0 1.000000 0
0 1.000000 0
0 1.000000 0
0 1.000000 0
0 1.000000 0
0 1.000000 0
0 1.000000 0
0 1.000000 0
</float_array>
          <technique_common>
            <accessor source="#_collider_cylinder_Shape1-lib-Normal-array" count="72" stride="3">
              <param name="X" type="float"/>
              <param name="Y" type="float"/>
              <param name="Z" type="float"/>
            </accessor>
          </technique_common>
          <technique profile="MAYA">
            <DOUBLE_SIDED>true</DOUBLE_SIDED>
          </technique>
        </source>
        <source id="_collider_cylinder_Shape1-lib-map1" name="map1">
          <float_array count="32" id="_collider_cylinder_Shape1-lib-map1-array">
0.500000 0
0 0.159155
0.166667 0.159155
0.333333 0.159155
0.500000 0.159155
0.666667 0.159155
0.833333 0.159155
1.000000 0.159155
0 0.477465
0.166667 0.477465
0.333333 0.477465
0.500000 0.477465
0.666667 0.477465
0.833333 0.477465
1.000000 0.477465
0.500000 0.636620
</float_array>
          <technique_common>
            <accessor source="#_collider_cylinder_Shape1-lib-map1-array" count="16" stride="2">
              <param name="S" type="float"/>
              <param name="T" type="float"/>
            </accessor>
          </technique_common>
        </source>
        <vertices id="_collider_cylinder_Shape1-lib-Vertex">
          <input semantic="POSITION" source="#_collider_cylinder_Shape1-lib-Position"/>
        </vertices>
        <triangles material="lambert2" count="24">
          <input semantic="VERTEX" offset="0" source="#_collider_cylinder_Shape1-lib-Vertex"/>
          <input semantic="NORMAL" offset="1" source="#_collider_cylinder_Shape1-lib-Normal"/>
          <input semantic="TEXCOORD" offset="2" set="0" source="#_collider_cylinder_Shape1-lib-map1"/>
          <p>0 0 1 1 1 2 6 2 8 1 3 2 7 4 9 6 5 8 1 6 2 2 7 3 7 8 9 2 9 3 8 10 10 7 11 9 2 12 3 3 13 4 8 14 10 3 15 4 9 16 11 8 17 10 3 18 4 4 19 5 9 20 11 4 21 5 10 22 12 9 23 11 4 24 5 5 25 6 10 26 12 5 27 6 11 28 13 10 29 12 5 30 6 0 31 7 11 32 13 0 33 7 6 34 14 11 35 13 1 36 2 0 37 1 12 38 0 2 39 3 1 40 2 12 41 0 3 42 4 2 43 3 12 44 0 4 45 5 3 46 4 12 47 0 5 48 6 4 49 5 12 50 0 0 51 7 5 52 6 12 53 0 6 54 8 7 55 9 13 56 15 7 57 9 8 58 10 13 59 15 8 60 10 9 61 11 13 62 15 9 63 11 10 64 12 13 65 15 10 66 12 11 67 13 13 68 15 11 69 13 6 70 14 13 71 15</p>
        </triangles>
      </mesh>
    </geometry>
    <geometry id="toiletpaperShape-lib" name="toiletpaperShape">
      <mesh>
        <source id="toiletpaperShape-lib-Position">
          <float_array count="168" id="toiletpaperShape-lib-Position-array">
-0.082995 -0.087984 0.042860
-0.082995 0.087988 0.042860
0.025979 -0.087992 -0.013933
0.029159 -0.087992 0
0.029159 0.087992 0
0.025979 0.087992 -0.013933
0.017069 -0.087992 -0.025106
0.017069 0.087992 -0.025106
0.004193 -0.087992 -0.031307
0.004193 0.087992 -0.031307
-0.010099 -0.087992 -0.031307
-0.010099 0.087992 -0.031307
-0.022975 -0.087992 -0.025106
-0.022975 0.087992 -0.025106
-0.031885 -0.087992 -0.013933
-0.031885 0.087992 -0.013933
-0.035065 -0.087992 0
-0.035065 0.087992 0
-0.031885 -0.087992 0.013933
-0.031885 0.087992 0.013933
-0.022975 -0.087992 0.025106
-0.022975 0.087992 0.025106
-0.010099 -0.087992 0.031307
-0.010099 0.087992 0.031307
0.004193 -0.087992 0.031307
0.004193 0.087992 0.031307
0.017069 -0.087992 0.025106
0.017069 0.087992 0.025106
0.025979 -0.087992 0.013933
0.025979 0.087992 0.013933
0.085698 0.087992 0
0.076919 0.087992 -0.038464
0.052320 0.087992 -0.069310
0.016774 0.087992 -0.086429
-0.022680 0.087992 -0.086429
-0.058226 0.087992 -0.069310
-0.082825 0.087992 -0.038464
-0.091604 0.087992 0
-0.058226 0.087992 0.069311
-0.022680 0.087992 0.086429
0.016774 0.087992 0.086429
0.052320 0.087992 0.069310
0.076919 0.087992 0.038464
0.085698 -0.087992 0
0.076919 -0.087992 -0.038464
0.052320 -0.087992 -0.069310
0.016774 -0.087992 -0.086429
-0.022680 -0.087992 -0.086429
-0.058226 -0.087992 -0.069310
-0.082825 -0.087992 -0.038464
-0.091604 -0.087992 0
-0.058226 -0.087992 0.069311
-0.022680 -0.087992 0.086429
0.016774 -0.087992 0.086429
0.052320 -0.087992 0.069310
0.076919 -0.087992 0.038464
</float_array>
          <technique_common>
            <accessor source="#toiletpaperShape-lib-Position-array" count="56" stride="3">
              <param name="X" type="float"/>
              <param name="Y" type="float"/>
              <param name="Z" type="float"/>
            </accessor>
          </technique_common>
        </source>
        <source id="toiletpaperShape-lib-Normal">
          <float_array count="1008" id="toiletpaperShape-lib-Normal-array">
-0.900969 0 0.433884
-1.000000 0 0
-0.900969 0 0.433884
-1.000000 0 0
-1.000000 0 0
-0.900969 0 0.433884
-0.623490 0 0.781832
-0.900969 0 0.433884
-0.623490 0 0.781832
-0.900969 0 0.433884
-0.900969 0 0.433884
-0.623490 0 0.781832
-0.222521 0 0.974928
-0.623490 0 0.781832
-0.222521 0 0.974928
-0.623490 0 0.781832
-0.623490 0 0.781832
-0.222521 0 0.974928
0.222521 0 0.974928
-0.222521 0 0.974928
0.222521 0 0.974928
-0.222521 0 0.974928
-0.222521 0 0.974928
0.222521 0 0.974928
0.623490 0 0.781831
0.222521 0 0.974928
0.623490 0 0.781831
0.222521 0 0.974928
0.222521 0 0.974928
0.623490 0 0.781831
0.900969 0 0.433884
0.623490 0 0.781831
0.900969 0 0.433884
0.623490 0 0.781831
0.623490 0 0.781831
0.900969 0 0.433884
1.000000 0 0
0.900969 0 0.433884
1.000000 0 0
0.900969 0 0.433884
0.900969 0 0.433884
1.000000 0 0
0.900969 0 -0.433884
1.000000 0 0
0.900969 0 -0.433884
1.000000 0 0
1.000000 0 0
0.900969 0 -0.433884
0.623490 0 -0.781832
0.900969 0 -0.433884
0.623490 0 -0.781832
0.900969 0 -0.433884
0.900969 0 -0.433884
0.623490 0 -0.781832
0.222521 0 -0.974928
0.623490 0 -0.781832
0.222521 0 -0.974928
0.623490 0 -0.781832
0.623490 0 -0.781832
0.222521 0 -0.974928
-0.222521 0 -0.974928
0.222521 0 -0.974928
-0.222521 0 -0.974928
0.222521 0 -0.974928
0.222521 0 -0.974928
-0.222521 0 -0.974928
-0.623490 0 -0.781831
-0.222521 0 -0.974928
-0.623490 0 -0.781831
-0.222521 0 -0.974928
-0.222521 0 -0.974928
-0.623490 0 -0.781831
-0.900969 0 -0.433884
-0.623490 0 -0.781831
-0.900969 0 -0.433884
-0.623490 0 -0.781831
-0.623490 0 -0.781831
-0.900969 0 -0.433884
-1.000000 0 0
-0.900969 0 -0.433884
-1.000000 0 0
-0.900969 0 -0.433884
-0.900969 0 -0.433884
-1.000000 0 0
0 1.000000 0
0 1.000000 0
0 1.000000 0
0 1.000000 0
0 1.000000 0
0 1.000000 0
0 1.000000 0
0 1.000000 0
0 1.000000 0
0 1.000000 0
0 1.000000 0
0 1.000000 0
0 1.000000 0
0 1.000000 0
0 1.000000 0
0 1.000000 0
0 1.000000 0
0 1.000000 0
0 1.000000 0
0 1.000000 0
0 1.000000 0
0 1.000000 0
0 1.000000 0
0 1.000000 0
0 1.000000 0
0 1.000000 0
0 1.000000 0
0 1.000000 0
0 1.000000 0
0 1.000000 0
0 1.000000 0
0 1.000000 0
0 1.000000 0
0 1.000000 0
0 1.000000 0
0 1.000000 0
0 1.000000 0
0.000052 1.000000 -0.000221
0 1.000000 0
0.000052 1.000000 -0.000221
0 1.000000 0
0.000052 1.000000 -0.000221
0.000052 1.000000 -0.000221
0.000052 1.000000 -0.000221
0.000283 1.000000 -0.000111
0.000283 1.000000 -0.000111
0.000052 1.000000 -0.000221
0.000283 1.000000 -0.000111
0.000283 1.000000 -0.000111
0.000232 1.000000 0.000110
0.000283 1.000000 -0.000111
0.000232 1.000000 0.000110
0.000283 1.000000 -0.000111
0.000232 1.000000 0.000110
0.000232 1.000000 0.000110
0 1.000000 0
0.000232 1.000000 0.000110
0 1.000000 0
0.000232 1.000000 0.000110
0 1.000000 0
0 1.000000 0
0 1.000000 0
0 1.000000 0
0 1.000000 0
0 1.000000 0
0 1.000000 0
0 1.000000 0
0 1.000000 0
0 1.000000 0
0 1.000000 0
0 1.000000 0
0 1.000000 0
0 1.000000 0
0 1.000000 0
0 1.000000 0
0 1.000000 0
0 1.000000 0
0 1.000000 0
0 1.000000 0
0 1.000000 0
0 1.000000 0
0 1.000000 0
0 1.000000 0
0 1.000000 0
0.900969 0 -0.433884
1.000000 0 0
0.900969 0 -0.433884
1.000000 0 0
1.000000 0 0
0.900969 0 -0.433884
0.623490 0 -0.781832
0.900969 0 -0.433884
0.623490 0 -0.781832
0.900969 0 -0.433884
0.900969 0 -0.433884
0.623490 0 -0.781832
0.222521 0 -0.974928
0.623490 0 -0.781832
0.222521 0 -0.974928
0.623490 0 -0.781832
0.623490 0 -0.781832
0.222521 0 -0.974928
-0.222521 0 -0.974928
0.222521 0 -0.974928
-0.222521 0 -0.974928
0.222521 0 -0.974928
0.222521 0 -0.974928
-0.222521 0 -0.974928
-0.623490 0 -0.781831
-0.222521 0 -0.974928
-0.623490 0 -0.781831
-0.222521 0 -0.974928
-0.222521 0 -0.974928
-0.623490 0 -0.781831
-0.900969 0 -0.433884
-0.623490 0 -0.781831
-0.900969 0 -0.433884
-0.623490 0 -0.781831
-0.623490 0 -0.781831
-0.900969 0 -0.433884
-0.999914 0 -0.013081
-0.900969 0 -0.433884
-0.999914 0 -0.013081
-0.900969 0 -0.433884
-0.900969 0 -0.433884
-0.999914 0 -0.013081
-0.999914 0 -0.013081
-0.999914 0 -0.013081
-0.913846 0 0.406061
-0.913846 0 0.406061
-0.999914 0 -0.013081
-0.913846 0 0.406061
-0.591977 0 0.805955
-0.913846 0 0.406061
-0.591977 0 0.805955
-0.913846 0 0.406061
-0.913846 0 0.406061
-0.591977 0 0.805955
-0.222521 0 0.974928
-0.591977 0 0.805955
-0.222521 0 0.974928
-0.591977 0 0.805955
-0.591977 0 0.805955
-0.222521 0 0.974928
0.222521 0 0.974928
-0.222521 0 0.974928
0.222521 0 0.974928
-0.222521 0 0.974928
-0.222521 0 0.974928
0.222521 0 0.974928
0.623490 0 0.781831
0.222521 0 0.974928
0.623490 0 0.781831
0.222521 0 0.974928
0.222521 0 0.974928
0.623490 0 0.781831
0.900969 0 0.433884
0.623490 0 0.781831
0.900969 0 0.433884
0.623490 0 0.781831
0.623490 0 0.781831
0.900969 0 0.433884
1.000000 0 0
0.900969 0 0.433884
1.000000 0 0
0.900969 0 0.433884
0.900969 0 0.433884
1.000000 0 0
0 -1.000000 0
0 -1.000000 0
0 -1.000000 0
0 -1.000000 0
0 -1.000000 0
0 -1.000000 0
0 -1.000000 0
0 -1.000000 0
0 -1.000000 0
0 -1.000000 0
0 -1.000000 0
0 -1.000000 0
0 -1.000000 0
0 -1.000000 0
0 -1.000000 0
0 -1.000000 0
0 -1.000000 0
0 -1.000000 0
0 -1.000000 0
0 -1.000000 0
0 -1.000000 0
0 -1.000000 0
0 -1.000000 0
0 -1.000000 0
0 -1.000000 0
0 -1.000000 0
0 -1.000000 0
0 -1.000000 0
0 -1.000000 0
0 -1.000000 0
0 -1.000000 0
0 -1.000000 0
0 -1.000000 0
0 -1.000000 0
0 -1.000000 0
0 -1.000000 0
-0.000017 -1.000000 0.000073
0 -1.000000 0
-0.000017 -1.000000 0.000073
0 -1.000000 0
0 -1.000000 0
-0.000017 -1.000000 0.000073
-0.000017 -1.000000 0.000073
-0.000093 -1.000000 0.000037
-0.000017 -1.000000 0.000073
-0.000093 -1.000000 0.000037
-0.000017 -1.000000 0.000073
-0.000093 -1.000000 0.000037
-0.000093 -1.000000 0.000037
-0.000093 -1.000000 0.000037
-0.000076 -1.000000 -0.000036
-0.000076 -1.000000 -0.000036
-0.000093 -1.000000 0.000037
-0.000076 -1.000000 -0.000036
0 -1.000000 0
-0.000076 -1.000000 -0.000036
0 -1.000000 0
-0.000076 -1.000000 -0.000036
-0.000076 -1.000000 -0.000036
0 -1.000000 0
0 -1.000000 0
0 -1.000000 0
0 -1.000000 0
0 -1.000000 0
0 -1.000000 0
0 -1.000000 0
0 -1.000000 0
0 -1.000000 0
0 -1.000000 0
0 -1.000000 0
0 -1.000000 0
0 -1.000000 0
0 -1.000000 0
0 -1.000000 0
0 -1.000000 0
0 -1.000000 0
0 -1.000000 0
0 -1.000000 0
0 -1.000000 0
0 -1.000000 0
0 -1.000000 0
0 -1.000000 0
0 -1.000000 0
0 -1.000000 0
</float_array>
          <technique_common>
            <accessor source="#toiletpaperShape-lib-Normal-array" count="336" stride="3">
              <param name="X" type="float"/>
              <param name="Y" type="float"/>
              <param name="Z" type="float"/>
            </accessor>
          </technique_common>
          <technique profile="MAYA">
            <DOUBLE_SIDED>true</DOUBLE_SIDED>
          </technique>
        </source>
        <source id="toiletpaperShape-lib-map1" name="map1">
          <float_array count="248" id="toiletpaperShape-lib-map1-array">
0.666508 0.993476
0.558885 0.993476
0.666508 0.240114
0.452350 0.993476
0.879773 0.858679
0.884691 0.837131
1.000004 0.837131
0.983666 0.908711
0.865993 0.875959
0.937889 0.966113
0.846079 0.885549
0.871739 0.997969
0.823978 0.885549
0.798318 0.997969
0.804064 0.875959
0.732168 0.966113
0.790284 0.858679
0.686391 0.908711
0.785365 0.837131
0.670054 0.837131
0.790284 0.815583
0.686076 0.757370
0.804064 0.798303
0.732168 0.708148
0.823978 0.788713
0.798318 0.676292
0.846079 0.788713
0.871739 0.676292
0.865993 0.798303
0.937889 0.708148
0.879773 0.815583
0.983666 0.765551
0.452350 0.240114
0.666508 0.993476
0.666508 0.240114
0.558885 0.993476
0.558885 0.240114
0.452350 0.993476
0.452350 0.240114
0.666508 0.993476
0.666508 0.240114
0.558885 0.993476
0.558885 0.240114
0.452350 0.993476
0.452350 0.240114
0.666508 0.993476
0.666508 0.240114
0.558884 0.993476
0.558884 0.240114
0.452350 0.993476
0.452350 0.240114
0.558885 0.240114
0.452350 0.993476
0.452350 0.240114
0.666508 0.993476
0.558885 0.993476
0.558885 0.240114
0.666508 0.240114
0.983666 0.581583
1.000004 0.510003
0.883724 0.510003
0.878902 0.531132
0.937889 0.638986
0.865390 0.548075
0.871739 0.670842
0.845864 0.557478
0.798318 0.670842
0.824193 0.557478
0.732168 0.638986
0.804667 0.548075
0.686391 0.581583
0.791155 0.531132
0.670054 0.510003
0.786333 0.510003
0.686076 0.430243
0.791155 0.488875
0.732168 0.381021
0.804667 0.471931
0.798318 0.349165
0.824193 0.462528
0.871739 0.349165
0.845864 0.462528
0.937889 0.381021
0.865390 0.471931
0.983666 0.438423
0.878902 0.488875
0.271228 0.256948
0.271228 0.994949
0.444527 0.994949
0.271228 0.994949
0.271228 0.256948
0.444527 0.256948
0.150669 0.994949
0.150669 0.256948
0.002534 0.994949
0.002534 0.256948
0.150669 0.994949
0.150669 0.256948
0.271228 0.994949
0.271228 0.256948
0.444527 0.994949
0.444527 0.256948
0.444527 0.994949
0.444527 0.256948
0.150669 0.994949
0.150669 0.256948
0.271228 0.994949
0.271228 0.256948
0.444527 0.994949
0.444527 0.256948
0.150669 0.994949
0.150669 0.256948
0.444527 0.994949
0.271228 0.994949
0.271228 0.256948
0.444527 0.256948
0.002534 0.256948
0.002534 0.994949
0.002534 0.256948
0.002534 0.994949
0.002534 0.256948
0.002534 0.994949
0.002534 0.256948
0.002534 0.994949
</float_array>
          <technique_common>
            <accessor source="#toiletpaperShape-lib-map1-array" count="124" stride="2">
              <param name="S" type="float"/>
              <param name="T" type="float"/>
            </accessor>
          </technique_common>
        </source>
        <vertices id="toiletpaperShape-lib-Vertex">
          <input semantic="POSITION" source="#toiletpaperShape-lib-Position"/>
        </vertices>
        <triangles material="initialShadingGroup2" count="112">
          <input semantic="VERTEX" offset="0" source="#toiletpaperShape-lib-Vertex"/>
          <input semantic="NORMAL" offset="1" source="#toiletpaperShape-lib-Normal"/>
          <input semantic="TEXCOORD" offset="2" set="0" source="#toiletpaperShape-lib-map1"/>
          <p>2 0 57 3 1 56 5 2 54 3 3 56 4 4 55 5 5 54 6 6 53 2 7 57 7 8 52 2 9 57 5 10 54 7 11 52 8 12 51 6 13 53 9 14 1 6 15 53 7 16 52 9 17 1 10 18 2 8 19 51 11 20 0 8 21 51 9 22 1 11 23 0 12 24 48 10 25 50 13 26 47 10 27 50 11 28 49 13 29 47 14 30 46 12 31 48 15 32 45 12 33 48 13 34 47 15 35 45 16 36 44 14 37 46 17 38 43 14 39 46 15 40 45 17 41 43 18 42 42 16 43 44 19 44 41 16 45 44 17 46 43 19 47 41 20 48 40 18 49 42 21 50 39 18 51 42 19 52 41 21 53 39 22 54 38 20 55 40 23 56 37 20 57 40 21 58 39 23 59 37 24 60 36 22 61 38 25 62 35 22 63 38 23 64 37 25 65 35 26 66 34 24 67 36 27 68 33 24 69 36 25 70 35 27 71 33 28 72 32 26 73 34 29 74 3 26 75 34 27 76 33 29 77 3 3 78 56 28 79 32 4 80 55 28 81 32 29 82 3 4 83 55 30 84 6 31 85 7 4 86 5 5 87 4 4 88 5 31 89 7 31 90 7 32 91 9 5 92 4 7 93 8 5 94 4 32 95 9 32 96 9 33 97 11 7 98 8 9 99 10 7 100 8 33 101 11 33 102 11 34 103 13 9 104 10 11 105 12 9 106 10 34 107 13 34 108 13 35 109 15 11 110 12 13 111 14 11 112 12 35 113 15 35 114 15 36 115 17 13 116 14 15 117 16 13 118 14 36 119 17 36 120 17 37 121 19 15 122 16 17 123 18 15 124 16 37 125 19 17 126 18 37 127 19 19 128 20 19 129 20 37 130 19 1 131 21 1 132 21 38 133 23 19 134 20 21 135 22 19 136 20 38 137 23 38 138 23 39 139 25 21 140 22 23 141 24 21 142 22 39 143 25 39 144 25 40 145 27 23 146 24 25 147 26 23 148 24 40 149 27 40 150 27 41 151 29 25 152 26 27 153 28 25 154 26 41 155 29 41 156 29 42 157 31 27 158 28 29 159 30 27 160 28 42 161 31 42 162 31 30 163 6 29 164 30 4 165 5 29 166 30 30 167 6 31 168 88 30 169 89 44 170 91 30 171 89 43 172 90 44 173 91 32 174 92 31 175 123 45 176 93 31 177 123 44 178 122 45 179 93 33 180 113 32 181 92 46 182 114 32 183 92 45 184 93 46 185 114 34 186 112 33 187 113 47 188 115 33 189 113 46 190 114 47 191 115 35 192 96 34 193 94 48 194 97 34 195 94 47 196 95 48 197 97 36 198 98 35 199 96 49 200 99 35 201 96 48 202 97 49 203 99 37 204 100 36 205 98 50 206 101 36 207 98 49 208 99 50 209 101 37 210 117 50 211 116 1 212 87 1 213 87 50 214 116 0 215 86 38 216 102 1 217 87 51 218 103 1 219 87 0 220 86 51 221 103 39 222 104 38 223 119 52 224 105 38 225 119 51 226 118 52 227 105 40 228 106 39 229 104 53 230 107 39 231 104 52 232 105 53 233 107 41 234 108 40 235 106 54 236 109 40 237 106 53 238 107 54 239 109 42 240 110 41 241 121 55 242 111 41 243 121 54 244 120 55 245 111 30 246 89 42 247 110 43 248 90 42 249 110 55 250 111 43 251 90 44 252 58 43 253 59 2 254 61 43 255 59 3 256 60 2 257 61 45 258 62 44 259 58 6 260 63 44 261 58 2 262 61 6 263 63 46 264 64 45 265 62 8 266 65 45 267 62 6 268 63 8 269 65 47 270 66 46 271 64 10 272 67 46 273 64 8 274 65 10 275 67 48 276 68 47 277 66 12 278 69 47 279 66 10 280 67 12 281 69 49 282 70 48 283 68 14 284 71 48 285 68 12 286 69 14 287 71 50 288 72 49 289 70 16 290 73 49 291 70 14 292 71 16 293 73 16 294 73 18 295 75 50 296 72 0 297 74 50 298 72 18 299 75 0 300 74 18 301 75 51 302 76 51 303 76 18 304 75 20 305 77 52 306 78 51 307 76 22 308 79 51 309 76 20 310 77 22 311 79 53 312 80 52 313 78 24 314 81 52 315 78 22 316 79 24 317 81 54 318 82 53 319 80 26 320 83 53 321 80 24 322 81 26 323 83 55 324 84 54 325 82 28 326 85 54 327 82 26 328 83 28 329 85 43 330 59 55 331 84 3 332 60 55 333 84 28 334 85 3 335 60</p>
        </triangles>
      </mesh>
    </geometry>
  </library_geometries>
  <library_visual_scenes>
    <visual_scene id="DefaultScene" name="toilet_toilet_paper">
      <node id="_collider_cylinder_1" name="_collider_cylinder_1" sid="_collider_cylinder_1">
        <rotate sid="rotateZ">0 0 1 0</rotate>
        <rotate sid="rotateY">0 1 0 0</rotate>
        <rotate sid="rotateX">1 0 0 0</rotate>
        <scale sid="scale">0.100013 0.088567 0.100013</scale>
        <instance_geometry url="#_collider_cylinder_Shape1-lib">
          <bind_material>
            <technique_common>
              <instance_material symbol="lambert2" target="#lambert2"/>
            </technique_common>
          </bind_material>
        </instance_geometry>
      </node>
      <node id="toiletpaper" name="toiletpaper" sid="toiletpaper">
        <translate sid="rotatePivot">-0.002953 0 0</translate>
        <rotate sid="rotateZ">0 0 1 0</rotate>
        <rotate sid="rotateY">0 1 0 0</rotate>
        <rotate sid="rotateX">1 0 0 0</rotate>
        <translate sid="rotatePivotInverse">0.002953 0 0</translate>
        <translate sid="scalePivot">-0.002953 0 0</translate>
        <translate sid="scalePivotInverse">0.002953 0 0</translate>
        <instance_geometry url="#toiletpaperShape-lib">
          <bind_material>
            <technique_common>
              <instance_material symbol="initialShadingGroup2" target="#initialShadingGroup2">
                <bind semantic="UVSET0" target="#toiletpaperShape-lib-map1"/>
              </instance_material>
            </technique_common>
          </bind_material>
        </instance_geometry>
      </node>
      <extra>
        <technique profile="MAYA">
          <start_time>0.041667</start_time>
          <end_time>2.000000</end_time>
        </technique>
      </extra>
    </visual_scene>
  </library_visual_scenes>
  <scene>
    <instance_visual_scene url="#DefaultScene"/>
  </scene>
</COLLADA>
