<?xml version="1.0" encoding="utf-8"?>
<COLLADA xmlns="http://www.collada.org/2005/11/COLLADASchema" version="1.4.0">
  <asset>
    <contributor>
      <author>jens</author>
      <authoring_tool>Maya 7.0 | ColladaMaya v0.88</authoring_tool>
      <comments>Collada Maya Export Options: bakeTransforms=0;exportPolygonMeshes=1;bakeLighting=0;isSampling=0;
curveConstrainSampling=0;exportCameraAsLookat=0;relativePaths=0;
exportLights=1;exportCameras=1;exportJointsAndSkin=1;
exportAnimations=1;exportTriangles=1;exportInvisibleNodes=0;
exportNormals=1;exportTexCoords=1;exportVertexColors=1;exportTangents=0;
exportTexTangents=0;exportConstraints=1;exportPhysics=1;exportXRefs=1;
dereferenceXRefs=0;cameraXFov=0;cameraYFov=1</comments>
      <source_data>file://C|/penumbra/episode2_work/work_models/tech/power_switch/gameplay_power_switch.mb</source_data>
    </contributor>
    <created>2007-12-30T03:33:25Z</created>
    <modified>2007-12-30T03:33:25Z</modified>
    <unit name="meter" meter="1.000000"/>
    <up_axis>Y_UP</up_axis>
  </asset>
  <library_images>
    <image id="gameplay_power_switch_1-image" name="gameplay_power_switch_1">
      <init_from>file://C|/penumbra/episode2_work/redist/models/tech/gameplay_power_switch.jpg</init_from>
    </image>
  </library_images>
  <library_materials>
    <material id="lambert1" name="lambert1">
      <instance_effect url="#lambert1-fx"/>
    </material>
  </library_materials>
  <library_effects>
    <effect id="lambert1-fx" name="lambert1">
      <profile_COMMON>
        <technique sid="standard">
          <lambert>
            <emission>
              <color sid="emission">0 0 0 1.000000</color>
            </emission>
            <ambient>
              <color sid="ambient">0 0 0 1.000000</color>
            </ambient>
            <diffuse>
              <texture texture="gameplay_power_switch_1-image" texcoord="UVSET0">
                <extra>
                  <technique profile="MAYA">
                    <wrapU sid="wrapU0">true</wrapU>
                    <wrapV sid="wrapV0">true</wrapV>
                    <mirrorU sid="mirrorU0">false</mirrorU>
                    <mirrorV sid="mirrorV0">false</mirrorV>
                    <coverageU sid="coverageU0">1.000000</coverageU>
                    <coverageV sid="coverageV0">1.000000</coverageV>
                    <translateFrameU sid="translateFrameU0">0</translateFrameU>
                    <translateFrameV sid="translateFrameV0">0</translateFrameV>
                    <rotateFrame sid="rotateFrame0">0</rotateFrame>
                    <stagger sid="stagger0">false</stagger>
                    <fast sid="fast0">false</fast>
                    <repeatU sid="repeatU0">1.000000</repeatU>
                    <repeatV sid="repeatV0">1.000000</repeatV>
                    <offsetU sid="offsetU0">0</offsetU>
                    <offsetV sid="offsetV0">0</offsetV>
                    <rotateUV sid="rotateUV0">0</rotateUV>
                    <noiseU sid="noiseU0">0</noiseU>
                    <noiseV sid="noiseV0">0</noiseV>
                    <blend_mode>NONE</blend_mode>
                  </technique>
                </extra>
              </texture>
            </diffuse>
            <transparent>
              <color sid="transparent">0 0 0 1.000000</color>
            </transparent>
            <transparency>
              <float>1</float>
            </transparency>
          </lambert>
        </technique>
      </profile_COMMON>
    </effect>
  </library_effects>
  <library_geometries>
    <geometry id="_joint_hinge_lever_holder_0_75_nocollide_jointShape1-lib" name="_joint_hinge_lever_holder_0_75_nocollide_jointShape1">
      <mesh>
        <source id="_joint_hinge_lever_holder_0_75_nocollide_jointShape1-lib-Position">
          <float_array count="126" id="_joint_hinge_lever_holder_0_75_nocollide_jointShape1-lib-Position-array">
0.095106 -0.200000 -0.030902
0.080902 -0.200000 -0.058779
0.058779 -0.200000 -0.080902
0.030902 -0.200000 -0.095106
0.000000 -0.200000 -0.100000
-0.030902 -0.200000 -0.095106
-0.058779 -0.200000 -0.080902
-0.080902 -0.200000 -0.058779
-0.095106 -0.200000 -0.030902
-0.100000 -0.200000 -0.000000
-0.095106 -0.200000 0.030902
-0.080902 -0.200000 0.058779
-0.058779 -0.200000 0.080902
-0.030902 -0.200000 0.095106
0.000000 -0.200000 0.100000
0.030902 -0.200000 0.095106
0.058779 -0.200000 0.080902
0.080902 -0.200000 0.058779
0.095106 -0.200000 0.030902
0.100000 -0.200000 0
0.095106 0.200000 -0.030902
0.080902 0.200000 -0.058779
0.058779 0.200000 -0.080902
0.030902 0.200000 -0.095106
0.000000 0.200000 -0.100000
-0.030902 0.200000 -0.095106
-0.058779 0.200000 -0.080902
-0.080902 0.200000 -0.058779
-0.095106 0.200000 -0.030902
-0.100000 0.200000 -0.000000
-0.095106 0.200000 0.030902
-0.080902 0.200000 0.058779
-0.058779 0.200000 0.080902
-0.030902 0.200000 0.095106
0.000000 0.200000 0.100000
0.030902 0.200000 0.095106
0.058779 0.200000 0.080902
0.080902 0.200000 0.058779
0.095106 0.200000 0.030902
0.100000 0.200000 0
0 -0.200000 0
0 0.200000 0
</float_array>
          <technique_common>
            <accessor source="#_joint_hinge_lever_holder_0_75_nocollide_jointShape1-lib-Position-array" count="42" stride="3">
              <param name="X" type="float"/>
              <param name="Y" type="float"/>
              <param name="Z" type="float"/>
            </accessor>
          </technique_common>
        </source>
        <source id="_joint_hinge_lever_holder_0_75_nocollide_jointShape1-lib-Normal">
          <float_array count="246" id="_joint_hinge_lever_holder_0_75_nocollide_jointShape1-lib-Normal-array">
0.951057 0 -0.309016
0.809017 0 -0.587785
0.809017 0 -0.587785
0.951057 0 -0.309016
0.587785 0 -0.809017
0.587785 0 -0.809017
0.309017 0 -0.951057
0.309017 0 -0.951057
0 0 -1.000000
0 0 -1.000000
-0.309017 0 -0.951056
-0.309017 0 -0.951056
-0.587785 0 -0.809017
-0.587785 0 -0.809017
-0.809017 0 -0.587785
-0.809017 0 -0.587785
-0.951057 0 -0.309017
-0.951057 0 -0.309017
-1.000000 0 0
-1.000000 0 0
-0.951057 0 0.309017
-0.951057 0 0.309017
-0.809017 0 0.587785
-0.809017 0 0.587785
-0.587785 0 0.809017
-0.587785 0 0.809017
-0.309017 0 0.951057
-0.309017 0 0.951057
0.000000 0 1.000000
0.000000 0 1.000000
0.309017 0 0.951057
0.309017 0 0.951057
0.587785 0 0.809017
0.587785 0 0.809017
0.809017 0 0.587785
0.809017 0 0.587785
0.951057 0 0.309017
0.951057 0 0.309017
1.000000 0 0.000001
1.000000 0 0.000001
0 -1.000000 0.000000
0 -1.000000 0.000000
0 -1.000000 0
0 -1.000000 -0.000000
0 -1.000000 0
0 -1.000000 0
0 -1.000000 -0.000000
0 -1.000000 -0.000000
0 -1.000000 -0.000000
0 -1.000000 -0.000000
0 -1.000000 -0.000000
0 -1.000000 -0.000000
0 -1.000000 0
0 -1.000000 0
0 -1.000000 0
0 -1.000000 0
0 -1.000000 -0.000000
0 -1.000000 -0.000000
0 -1.000000 -0.000000
0 -1.000000 -0.000000
0 -1.000000 -0.000000
0 1.000000 0.000000
0 1.000000 -0.000000
0 1.000000 0
0 1.000000 -0.000000
0 1.000000 0
0 1.000000 0
0 1.000000 0
0 1.000000 0.000000
0 1.000000 0.000000
0 1.000000 0.000000
0 1.000000 0.000000
0 1.000000 0.000000
0 1.000000 0.000000
0 1.000000 0
0 1.000000 0
0 1.000000 0
0 1.000000 0
0 1.000000 -0.000000
0 1.000000 0
0 1.000000 0.000000
0 1.000000 0.000000
</float_array>
          <technique_common>
            <accessor source="#_joint_hinge_lever_holder_0_75_nocollide_jointShape1-lib-Normal-array" count="82" stride="3">
              <param name="X" type="float"/>
              <param name="Y" type="float"/>
              <param name="Z" type="float"/>
            </accessor>
          </technique_common>
          <technique profile="MAYA">
            <DOUBLE_SIDED>true</DOUBLE_SIDED>
          </technique>
        </source>
        <source id="_joint_hinge_lever_holder_0_75_nocollide_jointShape1-lib-map1" name="map1">
          <float_array count="88" id="_joint_hinge_lever_holder_0_75_nocollide_jointShape1-lib-map1-array">
0.500000 0
0 0.159155
0.050000 0.159155
0.100000 0.159155
0.150000 0.159155
0.200000 0.159155
0.250000 0.159155
0.300000 0.159155
0.350000 0.159155
0.400000 0.159155
0.450000 0.159155
0.500000 0.159155
0.550000 0.159155
0.600000 0.159155
0.650000 0.159155
0.700000 0.159155
0.750000 0.159155
0.800000 0.159155
0.850000 0.159155
0.900000 0.159155
0.950000 0.159155
1.000000 0.159155
0 0.795775
0.050000 0.795775
0.100000 0.795775
0.150000 0.795775
0.200000 0.795775
0.250000 0.795775
0.300000 0.795775
0.350000 0.795775
0.400000 0.795775
0.450000 0.795775
0.500000 0.795775
0.550000 0.795775
0.600000 0.795775
0.650000 0.795775
0.700000 0.795775
0.750000 0.795775
0.800000 0.795775
0.850000 0.795775
0.900000 0.795775
0.950000 0.795775
1.000000 0.795775
0.500000 0.954930
</float_array>
          <technique_common>
            <accessor source="#_joint_hinge_lever_holder_0_75_nocollide_jointShape1-lib-map1-array" count="44" stride="2">
              <param name="S" type="float"/>
              <param name="T" type="float"/>
            </accessor>
          </technique_common>
        </source>
        <vertices id="_joint_hinge_lever_holder_0_75_nocollide_jointShape1-lib-Vertex">
          <input semantic="POSITION" source="#_joint_hinge_lever_holder_0_75_nocollide_jointShape1-lib-Position"/>
        </vertices>
        <triangles material="lambert1" count="80">
          <input semantic="VERTEX" offset="0" source="#_joint_hinge_lever_holder_0_75_nocollide_jointShape1-lib-Vertex"/>
          <input semantic="NORMAL" offset="1" source="#_joint_hinge_lever_holder_0_75_nocollide_jointShape1-lib-Normal"/>
          <input semantic="TEXCOORD" offset="2" set="0" source="#_joint_hinge_lever_holder_0_75_nocollide_jointShape1-lib-map1"/>
          <p>0 0 1 1 1 2 20 3 22 1 1 2 21 2 23 20 3 22 1 1 2 2 4 3 21 2 23 2 4 3 22 5 24 21 2 23 2 4 3 3 6 4 22 5 24 3 6 4 23 7 25 22 5 24 3 6 4 4 8 5 23 7 25 4 8 5 24 9 26 23 7 25 4 8 5 5 10 6 24 9 26 5 10 6 25 11 27 24 9 26 5 10 6 6 12 7 25 11 27 6 12 7 26 13 28 25 11 27 6 12 7 7 14 8 26 13 28 7 14 8 27 15 29 26 13 28 7 14 8 8 16 9 27 15 29 8 16 9 28 17 30 27 15 29 8 16 9 9 18 10 28 17 30 9 18 10 29 19 31 28 17 30 9 18 10 10 20 11 29 19 31 10 20 11 30 21 32 29 19 31 10 20 11 11 22 12 30 21 32 11 22 12 31 23 33 30 21 32 11 22 12 12 24 13 31 23 33 12 24 13 32 25 34 31 23 33 12 24 13 13 26 14 32 25 34 13 26 14 33 27 35 32 25 34 13 26 14 14 28 15 33 27 35 14 28 15 34 29 36 33 27 35 14 28 15 15 30 16 34 29 36 15 30 16 35 31 37 34 29 36 15 30 16 16 32 17 35 31 37 16 32 17 36 33 38 35 31 37 16 32 17 17 34 18 36 33 38 17 34 18 37 35 39 36 33 38 17 34 18 18 36 19 37 35 39 18 36 19 38 37 40 37 35 39 18 36 19 19 38 20 38 37 40 19 38 20 39 39 41 38 37 40 19 38 20 0 0 21 39 39 41 0 0 21 20 3 42 39 39 41 1 40 2 0 41 1 40 42 0 2 43 3 1 40 2 40 42 0 3 44 4 2 43 3 40 42 0 4 45 5 3 44 4 40 42 0 5 46 6 4 45 5 40 42 0 6 47 7 5 46 6 40 42 0 7 48 8 6 47 7 40 42 0 8 49 9 7 48 8 40 42 0 9 50 10 8 49 9 40 42 0 10 51 11 9 50 10 40 42 0 11 52 12 10 51 11 40 42 0 12 53 13 11 52 12 40 42 0 13 54 14 12 53 13 40 42 0 14 55 15 13 54 14 40 42 0 15 56 16 14 55 15 40 42 0 16 57 17 15 56 16 40 42 0 17 58 18 16 57 17 40 42 0 18 59 19 17 58 18 40 42 0 19 60 20 18 59 19 40 42 0 0 41 21 19 60 20 40 42 0 20 61 22 21 62 23 41 63 43 21 62 23 22 64 24 41 63 43 22 64 24 23 65 25 41 63 43 23 65 25 24 66 26 41 63 43 24 66 26 25 67 27 41 63 43 25 67 27 26 68 28 41 63 43 26 68 28 27 69 29 41 63 43 27 69 29 28 70 30 41 63 43 28 70 30 29 71 31 41 63 43 29 71 31 30 72 32 41 63 43 30 72 32 31 73 33 41 63 43 31 73 33 32 74 34 41 63 43 32 74 34 33 75 35 41 63 43 33 75 35 34 76 36 41 63 43 34 76 36 35 77 37 41 63 43 35 77 37 36 78 38 41 63 43 36 78 38 37 79 39 41 63 43 37 79 39 38 80 40 41 63 43 38 80 40 39 81 41 41 63 43 39 81 41 20 61 42 41 63 43</p>
        </triangles>
      </mesh>
    </geometry>
    <geometry id="_collider_cylinder_Shape1-lib" name="_collider_cylinder_Shape1">
      <mesh>
        <source id="_collider_cylinder_Shape1-lib-Position">
          <float_array count="126" id="_collider_cylinder_Shape1-lib-Position-array">
0.095106 -0.200000 -0.030902
0.080902 -0.200000 -0.058779
0.058779 -0.200000 -0.080902
0.030902 -0.200000 -0.095106
0.000000 -0.200000 -0.100000
-0.030902 -0.200000 -0.095106
-0.058779 -0.200000 -0.080902
-0.080902 -0.200000 -0.058779
-0.095106 -0.200000 -0.030902
-0.100000 -0.200000 -0.000000
-0.095106 -0.200000 0.030902
-0.080902 -0.200000 0.058779
-0.058779 -0.200000 0.080902
-0.030902 -0.200000 0.095106
0.000000 -0.200000 0.100000
0.030902 -0.200000 0.095106
0.058779 -0.200000 0.080902
0.080902 -0.200000 0.058779
0.095106 -0.200000 0.030902
0.100000 -0.200000 0
0.095106 0.200000 -0.030902
0.080902 0.200000 -0.058779
0.058779 0.200000 -0.080902
0.030902 0.200000 -0.095106
0.000000 0.200000 -0.100000
-0.030902 0.200000 -0.095106
-0.058779 0.200000 -0.080902
-0.080902 0.200000 -0.058779
-0.095106 0.200000 -0.030902
-0.100000 0.200000 -0.000000
-0.095106 0.200000 0.030902
-0.080902 0.200000 0.058779
-0.058779 0.200000 0.080902
-0.030902 0.200000 0.095106
0.000000 0.200000 0.100000
0.030902 0.200000 0.095106
0.058779 0.200000 0.080902
0.080902 0.200000 0.058779
0.095106 0.200000 0.030902
0.100000 0.200000 0
0 -0.200000 0
0 0.200000 0
</float_array>
          <technique_common>
            <accessor source="#_collider_cylinder_Shape1-lib-Position-array" count="42" stride="3">
              <param name="X" type="float"/>
              <param name="Y" type="float"/>
              <param name="Z" type="float"/>
            </accessor>
          </technique_common>
        </source>
        <source id="_collider_cylinder_Shape1-lib-Normal">
          <float_array count="246" id="_collider_cylinder_Shape1-lib-Normal-array">
0.951057 0 -0.309016
0.809017 0 -0.587785
0.809017 0 -0.587785
0.951057 0 -0.309016
0.587785 0 -0.809017
0.587785 0 -0.809017
0.309017 0 -0.951057
0.309017 0 -0.951057
0 0 -1.000000
0 0 -1.000000
-0.309017 0 -0.951056
-0.309017 0 -0.951056
-0.587785 0 -0.809017
-0.587785 0 -0.809017
-0.809017 0 -0.587785
-0.809017 0 -0.587785
-0.951057 0 -0.309017
-0.951057 0 -0.309017
-1.000000 0 0
-1.000000 0 0
-0.951057 0 0.309017
-0.951057 0 0.309017
-0.809017 0 0.587785
-0.809017 0 0.587785
-0.587785 0 0.809017
-0.587785 0 0.809017
-0.309017 0 0.951057
-0.309017 0 0.951057
0.000000 0 1.000000
0.000000 0 1.000000
0.309017 0 0.951057
0.309017 0 0.951057
0.587785 0 0.809017
0.587785 0 0.809017
0.809017 0 0.587785
0.809017 0 0.587785
0.951057 0 0.309017
0.951057 0 0.309017
1.000000 0 0.000001
1.000000 0 0.000001
0 -1.000000 0.000000
0 -1.000000 0.000000
0 -1.000000 0
0 -1.000000 -0.000000
0 -1.000000 0
0 -1.000000 0
0 -1.000000 -0.000000
0 -1.000000 -0.000000
0 -1.000000 -0.000000
0 -1.000000 -0.000000
0 -1.000000 -0.000000
0 -1.000000 -0.000000
0 -1.000000 0
0 -1.000000 0
0 -1.000000 0
0 -1.000000 0
0 -1.000000 -0.000000
0 -1.000000 -0.000000
0 -1.000000 -0.000000
0 -1.000000 -0.000000
0 -1.000000 -0.000000
0 1.000000 0.000000
0 1.000000 -0.000000
0 1.000000 0
0 1.000000 -0.000000
0 1.000000 0
0 1.000000 0
0 1.000000 0
0 1.000000 0.000000
0 1.000000 0.000000
0 1.000000 0.000000
0 1.000000 0.000000
0 1.000000 0.000000
0 1.000000 0.000000
0 1.000000 0
0 1.000000 0
0 1.000000 0
0 1.000000 0
0 1.000000 -0.000000
0 1.000000 0
0 1.000000 0.000000
0 1.000000 0.000000
</float_array>
          <technique_common>
            <accessor source="#_collider_cylinder_Shape1-lib-Normal-array" count="82" stride="3">
              <param name="X" type="float"/>
              <param name="Y" type="float"/>
              <param name="Z" type="float"/>
            </accessor>
          </technique_common>
          <technique profile="MAYA">
            <DOUBLE_SIDED>true</DOUBLE_SIDED>
          </technique>
        </source>
        <source id="_collider_cylinder_Shape1-lib-map1" name="map1">
          <float_array count="88" id="_collider_cylinder_Shape1-lib-map1-array">
0.500000 0
0 0.159155
0.050000 0.159155
0.100000 0.159155
0.150000 0.159155
0.200000 0.159155
0.250000 0.159155
0.300000 0.159155
0.350000 0.159155
0.400000 0.159155
0.450000 0.159155
0.500000 0.159155
0.550000 0.159155
0.600000 0.159155
0.650000 0.159155
0.700000 0.159155
0.750000 0.159155
0.800000 0.159155
0.850000 0.159155
0.900000 0.159155
0.950000 0.159155
1.000000 0.159155
0 0.795775
0.050000 0.795775
0.100000 0.795775
0.150000 0.795775
0.200000 0.795775
0.250000 0.795775
0.300000 0.795775
0.350000 0.795775
0.400000 0.795775
0.450000 0.795775
0.500000 0.795775
0.550000 0.795775
0.600000 0.795775
0.650000 0.795775
0.700000 0.795775
0.750000 0.795775
0.800000 0.795775
0.850000 0.795775
0.900000 0.795775
0.950000 0.795775
1.000000 0.795775
0.500000 0.954930
</float_array>
          <technique_common>
            <accessor source="#_collider_cylinder_Shape1-lib-map1-array" count="44" stride="2">
              <param name="S" type="float"/>
              <param name="T" type="float"/>
            </accessor>
          </technique_common>
        </source>
        <vertices id="_collider_cylinder_Shape1-lib-Vertex">
          <input semantic="POSITION" source="#_collider_cylinder_Shape1-lib-Position"/>
        </vertices>
        <triangles material="lambert1" count="80">
          <input semantic="VERTEX" offset="0" source="#_collider_cylinder_Shape1-lib-Vertex"/>
          <input semantic="NORMAL" offset="1" source="#_collider_cylinder_Shape1-lib-Normal"/>
          <input semantic="TEXCOORD" offset="2" set="0" source="#_collider_cylinder_Shape1-lib-map1"/>
          <p>0 0 1 1 1 2 20 3 22 1 1 2 21 2 23 20 3 22 1 1 2 2 4 3 21 2 23 2 4 3 22 5 24 21 2 23 2 4 3 3 6 4 22 5 24 3 6 4 23 7 25 22 5 24 3 6 4 4 8 5 23 7 25 4 8 5 24 9 26 23 7 25 4 8 5 5 10 6 24 9 26 5 10 6 25 11 27 24 9 26 5 10 6 6 12 7 25 11 27 6 12 7 26 13 28 25 11 27 6 12 7 7 14 8 26 13 28 7 14 8 27 15 29 26 13 28 7 14 8 8 16 9 27 15 29 8 16 9 28 17 30 27 15 29 8 16 9 9 18 10 28 17 30 9 18 10 29 19 31 28 17 30 9 18 10 10 20 11 29 19 31 10 20 11 30 21 32 29 19 31 10 20 11 11 22 12 30 21 32 11 22 12 31 23 33 30 21 32 11 22 12 12 24 13 31 23 33 12 24 13 32 25 34 31 23 33 12 24 13 13 26 14 32 25 34 13 26 14 33 27 35 32 25 34 13 26 14 14 28 15 33 27 35 14 28 15 34 29 36 33 27 35 14 28 15 15 30 16 34 29 36 15 30 16 35 31 37 34 29 36 15 30 16 16 32 17 35 31 37 16 32 17 36 33 38 35 31 37 16 32 17 17 34 18 36 33 38 17 34 18 37 35 39 36 33 38 17 34 18 18 36 19 37 35 39 18 36 19 38 37 40 37 35 39 18 36 19 19 38 20 38 37 40 19 38 20 39 39 41 38 37 40 19 38 20 0 0 21 39 39 41 0 0 21 20 3 42 39 39 41 1 40 2 0 41 1 40 42 0 2 43 3 1 40 2 40 42 0 3 44 4 2 43 3 40 42 0 4 45 5 3 44 4 40 42 0 5 46 6 4 45 5 40 42 0 6 47 7 5 46 6 40 42 0 7 48 8 6 47 7 40 42 0 8 49 9 7 48 8 40 42 0 9 50 10 8 49 9 40 42 0 10 51 11 9 50 10 40 42 0 11 52 12 10 51 11 40 42 0 12 53 13 11 52 12 40 42 0 13 54 14 12 53 13 40 42 0 14 55 15 13 54 14 40 42 0 15 56 16 14 55 15 40 42 0 16 57 17 15 56 16 40 42 0 17 58 18 16 57 17 40 42 0 18 59 19 17 58 18 40 42 0 19 60 20 18 59 19 40 42 0 0 41 21 19 60 20 40 42 0 20 61 22 21 62 23 41 63 43 21 62 23 22 64 24 41 63 43 22 64 24 23 65 25 41 63 43 23 65 25 24 66 26 41 63 43 24 66 26 25 67 27 41 63 43 25 67 27 26 68 28 41 63 43 26 68 28 27 69 29 41 63 43 27 69 29 28 70 30 41 63 43 28 70 30 29 71 31 41 63 43 29 71 31 30 72 32 41 63 43 30 72 32 31 73 33 41 63 43 31 73 33 32 74 34 41 63 43 32 74 34 33 75 35 41 63 43 33 75 35 34 76 36 41 63 43 34 76 36 35 77 37 41 63 43 35 77 37 36 78 38 41 63 43 36 78 38 37 79 39 41 63 43 37 79 39 38 80 40 41 63 43 38 80 40 39 81 41 41 63 43 39 81 41 20 61 42 41 63 43</p>
        </triangles>
      </mesh>
    </geometry>
    <geometry id="_collider_cylinder_Shape2-lib" name="_collider_cylinder_Shape2">
      <mesh>
        <source id="_collider_cylinder_Shape2-lib-Position">
          <float_array count="126" id="_collider_cylinder_Shape2-lib-Position-array">
0.095106 -0.200000 -0.030902
0.080902 -0.200000 -0.058779
0.058779 -0.200000 -0.080902
0.030902 -0.200000 -0.095106
0.000000 -0.200000 -0.100000
-0.030902 -0.200000 -0.095106
-0.058779 -0.200000 -0.080902
-0.080902 -0.200000 -0.058779
-0.095106 -0.200000 -0.030902
-0.100000 -0.200000 -0.000000
-0.095106 -0.200000 0.030902
-0.080902 -0.200000 0.058779
-0.058779 -0.200000 0.080902
-0.030902 -0.200000 0.095106
0.000000 -0.200000 0.100000
0.030902 -0.200000 0.095106
0.058779 -0.200000 0.080902
0.080902 -0.200000 0.058779
0.095106 -0.200000 0.030902
0.100000 -0.200000 0
0.095106 0.200000 -0.030902
0.080902 0.200000 -0.058779
0.058779 0.200000 -0.080902
0.030902 0.200000 -0.095106
0.000000 0.200000 -0.100000
-0.030902 0.200000 -0.095106
-0.058779 0.200000 -0.080902
-0.080902 0.200000 -0.058779
-0.095106 0.200000 -0.030902
-0.100000 0.200000 -0.000000
-0.095106 0.200000 0.030902
-0.080902 0.200000 0.058779
-0.058779 0.200000 0.080902
-0.030902 0.200000 0.095106
0.000000 0.200000 0.100000
0.030902 0.200000 0.095106
0.058779 0.200000 0.080902
0.080902 0.200000 0.058779
0.095106 0.200000 0.030902
0.100000 0.200000 0
0 -0.200000 0
0 0.200000 0
</float_array>
          <technique_common>
            <accessor source="#_collider_cylinder_Shape2-lib-Position-array" count="42" stride="3">
              <param name="X" type="float"/>
              <param name="Y" type="float"/>
              <param name="Z" type="float"/>
            </accessor>
          </technique_common>
        </source>
        <source id="_collider_cylinder_Shape2-lib-Normal">
          <float_array count="246" id="_collider_cylinder_Shape2-lib-Normal-array">
0.951057 0 -0.309016
0.809017 0 -0.587785
0.809017 0 -0.587785
0.951057 0 -0.309016
0.587785 0 -0.809017
0.587785 0 -0.809017
0.309017 0 -0.951057
0.309017 0 -0.951057
0 0 -1.000000
0 0 -1.000000
-0.309017 0 -0.951056
-0.309017 0 -0.951056
-0.587785 0 -0.809017
-0.587785 0 -0.809017
-0.809017 0 -0.587785
-0.809017 0 -0.587785
-0.951057 0 -0.309017
-0.951057 0 -0.309017
-1.000000 0 0
-1.000000 0 0
-0.951057 0 0.309017
-0.951057 0 0.309017
-0.809017 0 0.587785
-0.809017 0 0.587785
-0.587785 0 0.809017
-0.587785 0 0.809017
-0.309017 0 0.951057
-0.309017 0 0.951057
0.000000 0 1.000000
0.000000 0 1.000000
0.309017 0 0.951057
0.309017 0 0.951057
0.587785 0 0.809017
0.587785 0 0.809017
0.809017 0 0.587785
0.809017 0 0.587785
0.951057 0 0.309017
0.951057 0 0.309017
1.000000 0 0.000001
1.000000 0 0.000001
0 -1.000000 0.000000
0 -1.000000 0.000000
0 -1.000000 0
0 -1.000000 -0.000000
0 -1.000000 0
0 -1.000000 0
0 -1.000000 -0.000000
0 -1.000000 -0.000000
0 -1.000000 -0.000000
0 -1.000000 -0.000000
0 -1.000000 -0.000000
0 -1.000000 -0.000000
0 -1.000000 0
0 -1.000000 0
0 -1.000000 0
0 -1.000000 0
0 -1.000000 -0.000000
0 -1.000000 -0.000000
0 -1.000000 -0.000000
0 -1.000000 -0.000000
0 -1.000000 -0.000000
0 1.000000 0.000000
0 1.000000 -0.000000
0 1.000000 0
0 1.000000 -0.000000
0 1.000000 0
0 1.000000 0
0 1.000000 0
0 1.000000 0.000000
0 1.000000 0.000000
0 1.000000 0.000000
0 1.000000 0.000000
0 1.000000 0.000000
0 1.000000 0.000000
0 1.000000 0
0 1.000000 0
0 1.000000 0
0 1.000000 0
0 1.000000 -0.000000
0 1.000000 0
0 1.000000 0.000000
0 1.000000 0.000000
</float_array>
          <technique_common>
            <accessor source="#_collider_cylinder_Shape2-lib-Normal-array" count="82" stride="3">
              <param name="X" type="float"/>
              <param name="Y" type="float"/>
              <param name="Z" type="float"/>
            </accessor>
          </technique_common>
          <technique profile="MAYA">
            <DOUBLE_SIDED>true</DOUBLE_SIDED>
          </technique>
        </source>
        <source id="_collider_cylinder_Shape2-lib-map1" name="map1">
          <float_array count="88" id="_collider_cylinder_Shape2-lib-map1-array">
0.500000 0
0 0.159155
0.050000 0.159155
0.100000 0.159155
0.150000 0.159155
0.200000 0.159155
0.250000 0.159155
0.300000 0.159155
0.350000 0.159155
0.400000 0.159155
0.450000 0.159155
0.500000 0.159155
0.550000 0.159155
0.600000 0.159155
0.650000 0.159155
0.700000 0.159155
0.750000 0.159155
0.800000 0.159155
0.850000 0.159155
0.900000 0.159155
0.950000 0.159155
1.000000 0.159155
0 0.795775
0.050000 0.795775
0.100000 0.795775
0.150000 0.795775
0.200000 0.795775
0.250000 0.795775
0.300000 0.795775
0.350000 0.795775
0.400000 0.795775
0.450000 0.795775
0.500000 0.795775
0.550000 0.795775
0.600000 0.795775
0.650000 0.795775
0.700000 0.795775
0.750000 0.795775
0.800000 0.795775
0.850000 0.795775
0.900000 0.795775
0.950000 0.795775
1.000000 0.795775
0.500000 0.954930
</float_array>
          <technique_common>
            <accessor source="#_collider_cylinder_Shape2-lib-map1-array" count="44" stride="2">
              <param name="S" type="float"/>
              <param name="T" type="float"/>
            </accessor>
          </technique_common>
        </source>
        <vertices id="_collider_cylinder_Shape2-lib-Vertex">
          <input semantic="POSITION" source="#_collider_cylinder_Shape2-lib-Position"/>
        </vertices>
        <triangles material="lambert1" count="80">
          <input semantic="VERTEX" offset="0" source="#_collider_cylinder_Shape2-lib-Vertex"/>
          <input semantic="NORMAL" offset="1" source="#_collider_cylinder_Shape2-lib-Normal"/>
          <input semantic="TEXCOORD" offset="2" set="0" source="#_collider_cylinder_Shape2-lib-map1"/>
          <p>0 0 1 1 1 2 20 3 22 1 1 2 21 2 23 20 3 22 1 1 2 2 4 3 21 2 23 2 4 3 22 5 24 21 2 23 2 4 3 3 6 4 22 5 24 3 6 4 23 7 25 22 5 24 3 6 4 4 8 5 23 7 25 4 8 5 24 9 26 23 7 25 4 8 5 5 10 6 24 9 26 5 10 6 25 11 27 24 9 26 5 10 6 6 12 7 25 11 27 6 12 7 26 13 28 25 11 27 6 12 7 7 14 8 26 13 28 7 14 8 27 15 29 26 13 28 7 14 8 8 16 9 27 15 29 8 16 9 28 17 30 27 15 29 8 16 9 9 18 10 28 17 30 9 18 10 29 19 31 28 17 30 9 18 10 10 20 11 29 19 31 10 20 11 30 21 32 29 19 31 10 20 11 11 22 12 30 21 32 11 22 12 31 23 33 30 21 32 11 22 12 12 24 13 31 23 33 12 24 13 32 25 34 31 23 33 12 24 13 13 26 14 32 25 34 13 26 14 33 27 35 32 25 34 13 26 14 14 28 15 33 27 35 14 28 15 34 29 36 33 27 35 14 28 15 15 30 16 34 29 36 15 30 16 35 31 37 34 29 36 15 30 16 16 32 17 35 31 37 16 32 17 36 33 38 35 31 37 16 32 17 17 34 18 36 33 38 17 34 18 37 35 39 36 33 38 17 34 18 18 36 19 37 35 39 18 36 19 38 37 40 37 35 39 18 36 19 19 38 20 38 37 40 19 38 20 39 39 41 38 37 40 19 38 20 0 0 21 39 39 41 0 0 21 20 3 42 39 39 41 1 40 2 0 41 1 40 42 0 2 43 3 1 40 2 40 42 0 3 44 4 2 43 3 40 42 0 4 45 5 3 44 4 40 42 0 5 46 6 4 45 5 40 42 0 6 47 7 5 46 6 40 42 0 7 48 8 6 47 7 40 42 0 8 49 9 7 48 8 40 42 0 9 50 10 8 49 9 40 42 0 10 51 11 9 50 10 40 42 0 11 52 12 10 51 11 40 42 0 12 53 13 11 52 12 40 42 0 13 54 14 12 53 13 40 42 0 14 55 15 13 54 14 40 42 0 15 56 16 14 55 15 40 42 0 16 57 17 15 56 16 40 42 0 17 58 18 16 57 17 40 42 0 18 59 19 17 58 18 40 42 0 19 60 20 18 59 19 40 42 0 0 41 21 19 60 20 40 42 0 20 61 22 21 62 23 41 63 43 21 62 23 22 64 24 41 63 43 22 64 24 23 65 25 41 63 43 23 65 25 24 66 26 41 63 43 24 66 26 25 67 27 41 63 43 25 67 27 26 68 28 41 63 43 26 68 28 27 69 29 41 63 43 27 69 29 28 70 30 41 63 43 28 70 30 29 71 31 41 63 43 29 71 31 30 72 32 41 63 43 30 72 32 31 73 33 41 63 43 31 73 33 32 74 34 41 63 43 32 74 34 33 75 35 41 63 43 33 75 35 34 76 36 41 63 43 34 76 36 35 77 37 41 63 43 35 77 37 36 78 38 41 63 43 36 78 38 37 79 39 41 63 43 37 79 39 38 80 40 41 63 43 38 80 40 39 81 41 41 63 43 39 81 41 20 61 42 41 63 43</p>
        </triangles>
      </mesh>
    </geometry>
    <geometry id="_collider_cylinder_Shape3-lib" name="_collider_cylinder_Shape3">
      <mesh>
        <source id="_collider_cylinder_Shape3-lib-Position">
          <float_array count="126" id="_collider_cylinder_Shape3-lib-Position-array">
0.095106 -0.200000 -0.030902
0.080902 -0.200000 -0.058779
0.058779 -0.200000 -0.080902
0.030902 -0.200000 -0.095106
0.000000 -0.200000 -0.100000
-0.030902 -0.200000 -0.095106
-0.058779 -0.200000 -0.080902
-0.080902 -0.200000 -0.058779
-0.095106 -0.200000 -0.030902
-0.100000 -0.200000 -0.000000
-0.095106 -0.200000 0.030902
-0.080902 -0.200000 0.058779
-0.058779 -0.200000 0.080902
-0.030902 -0.200000 0.095106
0.000000 -0.200000 0.100000
0.030902 -0.200000 0.095106
0.058779 -0.200000 0.080902
0.080902 -0.200000 0.058779
0.095106 -0.200000 0.030902
0.100000 -0.200000 0
0.095106 0.200000 -0.030902
0.080902 0.200000 -0.058779
0.058779 0.200000 -0.080902
0.030902 0.200000 -0.095106
0.000000 0.200000 -0.100000
-0.030902 0.200000 -0.095106
-0.058779 0.200000 -0.080902
-0.080902 0.200000 -0.058779
-0.095106 0.200000 -0.030902
-0.100000 0.200000 -0.000000
-0.095106 0.200000 0.030902
-0.080902 0.200000 0.058779
-0.058779 0.200000 0.080902
-0.030902 0.200000 0.095106
0.000000 0.200000 0.100000
0.030902 0.200000 0.095106
0.058779 0.200000 0.080902
0.080902 0.200000 0.058779
0.095106 0.200000 0.030902
0.100000 0.200000 0
0 -0.200000 0
0 0.200000 0
</float_array>
          <technique_common>
            <accessor source="#_collider_cylinder_Shape3-lib-Position-array" count="42" stride="3">
              <param name="X" type="float"/>
              <param name="Y" type="float"/>
              <param name="Z" type="float"/>
            </accessor>
          </technique_common>
        </source>
        <source id="_collider_cylinder_Shape3-lib-Normal">
          <float_array count="246" id="_collider_cylinder_Shape3-lib-Normal-array">
0.951057 0 -0.309016
0.809017 0 -0.587785
0.809017 0 -0.587785
0.951057 0 -0.309016
0.587785 0 -0.809017
0.587785 0 -0.809017
0.309017 0 -0.951057
0.309017 0 -0.951057
0 0 -1.000000
0 0 -1.000000
-0.309017 0 -0.951056
-0.309017 0 -0.951056
-0.587785 0 -0.809017
-0.587785 0 -0.809017
-0.809017 0 -0.587785
-0.809017 0 -0.587785
-0.951057 0 -0.309017
-0.951057 0 -0.309017
-1.000000 0 0
-1.000000 0 0
-0.951057 0 0.309017
-0.951057 0 0.309017
-0.809017 0 0.587785
-0.809017 0 0.587785
-0.587785 0 0.809017
-0.587785 0 0.809017
-0.309017 0 0.951057
-0.309017 0 0.951057
0.000000 0 1.000000
0.000000 0 1.000000
0.309017 0 0.951057
0.309017 0 0.951057
0.587785 0 0.809017
0.587785 0 0.809017
0.809017 0 0.587785
0.809017 0 0.587785
0.951057 0 0.309017
0.951057 0 0.309017
1.000000 0 0.000001
1.000000 0 0.000001
0 -1.000000 0.000000
0 -1.000000 0.000000
0 -1.000000 0
0 -1.000000 -0.000000
0 -1.000000 0
0 -1.000000 0
0 -1.000000 -0.000000
0 -1.000000 -0.000000
0 -1.000000 -0.000000
0 -1.000000 -0.000000
0 -1.000000 -0.000000
0 -1.000000 -0.000000
0 -1.000000 0
0 -1.000000 0
0 -1.000000 0
0 -1.000000 0
0 -1.000000 -0.000000
0 -1.000000 -0.000000
0 -1.000000 -0.000000
0 -1.000000 -0.000000
0 -1.000000 -0.000000
0 1.000000 0.000000
0 1.000000 -0.000000
0 1.000000 0
0 1.000000 -0.000000
0 1.000000 0
0 1.000000 0
0 1.000000 0
0 1.000000 0.000000
0 1.000000 0.000000
0 1.000000 0.000000
0 1.000000 0.000000
0 1.000000 0.000000
0 1.000000 0.000000
0 1.000000 0
0 1.000000 0
0 1.000000 0
0 1.000000 0
0 1.000000 -0.000000
0 1.000000 0
0 1.000000 0.000000
0 1.000000 0.000000
</float_array>
          <technique_common>
            <accessor source="#_collider_cylinder_Shape3-lib-Normal-array" count="82" stride="3">
              <param name="X" type="float"/>
              <param name="Y" type="float"/>
              <param name="Z" type="float"/>
            </accessor>
          </technique_common>
          <technique profile="MAYA">
            <DOUBLE_SIDED>true</DOUBLE_SIDED>
          </technique>
        </source>
        <source id="_collider_cylinder_Shape3-lib-map1" name="map1">
          <float_array count="88" id="_collider_cylinder_Shape3-lib-map1-array">
0.500000 0
0 0.159155
0.050000 0.159155
0.100000 0.159155
0.150000 0.159155
0.200000 0.159155
0.250000 0.159155
0.300000 0.159155
0.350000 0.159155
0.400000 0.159155
0.450000 0.159155
0.500000 0.159155
0.550000 0.159155
0.600000 0.159155
0.650000 0.159155
0.700000 0.159155
0.750000 0.159155
0.800000 0.159155
0.850000 0.159155
0.900000 0.159155
0.950000 0.159155
1.000000 0.159155
0 0.795775
0.050000 0.795775
0.100000 0.795775
0.150000 0.795775
0.200000 0.795775
0.250000 0.795775
0.300000 0.795775
0.350000 0.795775
0.400000 0.795775
0.450000 0.795775
0.500000 0.795775
0.550000 0.795775
0.600000 0.795775
0.650000 0.795775
0.700000 0.795775
0.750000 0.795775
0.800000 0.795775
0.850000 0.795775
0.900000 0.795775
0.950000 0.795775
1.000000 0.795775
0.500000 0.954930
</float_array>
          <technique_common>
            <accessor source="#_collider_cylinder_Shape3-lib-map1-array" count="44" stride="2">
              <param name="S" type="float"/>
              <param name="T" type="float"/>
            </accessor>
          </technique_common>
        </source>
        <vertices id="_collider_cylinder_Shape3-lib-Vertex">
          <input semantic="POSITION" source="#_collider_cylinder_Shape3-lib-Position"/>
        </vertices>
        <triangles material="lambert1" count="80">
          <input semantic="VERTEX" offset="0" source="#_collider_cylinder_Shape3-lib-Vertex"/>
          <input semantic="NORMAL" offset="1" source="#_collider_cylinder_Shape3-lib-Normal"/>
          <input semantic="TEXCOORD" offset="2" set="0" source="#_collider_cylinder_Shape3-lib-map1"/>
          <p>0 0 1 1 1 2 20 3 22 1 1 2 21 2 23 20 3 22 1 1 2 2 4 3 21 2 23 2 4 3 22 5 24 21 2 23 2 4 3 3 6 4 22 5 24 3 6 4 23 7 25 22 5 24 3 6 4 4 8 5 23 7 25 4 8 5 24 9 26 23 7 25 4 8 5 5 10 6 24 9 26 5 10 6 25 11 27 24 9 26 5 10 6 6 12 7 25 11 27 6 12 7 26 13 28 25 11 27 6 12 7 7 14 8 26 13 28 7 14 8 27 15 29 26 13 28 7 14 8 8 16 9 27 15 29 8 16 9 28 17 30 27 15 29 8 16 9 9 18 10 28 17 30 9 18 10 29 19 31 28 17 30 9 18 10 10 20 11 29 19 31 10 20 11 30 21 32 29 19 31 10 20 11 11 22 12 30 21 32 11 22 12 31 23 33 30 21 32 11 22 12 12 24 13 31 23 33 12 24 13 32 25 34 31 23 33 12 24 13 13 26 14 32 25 34 13 26 14 33 27 35 32 25 34 13 26 14 14 28 15 33 27 35 14 28 15 34 29 36 33 27 35 14 28 15 15 30 16 34 29 36 15 30 16 35 31 37 34 29 36 15 30 16 16 32 17 35 31 37 16 32 17 36 33 38 35 31 37 16 32 17 17 34 18 36 33 38 17 34 18 37 35 39 36 33 38 17 34 18 18 36 19 37 35 39 18 36 19 38 37 40 37 35 39 18 36 19 19 38 20 38 37 40 19 38 20 39 39 41 38 37 40 19 38 20 0 0 21 39 39 41 0 0 21 20 3 42 39 39 41 1 40 2 0 41 1 40 42 0 2 43 3 1 40 2 40 42 0 3 44 4 2 43 3 40 42 0 4 45 5 3 44 4 40 42 0 5 46 6 4 45 5 40 42 0 6 47 7 5 46 6 40 42 0 7 48 8 6 47 7 40 42 0 8 49 9 7 48 8 40 42 0 9 50 10 8 49 9 40 42 0 10 51 11 9 50 10 40 42 0 11 52 12 10 51 11 40 42 0 12 53 13 11 52 12 40 42 0 13 54 14 12 53 13 40 42 0 14 55 15 13 54 14 40 42 0 15 56 16 14 55 15 40 42 0 16 57 17 15 56 16 40 42 0 17 58 18 16 57 17 40 42 0 18 59 19 17 58 18 40 42 0 19 60 20 18 59 19 40 42 0 0 41 21 19 60 20 40 42 0 20 61 22 21 62 23 41 63 43 21 62 23 22 64 24 41 63 43 22 64 24 23 65 25 41 63 43 23 65 25 24 66 26 41 63 43 24 66 26 25 67 27 41 63 43 25 67 27 26 68 28 41 63 43 26 68 28 27 69 29 41 63 43 27 69 29 28 70 30 41 63 43 28 70 30 29 71 31 41 63 43 29 71 31 30 72 32 41 63 43 30 72 32 31 73 33 41 63 43 31 73 33 32 74 34 41 63 43 32 74 34 33 75 35 41 63 43 33 75 35 34 76 36 41 63 43 34 76 36 35 77 37 41 63 43 35 77 37 36 78 38 41 63 43 36 78 38 37 79 39 41 63 43 37 79 39 38 80 40 41 63 43 38 80 40 39 81 41 41 63 43 39 81 41 20 61 42 41 63 43</p>
        </triangles>
      </mesh>
    </geometry>
    <geometry id="leverShape-lib" name="leverShape">
      <mesh>
        <source id="leverShape-lib-Position">
          <float_array count="120" id="leverShape-lib-Position-array">
0.081137 -0.025614 -0.081908
0.061996 -0.016562 -0.088246
0.061996 0.080182 0.049918
0.081137 0.071130 0.056257
0.042857 -0.025614 -0.081908
0.042857 0.071130 0.056257
0.042857 -0.043718 -0.069231
0.042857 0.053026 0.068932
0.061996 -0.052769 -0.062894
0.061996 0.043974 0.075271
0.081137 -0.043718 -0.069231
0.081137 0.053026 0.068932
-0.044164 -0.025614 -0.081908
-0.063304 -0.016562 -0.088246
-0.063304 0.080182 0.049918
-0.044164 0.071130 0.056257
-0.082443 -0.025614 -0.081908
-0.082443 0.071130 0.056257
-0.082443 -0.043718 -0.069231
-0.082443 0.053026 0.068932
-0.063304 -0.052769 -0.062894
-0.063304 0.043974 0.075271
-0.044164 -0.043718 -0.069231
-0.044164 0.053026 0.068932
-0.127510 0.059798 0.034302
-0.127510 0.080765 0.040912
0.126202 0.080765 0.040912
0.126202 0.059798 0.034302
-0.127510 0.090917 0.060412
0.126202 0.090917 0.060412
-0.127510 0.084306 0.081378
0.126202 0.084306 0.081378
-0.127510 0.064806 0.091529
0.126202 0.064806 0.091529
-0.127510 0.043839 0.084919
0.126202 0.043839 0.084919
-0.127510 0.033688 0.065419
0.126202 0.033688 0.065419
-0.127510 0.040298 0.044452
0.126202 0.040298 0.044452
</float_array>
          <technique_common>
            <accessor source="#leverShape-lib-Position-array" count="40" stride="3">
              <param name="X" type="float"/>
              <param name="Y" type="float"/>
              <param name="Z" type="float"/>
            </accessor>
          </technique_common>
        </source>
        <source id="leverShape-lib-Normal">
          <float_array count="240" id="leverShape-lib-Normal-array">
0.866023 0.409579 -0.286792
-0.000017 0.819151 -0.573578
-0.000017 0.819151 -0.573578
0.866023 0.409579 -0.286792
-0.866031 0.409567 -0.286783
-0.866031 0.409567 -0.286783
-0.866027 -0.409575 0.286786
-0.866027 -0.409575 0.286786
-0.000017 -0.819153 0.573575
-0.000017 -0.819153 0.573575
0.866018 -0.409587 0.286795
0.866018 -0.409587 0.286795
0.866023 0.409578 -0.286791
-0.000015 0.819151 -0.573578
-0.000015 0.819151 -0.573578
0.866023 0.409578 -0.286791
-0.866031 0.409567 -0.286783
-0.866031 0.409567 -0.286783
-0.866026 -0.409575 0.286786
-0.866026 -0.409575 0.286786
-0.000015 -0.819153 0.573575
-0.000015 -0.819153 0.573575
0.866019 -0.409586 0.286794
0.866019 -0.409586 0.286794
0 -0.087140 -0.996196
0 0.642779 -0.766051
0 0.642779 -0.766051
0 -0.087140 -0.996196
0 0.996194 -0.087160
0 0.996194 -0.087160
0 0.766046 0.642786
0 0.766046 0.642786
0 0.087165 0.996194
0 0.087165 0.996194
0 -0.642777 0.766053
0 -0.642777 0.766053
0 -0.996194 0.087167
0 -0.996194 0.087167
0 -0.766034 -0.642800
0 -0.766034 -0.642800
-1.000000 -0.000000 0
-1.000000 -0.000000 0
-1.000000 -0.000000 0
-1.000000 -0.000000 0
-1.000000 -0.000000 0
-1.000000 0 0
1.000000 0 0
1.000000 0 0
1.000000 -0.000000 0
1.000000 0 0
1.000000 0 0
1.000000 0 0
-1.000000 -0.000000 0
-1.000000 0 0
1.000000 0 0
1.000000 -0.000000 0
0 -0.573566 -0.819160
0 -0.573566 -0.819160
0 -0.573566 -0.819160
0 -0.573566 -0.819160
0 -0.573566 -0.819160
0 -0.573566 -0.819160
0 0.573556 0.819166
0 0.573556 0.819166
0 0.573556 0.819166
0 0.573556 0.819166
0 0.573556 0.819166
0 0.573556 0.819166
0 -0.573566 -0.819159
0 -0.573566 -0.819159
0 -0.573566 -0.819159
0 -0.573566 -0.819159
0 -0.573566 -0.819159
0 -0.573566 -0.819159
0 0.573556 0.819166
0 0.573556 0.819166
0 0.573556 0.819166
0 0.573556 0.819166
0 0.573556 0.819166
0 0.573556 0.819166
</float_array>
          <technique_common>
            <accessor source="#leverShape-lib-Normal-array" count="80" stride="3">
              <param name="X" type="float"/>
              <param name="Y" type="float"/>
              <param name="Z" type="float"/>
            </accessor>
          </technique_common>
          <technique profile="MAYA">
            <DOUBLE_SIDED>true</DOUBLE_SIDED>
          </technique>
        </source>
        <source id="leverShape-lib-map1" name="map1">
          <float_array count="148" id="leverShape-lib-map1-array">
0.203316 0.011058
0.250482 0.011058
0.250482 0.363296
0.203316 0.363296
0.297649 0.011058
0.297649 0.363296
0.014650 0.011058
0.061816 0.011058
0.061816 0.363296
0.014650 0.363296
0.108982 0.011058
0.108982 0.363296
0.156149 0.011058
0.156149 0.363296
0.203316 0.011058
0.250482 0.011058
0.250482 0.363296
0.203316 0.363296
0.297649 0.011058
0.297649 0.363296
0.014650 0.011058
0.061816 0.011058
0.061816 0.363296
0.014650 0.363296
0.108982 0.011058
0.108982 0.363296
0.156149 0.011058
0.156149 0.363296
0.523198 0.760762
0.523199 0.722311
0.991723 0.722322
0.991722 0.760773
0.523200 0.683859
0.991724 0.683870
0.523192 0.991473
0.523193 0.953021
0.991717 0.953032
0.991716 0.991484
0.523194 0.914569
0.991718 0.914580
0.523195 0.876118
0.991719 0.876128
0.523196 0.837666
0.991720 0.837677
0.523197 0.799214
0.991721 0.799225
0.090928 0.745345
0.090927 0.887956
0.162233 0.816651
0.141349 0.766230
0.019622 0.816650
0.040507 0.766229
0.040507 0.766229
0.141348 0.867071
0.040506 0.867071
0.019622 0.816650
0.141349 0.766230
0.090928 0.745345
0.040507 0.867071
0.141348 0.867071
0.162233 0.816651
0.090927 0.887956
0.019804 0.817150
0.054925 0.754036
0.125169 0.754036
0.160285 0.817150
0.125169 0.880261
0.054925 0.880261
0.019980 0.816971
0.055101 0.753857
0.125344 0.753857
0.160461 0.816971
0.125344 0.880081
0.055101 0.880081
</float_array>
          <technique_common>
            <accessor source="#leverShape-lib-map1-array" count="74" stride="2">
              <param name="S" type="float"/>
              <param name="T" type="float"/>
            </accessor>
          </technique_common>
        </source>
        <vertices id="leverShape-lib-Vertex">
          <input semantic="POSITION" source="#leverShape-lib-Position"/>
        </vertices>
        <triangles material="lambert1" count="68">
          <input semantic="VERTEX" offset="0" source="#leverShape-lib-Vertex"/>
          <input semantic="NORMAL" offset="1" source="#leverShape-lib-Normal"/>
          <input semantic="TEXCOORD" offset="2" set="0" source="#leverShape-lib-map1"/>
          <p>0 0 0 1 1 1 3 3 3 1 1 1 2 2 2 3 3 3 4 4 4 5 5 5 1 1 1 1 1 1 5 5 5 2 2 2 4 4 6 6 6 7 5 5 9 6 6 7 7 7 8 5 5 9 6 6 7 8 8 10 7 7 8 8 8 10 9 9 11 7 7 8 8 8 10 10 10 12 9 9 11 10 10 12 11 11 13 9 9 11 10 10 12 0 0 0 11 11 13 0 0 0 3 3 3 11 11 13 12 12 14 13 13 15 15 15 17 13 13 15 14 14 16 15 15 17 16 16 18 17 17 19 13 13 15 13 13 15 17 17 19 14 14 16 16 16 20 18 18 21 17 17 23 18 18 21 19 19 22 17 17 23 18 18 21 20 20 24 19 19 22 20 20 24 21 21 25 19 19 22 20 20 24 22 22 26 21 21 25 22 22 26 23 23 27 21 21 25 22 22 26 12 12 14 23 23 27 12 12 14 15 15 17 23 23 27 24 24 28 25 25 29 27 27 31 25 25 29 26 26 30 27 27 31 25 25 29 28 28 32 26 26 30 28 28 32 29 29 33 26 26 30 28 28 34 30 30 35 29 29 37 30 30 35 31 31 36 29 29 37 30 30 35 32 32 38 31 31 36 32 32 38 33 33 39 31 31 36 32 32 38 34 34 40 33 33 39 34 34 40 35 35 41 33 33 39 34 34 40 36 36 42 35 35 41 36 36 42 37 37 43 35 35 41 36 36 42 38 38 44 37 37 43 38 38 44 39 39 45 37 37 43 38 38 44 24 24 28 39 39 45 24 24 28 27 27 31 39 39 45 24 40 46 32 41 47 25 43 49 32 41 47 28 42 48 25 43 49 24 40 46 38 45 51 32 41 47 36 44 50 32 41 47 38 45 51 39 46 52 31 47 53 37 49 55 31 47 53 35 48 54 37 49 55 39 46 52 27 51 57 31 47 53 26 50 56 31 47 53 27 51 57 36 44 50 34 52 58 32 41 47 28 42 48 32 41 47 30 53 59 26 50 56 29 54 60 31 47 53 35 48 54 31 47 53 33 55 61 1 56 62 0 57 63 4 61 67 0 57 63 10 58 64 4 61 67 10 58 64 8 59 65 4 61 67 8 59 65 6 60 66 4 61 67 3 62 3 2 63 2 11 67 13 2 63 2 5 64 9 11 67 13 5 64 9 7 65 8 11 67 13 7 65 8 9 66 11 11 67 13 13 68 68 12 69 69 16 73 73 12 69 69 22 70 70 16 73 73 22 70 70 20 71 71 16 73 73 20 71 71 18 72 72 16 73 73 15 74 17 14 75 16 23 79 27 14 75 16 17 76 23 23 79 27 17 76 23 19 77 22 23 79 27 19 77 22 21 78 25 23 79 27</p>
        </triangles>
      </mesh>
    </geometry>
    <geometry id="_collider_box_Shape1-lib" name="_collider_box_Shape1">
      <mesh>
        <source id="_collider_box_Shape1-lib-Position">
          <float_array count="24" id="_collider_box_Shape1-lib-Position-array">
-0.500000 -0.500000 0.500000
0.500000 -0.500000 0.500000
-0.500000 0.500000 0.500000
0.500000 0.500000 0.500000
-0.500000 0.500000 -0.500000
0.500000 0.500000 -0.500000
-0.500000 -0.500000 -0.500000
0.500000 -0.500000 -0.500000
</float_array>
          <technique_common>
            <accessor source="#_collider_box_Shape1-lib-Position-array" count="8" stride="3">
              <param name="X" type="float"/>
              <param name="Y" type="float"/>
              <param name="Z" type="float"/>
            </accessor>
          </technique_common>
        </source>
        <source id="_collider_box_Shape1-lib-Normal">
          <float_array count="72" id="_collider_box_Shape1-lib-Normal-array">
0 0 1.000000
0 0 1.000000
0 0 1.000000
0 0 1.000000
0 1.000000 0
0 1.000000 0
0 1.000000 0
0 1.000000 0
0 0 -1.000000
0 0 -1.000000
0 0 -1.000000
0 0 -1.000000
0 -1.000000 0
0 -1.000000 0
0 -1.000000 0
0 -1.000000 0
1.000000 0 0
1.000000 0 0
1.000000 0 0
1.000000 0 0
-1.000000 0 0
-1.000000 0 0
-1.000000 0 0
-1.000000 0 0
</float_array>
          <technique_common>
            <accessor source="#_collider_box_Shape1-lib-Normal-array" count="24" stride="3">
              <param name="X" type="float"/>
              <param name="Y" type="float"/>
              <param name="Z" type="float"/>
            </accessor>
          </technique_common>
          <technique profile="MAYA">
            <DOUBLE_SIDED>true</DOUBLE_SIDED>
          </technique>
        </source>
        <source id="_collider_box_Shape1-lib-map1" name="map1">
          <float_array count="28" id="_collider_box_Shape1-lib-map1-array">
0 0
1.000000 0
0 1.000000
1.000000 1.000000
0 2.000000
1.000000 2.000000
0 3.000000
1.000000 3.000000
0 4.000000
1.000000 4.000000
2.000000 0
2.000000 1.000000
-1.000000 0
-1.000000 1.000000
</float_array>
          <technique_common>
            <accessor source="#_collider_box_Shape1-lib-map1-array" count="14" stride="2">
              <param name="S" type="float"/>
              <param name="T" type="float"/>
            </accessor>
          </technique_common>
        </source>
        <vertices id="_collider_box_Shape1-lib-Vertex">
          <input semantic="POSITION" source="#_collider_box_Shape1-lib-Position"/>
        </vertices>
        <triangles material="lambert1" count="12">
          <input semantic="VERTEX" offset="0" source="#_collider_box_Shape1-lib-Vertex"/>
          <input semantic="NORMAL" offset="1" source="#_collider_box_Shape1-lib-Normal"/>
          <input semantic="TEXCOORD" offset="2" set="0" source="#_collider_box_Shape1-lib-map1"/>
          <p>0 0 0 1 1 1 2 3 2 1 1 1 3 2 3 2 3 2 2 4 2 3 5 3 4 7 4 3 5 3 5 6 5 4 7 4 4 8 4 5 9 5 6 11 6 5 9 5 7 10 7 6 11 6 6 12 6 7 13 7 0 15 8 7 13 7 1 14 9 0 15 8 1 16 1 7 17 10 3 19 3 7 17 10 5 18 11 3 19 3 6 20 12 0 21 0 4 23 13 0 21 0 2 22 2 4 23 13</p>
        </triangles>
      </mesh>
    </geometry>
    <geometry id="holderShape-lib" name="holderShape">
      <mesh>
        <source id="holderShape-lib-Position">
          <float_array count="108" id="holderShape-lib-Position-array">
-0.113641 -0.116699 0.011408
-0.134946 -0.138003 -0.047688
0.133639 -0.138003 -0.047688
0.112335 -0.116699 0.011408
-0.113641 0.115166 0.011408
0.112335 0.115166 0.011408
0.133639 0.136471 -0.047688
-0.134946 0.136471 -0.047688
-0.041137 -0.085627 -0.010365
-0.041137 0.084095 -0.010365
-0.085515 0.084095 -0.010365
-0.085515 -0.085627 -0.010365
0.115280 -0.113755 0.011408
0.136583 -0.135058 -0.047688
0.136583 0.133526 -0.047688
0.115280 0.112222 0.011408
-0.137891 -0.135058 -0.047688
-0.116586 -0.113755 0.011408
-0.116586 0.112222 0.011408
-0.137891 0.133526 -0.047688
-0.041137 -0.085627 0.014030
-0.112852 -0.112964 0.014030
0.084207 -0.085627 0.014030
0.039831 -0.085627 0.014030
0.111544 -0.112964 0.014030
0.111544 0.111432 0.014030
0.084207 0.084095 0.014030
0.039831 0.084095 0.014030
-0.085515 0.084095 0.014030
-0.041137 0.084095 0.014030
-0.112852 0.111432 0.014030
-0.085515 -0.085627 0.014030
0.084207 -0.085627 -0.010365
0.084207 0.084095 -0.010365
0.039831 0.084095 -0.010365
0.039831 -0.085627 -0.010365
</float_array>
          <technique_common>
            <accessor source="#holderShape-lib-Position-array" count="36" stride="3">
              <param name="X" type="float"/>
              <param name="Y" type="float"/>
              <param name="Z" type="float"/>
            </accessor>
          </technique_common>
        </source>
        <source id="holderShape-lib-Normal">
          <float_array count="360" id="holderShape-lib-Normal-array">
0 -0.940735 0.339142
0 -0.940735 0.339142
0 -0.940735 0.339142
0 -0.940735 0.339142
0 0.940736 0.339141
0 0.940736 0.339141
0 0.940736 0.339141
0 0.940736 0.339141
0 0 1.000000
0 0 1.000000
0 0 1.000000
0 0 1.000000
0.940740 0 0.339130
0.940740 0 0.339130
0.940740 0 0.339130
0.940740 0 0.339130
0 0 -1.000000
0 0 -1.000000
0 0 -1.000000
0 0 -1.000000
0 0 -1.000000
0 0 -1.000000
0 0 -1.000000
0 0 -1.000000
-0.940734 0 0.339146
-0.940734 0 0.339146
-0.940734 0 0.339146
-0.940734 0 0.339146
0 0 1.000000
0 0 1.000000
0 0 1.000000
0 0 1.000000
0 0 1.000000
0 0 1.000000
0 0 1.000000
0 0 1.000000
0 0 1.000000
0 0 1.000000
0 0 1.000000
0 0 1.000000
0 0 1.000000
0 0 1.000000
0 0 1.000000
0 0 1.000000
0 1.000000 0
0 1.000000 0
0 1.000000 0
0 1.000000 0
-1.000000 0 0
-1.000000 0 0
-1.000000 0 0
-1.000000 0 0
0 -1.000000 0
0 -1.000000 0
0 -1.000000 0
0 -1.000000 0
1.000000 0 0
1.000000 0 0
1.000000 0 0
1.000000 0 0
-1.000000 0 0
-1.000000 0 0
-1.000000 0 0
-1.000000 0 0
0 -1.000000 0
0 -1.000000 0
0 -1.000000 0
0 -1.000000 0
1.000000 0 0
1.000000 0 0
1.000000 0 0
1.000000 0 0
0 1.000000 0
0 1.000000 0
0 1.000000 0
0 1.000000 0
-0.629893 -0.630023 0.454208
-0.629893 -0.630023 0.454208
-0.629893 -0.630023 0.454208
-0.629893 -0.630023 0.454208
0.629967 -0.629954 0.454202
0.629967 -0.629954 0.454202
0.629967 -0.629954 0.454202
0.629967 -0.629954 0.454202
0 -0.574696 0.818367
0 -0.574696 0.818367
0 -0.574696 0.818367
0 -0.574696 0.818367
0 0.574730 0.818343
0 0.574730 0.818343
0 0.574730 0.818343
0 0.574730 0.818343
0.629955 0.629965 0.454204
0.629955 0.629965 0.454204
0.629955 0.629965 0.454204
0.629955 0.629965 0.454204
-0.629881 0.630034 0.454211
-0.629881 0.630034 0.454211
-0.629881 0.630034 0.454211
-0.629881 0.630034 0.454211
0.574578 0 0.818450
0.574578 0 0.818450
0.574578 0 0.818450
0.574578 0 0.818450
-0.574699 0 0.818365
-0.574699 0 0.818365
-0.574699 0 0.818365
-0.574699 0 0.818365
-0.448167 -0.448384 0.773368
-0.448167 -0.448384 0.773368
-0.448167 -0.448384 0.773368
0.448110 -0.448285 0.773459
0.448110 -0.448285 0.773459
0.448110 -0.448285 0.773459
-0.448204 0.448395 0.773340
-0.448204 0.448395 0.773340
-0.448204 0.448395 0.773340
0.448149 0.448297 0.773429
0.448149 0.448297 0.773429
0.448149 0.448297 0.773429
</float_array>
          <technique_common>
            <accessor source="#holderShape-lib-Normal-array" count="120" stride="3">
              <param name="X" type="float"/>
              <param name="Y" type="float"/>
              <param name="Z" type="float"/>
            </accessor>
          </technique_common>
          <technique profile="MAYA">
            <DOUBLE_SIDED>true</DOUBLE_SIDED>
          </technique>
        </source>
        <source id="holderShape-lib-map1" name="map1">
          <float_array count="152" id="holderShape-lib-map1-array">
0.445537 0.124294
0.405879 0.008621
0.905848 0.008621
0.866190 0.124294
0.445536 0.554307
0.866190 0.554307
0.905848 0.669980
0.405879 0.669980
0.468819 0.988327
0.152883 0.988326
0.152884 0.905719
0.468819 0.905720
0.873215 0.131244
0.990151 0.092014
0.990151 0.586587
0.873216 0.547358
0.302769 0.729348
0.017974 0.725614
0.305812 0.381678
0.305857 0.725577
0.021018 0.377944
0.017929 0.381716
0.321576 0.092014
0.438511 0.131244
0.438511 0.547358
0.321575 0.586587
0.580503 0.183038
0.447007 0.132698
0.813831 0.183038
0.731224 0.183038
0.864720 0.132698
0.864720 0.545903
0.813832 0.495564
0.731224 0.495564
0.497895 0.495564
0.580503 0.495564
0.447006 0.545903
0.497895 0.183038
0.468819 0.988327
0.152883 0.988326
0.152884 0.905719
0.468819 0.905720
0.514230 0.905720
0.514230 0.988327
0.501428 0.812878
0.185492 0.812877
0.185492 0.767466
0.501428 0.767467
0.107472 0.988326
0.107473 0.905719
0.185492 0.836431
0.501428 0.836432
0.501428 0.881843
0.185492 0.881842
0.501428 0.812879
0.185492 0.812877
0.185492 0.767466
0.501428 0.767467
0.107472 0.988326
0.107473 0.905719
0.185493 0.836431
0.501429 0.836432
0.501428 0.881844
0.185492 0.881842
0.514231 0.905720
0.514230 0.988327
0.442064 0.124532
0.324066 0.084752
0.987661 0.084752
0.869663 0.124532
0.869664 0.554069
0.987661 0.593849
0.324065 0.593849
0.442063 0.554069
0.021063 0.729385
0.302723 0.377908
</float_array>
          <technique_common>
            <accessor source="#holderShape-lib-map1-array" count="76" stride="2">
              <param name="S" type="float"/>
              <param name="T" type="float"/>
            </accessor>
          </technique_common>
        </source>
        <vertices id="holderShape-lib-Vertex">
          <input semantic="POSITION" source="#holderShape-lib-Position"/>
        </vertices>
        <triangles material="lambert1" count="68">
          <input semantic="VERTEX" offset="0" source="#holderShape-lib-Vertex"/>
          <input semantic="NORMAL" offset="1" source="#holderShape-lib-Normal"/>
          <input semantic="TEXCOORD" offset="2" set="0" source="#holderShape-lib-map1"/>
          <p>1 1 1 2 2 2 0 0 0 0 0 0 2 2 2 3 3 3 6 6 6 7 7 7 5 5 5 4 4 4 5 5 5 7 7 7 8 8 8 9 9 9 11 11 11 9 9 9 10 10 10 11 11 11 13 13 13 14 14 14 12 12 12 12 12 12 14 14 14 15 15 15 2 16 17 7 17 18 13 20 74 7 17 18 6 18 19 13 20 74 6 18 19 14 19 16 13 20 74 7 17 18 2 16 17 19 23 75 2 16 17 1 21 21 19 23 75 1 21 21 16 22 20 19 23 75 16 24 22 17 25 23 19 27 25 17 25 23 18 26 24 19 27 25 22 30 28 23 31 29 21 29 27 20 28 26 21 29 27 23 31 29 24 32 30 25 33 31 22 30 28 25 33 31 26 34 32 22 30 28 28 36 34 29 37 35 25 33 31 27 35 33 25 33 31 29 37 35 30 38 36 21 29 27 28 36 34 21 29 27 31 39 37 28 36 34 32 40 38 33 41 39 35 43 41 33 41 39 34 42 40 35 43 41 20 28 26 23 31 29 29 37 35 23 31 29 27 35 33 29 37 35 31 44 42 20 45 43 11 47 11 20 45 43 8 46 8 11 47 11 20 48 44 29 49 45 8 51 47 29 49 45 9 50 46 8 51 47 29 52 48 28 53 49 9 55 9 28 53 49 10 54 10 9 55 9 28 56 50 31 57 51 10 59 53 31 57 51 11 58 52 10 59 53 22 60 54 26 61 55 32 63 57 26 61 55 33 62 56 32 63 57 26 64 58 27 65 59 33 67 39 27 65 59 34 66 40 33 67 39 27 68 60 23 69 61 34 71 63 23 69 61 35 70 62 34 71 63 23 72 64 22 73 65 35 75 41 22 73 65 32 74 38 35 75 41 0 76 66 17 77 23 1 79 67 17 77 23 16 78 22 1 79 67 2 80 68 13 81 13 3 83 69 13 81 13 12 82 12 3 83 69 0 85 0 3 86 3 21 84 27 21 84 27 3 86 3 24 87 30 5 89 5 4 90 4 25 88 31 25 88 31 4 90 4 30 91 36 5 92 70 15 93 15 6 95 71 15 93 15 14 94 14 6 95 71 19 97 25 18 98 24 7 96 72 7 96 72 18 98 24 4 99 73 12 101 12 15 102 15 24 100 30 24 100 30 15 102 15 25 103 31 18 105 24 17 106 23 30 104 36 30 104 36 17 106 23 21 107 27 20 28 26 31 39 37 21 29 27 22 30 28 21 29 27 24 32 30 27 35 33 26 34 32 25 33 31 28 36 34 25 33 31 30 38 36 21 108 27 17 109 23 0 110 66 3 111 69 12 112 12 24 113 30 30 114 36 4 115 73 18 116 24 15 117 15 5 118 70 25 119 31</p>
        </triangles>
      </mesh>
    </geometry>
  </library_geometries>
  <library_visual_scenes>
    <visual_scene id="DefaultScene" name="gameplay_power_switch">
      <node id="_joint_hinge_lever_holder_0_75_nocollide_joint1" name="_joint_hinge_lever_holder_0_75_nocollide_joint1" sid="_joint_hinge_lever_holder_0_75_nocollide_joint1">
        <translate sid="translate">0 0.015061 -0.017717</translate>
        <rotate sid="rotateZ">0 0 1 -270.000244</rotate>
        <rotate sid="rotateY">0 1 0 0</rotate>
        <rotate sid="rotateX">1 0 0 0</rotate>
        <instance_geometry url="#_joint_hinge_lever_holder_0_75_nocollide_jointShape1-lib">
          <bind_material>
            <technique_common>
              <instance_material symbol="lambert1" target="#lambert1">
                <bind semantic="UVSET0" target="#_joint_hinge_lever_holder_0_75_nocollide_jointShape1-lib-map1"/>
              </instance_material>
            </technique_common>
          </bind_material>
        </instance_geometry>
      </node>
      <node id="group2" name="group2" sid="group2">
        <rotate sid="rotateZ">0 0 1 0</rotate>
        <rotate sid="rotateY">0 1 0 0</rotate>
        <rotate sid="rotateX">1 0 0 0</rotate>
        <node id="_collider_cylinder_1" name="_collider_cylinder_1" sid="_collider_cylinder_1">
          <translate sid="translate">-0.001509 0.133670 0.122191</translate>
          <rotate sid="rotateZ">0 0 1 -90.000076</rotate>
          <rotate sid="rotateY">0 1 0 0</rotate>
          <rotate sid="rotateX">1 0 0 0</rotate>
          <scale sid="scale">0.334349 0.652974 0.334349</scale>
          <instance_geometry url="#_collider_cylinder_Shape1-lib">
            <bind_material>
              <technique_common>
                <instance_material symbol="lambert1" target="#lambert1">
                  <bind semantic="UVSET0" target="#_collider_cylinder_Shape1-lib-map1"/>
                </instance_material>
              </technique_common>
            </bind_material>
          </instance_geometry>
        </node>
        <node id="_collider_cylinder_2" name="_collider_cylinder_2" sid="_collider_cylinder_2">
          <translate sid="translate">0.061786 0.065351 0.053867</translate>
          <rotate sid="rotateZ">0 0 1 -90.000076</rotate>
          <rotate sid="rotateY">0 1 0 -35.000031</rotate>
          <rotate sid="rotateX">1 0 0 -90.000076</rotate>
          <scale sid="scale">0.224536 0.438512 0.224536</scale>
          <instance_geometry url="#_collider_cylinder_Shape2-lib">
            <bind_material>
              <technique_common>
                <instance_material symbol="lambert1" target="#lambert1">
                  <bind semantic="UVSET0" target="#_collider_cylinder_Shape2-lib-map1"/>
                </instance_material>
              </technique_common>
            </bind_material>
          </instance_geometry>
        </node>
        <node id="_collider_cylinder_3" name="_collider_cylinder_3" sid="_collider_cylinder_3">
          <translate sid="translate">-0.063600 0.065351 0.053867</translate>
          <rotate sid="rotateZ">0 0 1 -90.000076</rotate>
          <rotate sid="rotateY">0 1 0 -35.000031</rotate>
          <rotate sid="rotateX">1 0 0 -90.000076</rotate>
          <scale sid="scale">0.224536 0.438512 0.224536</scale>
          <instance_geometry url="#_collider_cylinder_Shape3-lib">
            <bind_material>
              <technique_common>
                <instance_material symbol="lambert1" target="#lambert1">
                  <bind semantic="UVSET0" target="#_collider_cylinder_Shape3-lib-map1"/>
                </instance_material>
              </technique_common>
            </bind_material>
          </instance_geometry>
        </node>
        <node id="lever" name="lever" sid="lever">
          <translate sid="translate">0 0.050058 0.057772</translate>
          <translate sid="rotatePivot">-0.000654 0.000719 -0.000693</translate>
          <rotate sid="rotateZ">0 0 1 0</rotate>
          <rotate sid="rotateY">0 1 0 0</rotate>
          <rotate sid="rotateX">1 0 0 0</rotate>
          <translate sid="rotatePivotInverse">0.000654 -0.000719 0.000693</translate>
          <translate sid="scalePivot">-0.000654 0.000719 -0.000693</translate>
          <translate sid="scalePivotInverse">0.000654 -0.000719 0.000693</translate>
          <instance_geometry url="#leverShape-lib">
            <bind_material>
              <technique_common>
                <instance_material symbol="lambert1" target="#lambert1">
                  <bind semantic="UVSET0" target="#leverShape-lib-map1"/>
                </instance_material>
              </technique_common>
            </bind_material>
          </instance_geometry>
        </node>
      </node>
      <node id="group1" name="group1" sid="group1">
        <rotate sid="rotateZ">0 0 1 0</rotate>
        <rotate sid="rotateY">0 1 0 0</rotate>
        <rotate sid="rotateX">1 0 0 0</rotate>
        <node id="_collider_box_1" name="_collider_box_1" sid="_collider_box_1">
          <translate sid="translate">0 0 -0.016341</translate>
          <rotate sid="rotateZ">0 0 1 0</rotate>
          <rotate sid="rotateY">0 1 0 0</rotate>
          <rotate sid="rotateX">1 0 0 0</rotate>
          <scale sid="scale">0.273451 0.273451 0.069882</scale>
          <instance_geometry url="#_collider_box_Shape1-lib">
            <bind_material>
              <technique_common>
                <instance_material symbol="lambert1" target="#lambert1">
                  <bind semantic="UVSET0" target="#_collider_box_Shape1-lib-map1"/>
                </instance_material>
              </technique_common>
            </bind_material>
          </instance_geometry>
        </node>
        <node id="holder" name="holder" sid="holder">
          <translate sid="rotatePivot">-0.000654 -0.000155 0.001523</translate>
          <rotate sid="rotateZ">0 0 1 0</rotate>
          <rotate sid="rotateY">0 1 0 0</rotate>
          <rotate sid="rotateX">1 0 0 0</rotate>
          <translate sid="rotatePivotInverse">0.000654 0.000155 -0.001523</translate>
          <translate sid="scalePivot">-0.000654 -0.000155 0.001523</translate>
          <translate sid="scalePivotInverse">0.000654 0.000155 -0.001523</translate>
          <instance_geometry url="#holderShape-lib">
            <bind_material>
              <technique_common>
                <instance_material symbol="lambert1" target="#lambert1">
                  <bind semantic="UVSET0" target="#holderShape-lib-map1"/>
                </instance_material>
              </technique_common>
            </bind_material>
          </instance_geometry>
        </node>
      </node>
      <extra>
        <technique profile="MAYA">
          <start_time>0.041667</start_time>
          <end_time>2.000000</end_time>
        </technique>
      </extra>
    </visual_scene>
  </library_visual_scenes>
  <scene>
    <instance_visual_scene url="#DefaultScene"/>
  </scene>
</COLLADA>
